 .33025E+01 .37406E+06 .22882E+06 .93778E+00 .80599E+00 .16649E+00 .15005E+00 .50470E+01 .46955E+08 .20864E+01 .53729E+01 .14937E+01 .58260E+01 .75362E+00 .56486E+01
 .10116E+02 .50069E+06 .33546E+06 .40400E+00 .40124E+00 .20429E+00 .10897E+00 .23770E+01 .10589E+09 .51055E+00 .46115E+01 .13477E+01 .48694E+01 .55245E+01 .46262E+01
 .49154E+01 .71946E+06 .15340E+06 .98182E+00 .95516E+00 .20441E+00 .13862E+00 .40386E+01 .31957E+08 .21165E+01 .15663E+01 .49411E+00 .21618E+01 .87827E+00 .24951E+01
 .69568E+01 .55869E+05 .49785E+04 .60342E+00 .99800E+00 .54917E-01 .55544E-01 .25422E+00 .82342E+08 .26439E+01 .40986E+01 .17825E+01 .22313E+01 .50780E+01 .33841E+01
 .45699E+01 .33569E+06 .10159E+06 .77764E+00 .96532E+00 .54896E-01 .15842E+00 .34769E+00 .69514E+07 .67408E+00 .45844E+01 .19528E+01 .62503E+01 .22020E+01 .45521E+01
 .57322E+01 .14257E+06 .77061E+05 .99800E+00 .97230E+00 .15058E+00 .67552E-01 .34248E+01 .76505E+08 .26896E+01 .40760E+01 .24955E+01 .20902E+01 .26461E+01 .12661E+01
 .67289E+01 .43923E+06 .31020E+06 .96153E+00 .99800E+00 .10522E+00 .12572E+00 .55709E+01 .11211E+09 .17442E+01 .44875E+01 .44446E+00 .49131E+01 .12787E+01 .30794E+00
 .11060E+02 .94973E+05 .16691E+06 .49406E+00 .46598E+00 .71403E-01 .14178E+00 .58993E+01 .84751E+07 .23131E+01 .58093E+01 .12470E+01 .28290E-03 .38404E+01 .31115E+01
 .52364E+01 .11144E+06 .11244E+06 .80480E+00 .87962E+00 .21335E+00 .14360E+00 .16147E+01 .90379E+07 .12146E+01 .49686E+01 .24534E+01 .28064E+01 .25931E+01 .12212E+01
 .38141E+01 .11619E+05 .74786E+04 .94752E+00 .90488E+00 .29854E+00 .15975E+00 .34301E+01 .11087E+09 .16476E+01 .52418E+01 .12166E+01 .52308E+00 .47702E+01 .45955E+01
 .30448E+01 .19153E+06 .42930E+06 .92116E+00 .95870E+00 .23459E+00 .17044E+00 .45213E+01 .35811E+08 .15857E+01 .70215E+00 .10117E+01 .21599E+01 .23634E+01 .49729E+01
 .35650E+01 .27167E+06 .19635E+06 .96248E+00 .98862E+00 .27090E+00 .14007E+00 .35030E+01 .14380E+09 .89933E+00 .54419E+01 .25874E+01 .46928E+00 .23179E+01 .46279E+00
 .23584E+01 .35480E+06 .54573E+05 .76261E+00 .65716E+00 .76269E-01 .66367E-01 .16375E+01 .15457E+09 .27887E+01 .60803E+01 .11050E+01 .55001E+01 .10310E+01 .46953E+01
 .24628E+01 .31513E+06 .19502E+06 .10186E-01 .23535E+00 .11187E+00 .13306E-01 .37097E+01 .70969E+08 .56829E+00 .18719E+01 .19062E+01 .24965E+01 .46192E+01 .43337E+01
 .39764E+01 .50919E+06 .55089E+04 .99800E+00 .99800E+00 .19093E+00 .91768E-01 .43930E+01 .14150E+09 .23514E+01 .24880E+01 .14625E+01 .62160E+01 .11206E+00 .35853E+01
 .56397E+01 .67465E+05 .14350E+05 .99800E+00 .90836E+00 .11630E+00 .83781E-01 .52278E+01 .13066E+09 .20161E+01 .22052E+01 .69395E+00 .62761E+01 .11020E+01 .39818E+00
 .31033E+01 .43901E+06 .41121E+06 .99800E+00 .97864E+00 .79988E-01 .38469E-01 .54286E+01 .13957E+08 .15676E+01 .17619E+00 .26505E+01 .38404E+01 .41086E+01 .20935E+01
 .57621E+01 .25534E+06 .10887E+06 .98203E+00 .94695E+00 .91024E-01 .44877E-01 .50945E+01 .11880E+09 .24217E+01 .22470E+01 .22691E+01 .16844E+01 .39154E+01 .26931E+01
 .31824E+01 .95291E+06 .94517E+06 .99081E+00 .99794E+00 .17077E+00 .12374E+00 .49732E+01 .52758E+08 .23754E+01 .19638E+01 .15109E+01 .91884E+00 .18619E+01 .15601E+01
 .18794E+01 .35266E+06 .15908E+06 .98580E+00 .18408E-01 .68466E-01 .95304E-01 .56518E+01 .29562E+07 .16281E+01 .62183E+01 .35019E+00 .24340E+01 .15388E+01 .11469E+01
 .46693E+01 .32918E+06 .36742E+06 .28581E+00 .95443E-01 .20303E+00 .15223E+00 .48298E+01 .10791E+08 .56906E+00 .31226E+01 .21344E+01 .14963E+01 .23015E+01 .22721E+01
 .30856E+01 .37430E+06 .37022E+06 .60621E+00 .90937E+00 .10022E+00 .12847E+00 .56271E+01 .12346E+09 .24462E+01 .44606E+01 .22658E+00 .21135E+01 .25386E+01 .53764E+01
 .27031E+01 .20209E+06 .29888E+06 .99800E+00 .99800E+00 .20852E-01 .11380E+00 .24453E+00 .14253E+09 .23825E+01 .34629E+01 .18467E+01 .37827E+01 .44792E+01 .14920E-01
 .40326E+01 .28217E+06 .28129E+06 .52133E+00 .52058E+00 .23544E+00 .12540E+00 .38972E+01 .27175E+08 .19636E+01 .24150E+01 .98364E+00 .52239E+01 .21986E+01 .42718E+01
 .64236E+01 .37545E+06 .34598E+06 .53287E+00 .82938E+00 .65830E-01 .10745E+00 .64662E+00 .59194E+08 .13858E+01 .27278E+01 .20135E+01 .57416E+01 .40448E+01 .52785E+01
 .62919E+01 .18617E+06 .61410E+05 .94487E+00 .80536E+00 .45679E-01 .14340E+00 .59835E+01 .10663E+09 .16592E+01 .22948E+01 .62194E+00 .88616E+00 .29887E+01 .32220E+01
 .50926E+01 .78538E+05 .71303E+05 .99575E+00 .68054E+00 .11077E+00 .10560E+00 .70485E+00 .11826E+09 .16448E+01 .13391E+01 .16614E+01 .63596E-01 .17747E+01 .39601E+01
 .48630E+01 .19998E+06 .18874E+06 .99105E+00 .99800E+00 .20710E+00 .16609E+00 .29397E+01 .15529E+09 .37213E+00 .47323E+01 .19141E+01 .10230E+01 .57187E+01 .34488E+01
 .56626E+01 .38563E+05 .14808E+05 .99800E+00 .99800E+00 .18178E+00 .41268E-01 .42609E+01 .14095E+09 .13502E+01 .29750E+01 .13768E+01 .92371E+00 .59553E+01 .59318E+01
 .13300E+01 .50826E+06 .37652E+06 .61190E+00 .99800E+00 .24448E+00 .13784E+00 .22922E+01 .30999E+08 .23491E+01 .86691E+00 .22687E+01 .54654E+01 .56134E+01 .13836E+01
 .10426E+01 .77371E+06 .33910E+06 .98959E+00 .99800E+00 .85306E-02 .14370E+00 .22687E+00 .11154E+08 .29969E+01 .53271E+00 .14744E+01 .31472E+01 .35667E+01 .46616E+01
 .26198E+01 .18674E+06 .19822E+06 .99800E+00 .99800E+00 .24590E+00 .75219E-01 .39816E+01 .11176E+09 .16336E+01 .46738E+00 .16625E+01 .57528E+01 .65756E+00 .27122E+01
 .56091E+01 .34727E+06 .40033E+06 .72760E+00 .36069E-01 .16251E+00 .13960E+00 .27236E+01 .14847E+09 .12296E+01 .27675E+01 .18745E+01 .10095E+01 .58040E+01 .37016E+01
 .48171E+01 .36975E+06 .34682E+06 .98381E+00 .84783E+00 .15941E+00 .33392E-01 .45408E+01 .41395E+08 .10014E+01 .64918E+00 .60469E+00 .52113E+01 .41850E+01 .20848E+01
 .60587E+01 .12804E+06 .11018E+06 .23924E+00 .55659E+00 .14817E+00 .86468E-01 .13324E+01 .89845E+07 .15138E+01 .49599E+01 .19282E+01 .16580E+01 .26407E+01 .14573E+01
 .43006E+01 .55888E+05 .39998E+05 .83236E+00 .82384E+00 .11129E+00 .14469E+00 .56006E+01 .37999E+08 .21329E+01 .62558E+00 .78173E+00 .34812E+01 .59451E-01 .59271E+01
 .51171E+01 .43735E+06 .14472E+06 .99746E+00 .95497E+00 .25084E+00 .16136E+00 .18787E+01 .12022E+09 .13447E+01 .45056E+01 .95790E+00 .45267E+01 .10444E+01 .24833E+00
 .55064E+01 .36034E+06 .29662E+06 .99646E+00 .93052E+00 .14552E+00 .14020E+00 .49937E+01 .94305E+08 .25422E+01 .11125E+01 .19837E+01 .48111E+01 .22610E+01 .45631E+01
 .59750E+01 .53711E+06 .21296E+06 .99075E+00 .98070E+00 .20464E+00 .11848E+00 .35977E+01 .13449E+09 .19544E+01 .26338E+01 .18523E+01 .85445E+00 .19843E+00 .25164E+01
 .59607E+01 .59786E+06 .13885E+06 .84646E+00 .66125E+00 .16390E+00 .11821E+00 .29345E+01 .94567E+08 .93928E+00 .29983E+01 .14114E+01 .55194E+00 .45926E+00 .12642E+01
 .18346E+01 .33742E+06 .43511E+06 .29570E+00 .48930E+00 .31731E-01 .15801E+00 .14185E-02 .40806E+08 .13332E+01 .32695E+01 .57927E+00 .33329E+00 .11110E+01 .23814E+01
 .48493E+01 .18878E+06 .29108E+05 .85280E+00 .91301E+00 .49172E-01 .75510E-01 .50790E+01 .47214E+08 .10986E+01 .30423E+01 .26183E+01 .28364E+01 .50202E+01 .60775E+01
 .17734E+01 .12770E+06 .49937E+05 .98209E+00 .98277E+00 .93369E-01 .13263E+00 .73708E+00 .10174E+09 .13177E+01 .23521E+01 .79594E+00 .21489E+01 .36476E+01 .27631E+01
 .52813E+01 .25736E+06 .61445E+05 .95669E+00 .99800E+00 .17166E+00 .56943E-01 .43088E+01 .13104E+09 .76932E+00 .20394E+01 .62824E+00 .53483E+01 .57660E+00 .62058E+01
 .18163E+01 .43163E+06 .20532E+06 .51663E+00 .94225E+00 .11072E+00 .96109E-01 .92917E+00 .15040E+09 .11472E+01 .76760E+00 .23613E+01 .57383E+01 .34894E+01 .30567E+01
 .49505E+01 .11857E+07 .91810E+06 .99800E+00 .95577E+00 .23363E+00 .11319E+00 .40853E+01 .46981E+08 .12529E+01 .21390E+01 .20834E+01 .75805E+00 .14703E+00 .78314E+00
 .49590E+01 .94329E+04 .59553E+04 .66184E+00 .99800E+00 .16816E+00 .66598E-01 .26578E+01 .11136E+09 .17809E+01 .41720E+01 .10435E+01 .38234E+01 .52416E+01 .84911E+00
 .49152E+01 .46746E+06 .33708E+06 .99800E+00 .99438E+00 .14110E+00 .43192E-01 .13814E+01 .48683E+08 .13856E+01 .29831E+01 .47721E+00 .56578E+01 .61577E+01 .88688E+00
 .45095E+01 .40439E+06 .32166E+06 .99800E+00 .99800E+00 .92538E-01 .22309E-01 .52455E+01 .82171E+08 .25891E+01 .13495E+01 .10527E+01 .33461E+01 .32796E+01 .45074E+00
 .12794E+01 .47363E+06 .42215E+06 .99800E+00 .99800E+00 .16499E+00 .78072E-01 .33086E+01 .67632E+07 .12759E+01 .49620E+01 .74075E+00 .47936E+01 .44882E+01 .46866E+00
 .66673E+01 .30327E+06 .93514E+05 .97133E+00 .99800E+00 .21551E+00 .14820E+00 .24076E+01 .86774E+08 .24225E+01 .28309E+01 .22213E+01 .58276E+01 .12887E+01 .24540E+01
 .36111E+01 .31238E+06 .44621E+06 .97210E+00 .90746E+00 .25322E+00 .16910E+00 .44856E+01 .13864E+08 .17435E+01 .42739E+01 .21200E+01 .40275E+01 .90825E+00 .43324E+01
