 .25581E+01 .10112E+06 .54391E+05 .67419E+00 .11706E+00 .30835E-01 .83791E-01 .33469E+00 .65921E+08 .12252E+01 .23417E+01 .27861E+01 .40575E+01 .61522E+00 .15892E+01
 .49277E+01 .71508E+05 .49081E+05 .38577E-01 .19337E+00 .84548E-01 .38671E-01 .32839E+01 .48968E+08 .14801E+01 .55386E+01 .20561E+01 .32567E+01 .31796E+01 .22666E+01
 .14916E+02 .69583E+05 .46965E+04 .12739E+00 .88975E+00 .25872E+00 .14566E+00 .33114E+01 .75641E+08 .10582E+01 .32989E+01 .19747E+01 .37964E+01 .50772E+01 .57699E+00
 .15799E+02 .45305E+05 .69980E+04 .13020E+00 .88637E+00 .26077E+00 .15047E+00 .33112E+01 .10446E+09 .16605E+01 .48478E+01 .17580E+01 .20350E+01 .54662E+01 .27218E+01
 .45793E+01 .77304E+05 .49494E+04 .41677E+00 .60137E+00 .82412E-01 .97673E-01 .58004E+01 .27059E+08 .11059E+01 .16001E+01 .93352E+00 .30466E+01 .19953E+01 .18893E+01
 .36733E+01 .21463E+06 .69472E+05 .77763E+00 .45914E+00 .25534E+00 .11451E+00 .33731E+01 .21711E+08 .16226E+01 .28777E+01 .24765E+01 .23457E+01 .52395E+01 .27827E+01
 .37399E+01 .21617E+06 .57000E+05 .78645E+00 .46241E+00 .27347E+00 .11050E+00 .33819E+01 .10772E+09 .25658E+01 .39413E+01 .21081E+01 .52625E+01 .54853E+01 .82200E+00
 .23759E+01 .22450E+06 .67989E+05 .84185E-01 .99800E+00 .22340E+00 .17237E+00 .42162E+01 .12443E+09 .81993E+00 .31984E+01 .27583E+01 .48710E+01 .60052E+01 .29133E+01
 .12721E+02 .21214E+05 .16838E+05 .54746E+00 .25526E+00 .16217E+00 .54985E-01 .40109E+01 .98446E+08 .83860E+00 .43199E+01 .20388E+01 .50949E+01 .10150E+01 .36411E+01
 .92088E+01 .96250E+05 .77321E+05 .47860E-01 .82982E+00 .14325E+00 .68220E-01 .54068E+01 .83378E+08 .18572E+01 .17415E+01 .12881E+01 .27361E+01 .14000E+00 .46202E+01
 .68965E+01 .20102E+05 .11939E+04 .79793E+00 .48477E+00 .48036E-01 .98877E-01 .16114E-01 .15104E+09 .21421E+01 .19904E+01 .92991E+00 .40360E+01 .49847E+01 .54253E+01
 .78987E+01 .29866E+05 .27434E+05 .55964E+00 .68477E-01 .15226E+00 .45515E-01 .15276E+01 .15636E+09 .18529E+01 .19223E+01 .18338E+01 .51697E-01 .33555E+01 .33964E+01
 .11711E+02 .16932E+06 .80351E+05 .20186E+00 .22900E+00 .21659E+00 .11901E+00 .19056E+01 .98419E+08 .99373E+00 .56467E+01 .21899E+01 .33802E+01 .40360E+01 .13224E+01
 .10313E+02 .23184E+06 .47637E+05 .86328E+00 .76041E+00 .29318E+00 .16704E+00 .31274E+01 .59018E+08 .21568E+01 .40612E+01 .77915E+00 .41282E+00 .87791E-02 .46299E+01
 .19229E+02 .21798E+06 .60880E+05 .75272E+00 .29902E+00 .14743E+00 .16241E+00 .12549E+01 .92863E+08 .20855E+01 .60451E+01 .25447E+01 .58175E+01 .39452E+01 .12236E+01
 .40426E+01 .25083E+06 .24520E+06 .89294E-02 .85054E+00 .22231E+00 .16417E+00 .32000E+01 .67038E+07 .71723E+00 .21487E+00 .48989E+00 .29442E+01 .30587E+01 .39339E+01
 .59568E+01 .35895E+05 .21033E+04 .69152E+00 .99800E+00 .13318E+00 .17364E+00 .89254E+00 .11956E+08 .56159E+00 .39542E+00 .12058E+01 .28249E+01 .20430E+01 .41667E+01
 .62656E+01 .54919E+05 .10481E+04 .57192E+00 .26072E+00 .17923E+00 .12572E+00 .34017E+01 .15298E+09 .91361E+00 .53766E+00 .18015E+01 .12403E+01 .43715E+01 .49138E+01
 .41300E+01 .21396E+05 .84300E+04 .92125E-01 .51964E+00 .20140E+00 .15434E+00 .46082E+01 .65723E+08 .96283E+00 .60018E+01 .19251E+01 .54527E+01 .14283E+01 .47894E+01
 .36317E+01 .35876E+05 .30044E+05 .23949E+00 .25571E+00 .19433E+00 .15093E+00 .46362E+01 .14047E+09 .21098E+01 .20444E+01 .25562E+01 .79717E+00 .37267E+01 .44814E+01
 .25548E+01 .56522E+05 .16995E+04 .40047E+00 .64122E+00 .10040E+00 .17858E+00 .56491E+01 .12230E+08 .23605E+01 .22523E+01 .17537E+01 .20899E+01 .11293E+01 .23098E+01
 .32428E+01 .19533E+05 .24063E+05 .39313E-01 .99745E+00 .13954E+00 .47568E-01 .35105E+01 .42202E+08 .28638E+01 .35843E+01 .84787E+00 .30113E+01 .16842E+01 .88329E-01
 .32977E+01 .26764E+05 .19035E+05 .98528E+00 .42585E+00 .16441E+01 .74879E+00 .23128E+01 .14725E+09 .19906E+01 .68567E+00 .20973E+01 .42618E+00 .32481E+01 .45228E+01
 .32177E+01 .31590E+05 .26899E+05 .98053E+00 .43798E+00 .16496E+01 .73694E+00 .23030E+01 .86083E+08 .75225E+00 .15911E+00 .26784E+01 .24346E+01 .41832E+01 .52056E+01
 .10729E+02 .64428E+05 .19022E+05 .87218E+00 .39223E+00 .13618E+00 .12073E+00 .49816E+01 .17132E+08 .20684E+01 .19595E-02 .17337E+01 .31637E+01 .52242E+01 .23082E+01
 .62300E+01 .25416E+05 .13705E+05 .46186E+00 .23596E+00 .20536E+00 .10486E+00 .43536E+01 .50356E+08 .20675E+01 .34153E+01 .23136E+01 .28877E+01 .39287E+01 .76160E+00
 .18588E+01 .17259E+06 .23246E+05 .99800E+00 .18526E+00 .19010E+00 .67091E-01 .45155E+01 .67408E+08 .20494E+01 .49239E+01 .58697E+00 .10890E+01 .55854E+00 .57992E+01
 .92575E+01 .31040E+06 .99977E+03 .93882E+00 .73487E+00 .11163E+00 .13457E+00 .61677E+01 .87984E+08 .26735E+01 .96668E+00 .23650E+01 .58068E+01 .17325E+01 .56564E+00
 .10775E+02 .58668E+04 .16066E+04 .71626E+00 .91801E-02 .23300E+00 .15454E+00 .19306E+01 .19370E+08 .15272E+01 .42362E+01 .22307E+01 .40816E+01 .72244E+00 .46877E+01
 .10689E+02 .59248E+04 .21898E+04 .71445E+00 .14249E-02 .23484E+00 .16075E+00 .19231E+01 .12205E+09 .42402E+00 .36207E+01 .18796E+01 .67142E+00 .37547E+01 .40890E+01
 .16259E+02 .11668E+06 .52609E+04 .60696E+00 .12540E+00 .10573E+00 .16098E+00 .56799E+01 .55032E+08 .15433E+01 .13751E+01 .25593E+01 .50641E+01 .32384E+01 .17097E+01
 .73764E+01 .63341E+06 .39070E+04 .30862E+00 .55789E+00 .44726E-01 .12694E+00 .36701E+00 .46523E+08 .18801E+01 .54162E+01 .14473E+01 .56434E+01 .25871E+01 .48781E+01
 .44147E+01 .15537E+06 .34681E+05 .47828E+00 .96592E+00 .23903E+01 .11723E+01 .34149E+01 .43315E+08 .82203E+00 .52524E+01 .26215E+01 .43261E+01 .51596E+01 .36491E+01
 .33582E+01 .39379E+05 .11881E+05 .99800E+00 .35435E+00 .13502E+00 .15609E+00 .51716E+01 .11467E+09 .26273E+01 .60809E+01 .12066E+01 .31585E+01 .48805E+01 .44070E+01
 .13792E+02 .11623E+06 .92593E+05 .72826E+00 .62781E-01 .71041E-01 .86903E-01 .57344E+01 .34042E+08 .51193E+00 .27454E+01 .56066E+00 .44565E+01 .46368E+01 .17819E+01
 .57140E+01 .23479E+06 .52315E+05 .37650E+00 .26399E+00 .20124E+00 .13917E+00 .23597E+01 .31416E+08 .58847E+00 .45104E+01 .17829E+01 .32884E+01 .30301E+01 .34724E+01
 .29422E+01 .41562E+06 .17341E+05 .78913E+00 .47866E+00 .20690E+00 .13774E+00 .16562E+01 .63125E+08 .14799E+01 .48320E+01 .16016E+01 .34264E+01 .43461E+01 .26032E+01
 .13514E+02 .43620E+06 .26706E+05 .84094E+00 .15967E+00 .13284E+00 .17234E+00 .31174E+00 .14785E+09 .27901E+01 .38276E+01 .21969E+01 .12873E+01 .52571E+01 .70862E+00
 .12600E+02 .23302E+06 .16441E+06 .72558E+00 .67967E+00 .20341E+00 .15338E+00 .46733E+01 .32739E+08 .12840E+01 .36274E+01 .15202E+01 .18673E+01 .61121E+01 .10817E+01
 .90713E+01 .84836E+05 .46967E+05 .44528E+00 .21202E+00 .16948E+00 .16958E+00 .11771E+01 .10614E+09 .26851E+01 .19283E+01 .23965E+00 .36143E+01 .13040E+01 .51609E+00
 .11364E+02 .52505E+05 .11247E+04 .92334E+00 .90792E+00 .26913E+00 .17593E+00 .29318E+01 .12476E+09 .19329E+01 .59093E+01 .19052E+01 .34295E+01 .58120E+01 .47121E+00
 .34710E+01 .11144E+06 .23047E+05 .67990E+00 .77838E+00 .87485E+00 .88814E+00 .35045E+00 .32789E+08 .23702E+01 .49994E+01 .25553E+01 .13920E+01 .10616E+01 .42095E+01
 .50395E+01 .14760E+06 .22208E+05 .34944E+00 .36731E+00 .21759E+00 .14740E+00 .17531E+01 .10302E+09 .10898E+01 .22403E+01 .35487E+00 .39338E+01 .49375E+01 .54066E+01
 .83578E+01 .32350E+05 .21617E+05 .45199E+00 .69704E+00 .13754E+00 .31122E-01 .60683E+01 .12088E+09 .17447E+01 .14371E+00 .23459E+01 .26087E+01 .49752E+01 .62629E+01
 .54567E+01 .13076E+06 .16129E+05 .37621E+00 .66808E+00 .25263E+00 .14173E+00 .41350E+01 .14756E+09 .10152E+01 .48042E+01 .13616E+01 .29695E+01 .24605E+01 .58202E+01
 .29104E+01 .23745E+06 .35372E+05 .99800E+00 .12460E+00 .28948E+00 .12998E+00 .25179E+01 .72570E+08 .19963E+01 .39603E+00 .22416E+01 .49463E+01 .61742E+01 .37945E+01
 .11967E+02 .62374E+06 .92716E+04 .67207E+00 .20034E+00 .19250E+00 .14157E+00 .12744E+01 .23098E+08 .18905E+01 .22436E+00 .42487E+00 .17878E+01 .15846E+01 .49133E+00
 .85830E+01 .63092E+05 .28838E+05 .78641E+00 .30071E+00 .13569E+00 .10993E+00 .10019E+01 .13041E+09 .69619E+00 .16924E+01 .54892E+00 .56793E+01 .24612E+01 .52245E+01
 .13649E+02 .24679E+06 .61293E+05 .63441E+00 .59113E+00 .19926E+00 .16096E+00 .33668E+01 .10924E+09 .12910E+01 .22401E+01 .98811E+00 .22181E+00 .30939E+01 .59089E+01
 .14429E+02 .43418E+05 .12480E+05 .38613E+00 .53868E+00 .28565E+00 .11565E+00 .27237E+01 .45907E+08 .16070E+01 .19892E+01 .22062E+01 .45647E+01 .45308E+01 .51804E+01
 .10621E+02 .49677E+06 .43874E+06 .26602E+00 .64497E+00 .28266E+00 .15440E+00 .38055E+01 .11191E+09 .27507E+01 .14961E+01 .12290E+01 .25356E+01 .56314E+01 .32175E+01
 .10771E+02 .31987E+06 .96865E+04 .55230E-01 .17927E+00 .76842E-01 .15925E+00 .45970E+00 .58154E+08 .18200E+01 .28787E+01 .24520E+01 .25490E+01 .31606E+01 .34963E+01
 .12592E+02 .65964E+06 .81721E+05 .21598E-01 .64410E+00 .12063E+00 .13660E+00 .73390E+00 .63005E+08 .16239E+01 .39353E+01 .21289E+01 .49283E+01 .54834E+01 .32590E-01
 .15294E+02 .23196E+06 .17710E+05 .18392E+00 .11928E+00 .72663E-01 .77285E-01 .49849E+01 .11426E+09 .73937E+00 .35787E+01 .93482E+00 .51824E+01 .31278E+01 .40859E+01
 .11582E+02 .15421E+06 .34671E+05 .29394E+00 .53103E+00 .29817E-01 .14650E+00 .61910E+01 .40558E+08 .42823E+00 .31369E+01 .10712E+01 .16009E+01 .25093E+01 .43898E+01
 .52165E+01 .10263E+07 .12984E+06 .99800E+00 .45289E+00 .93469E-01 .99143E-01 .90140E+00 .13607E+09 .50582E+00 .35798E+01 .23789E+01 .48333E+01 .91095E+00 .60147E+01
 .91240E+01 .23425E+06 .86660E+05 .12950E+00 .93702E-01 .18220E+00 .14299E+00 .42894E+01 .11310E+08 .18051E+01 .29020E+01 .11515E+01 .10302E+00 .27609E+01 .14407E+01
 .25053E+01 .33465E+06 .28721E+06 .99800E+00 .82181E+00 .64610E-01 .11663E+00 .53961E+00 .89131E+08 .73575E+00 .10601E+01 .25014E+01 .18369E+01 .24680E+01 .34570E+01
 .12003E+02 .30553E+05 .40737E+04 .12414E+00 .64548E+00 .11612E+00 .26720E-01 .16003E+01 .15055E+09 .25282E+01 .13352E+01 .10930E+01 .52464E+01 .23401E+01 .28526E+01
 .45780E+01 .71424E+05 .27235E+05 .87498E+00 .47872E+00 .15864E+01 .28703E+01 .10742E+01 .10852E+09 .50367E+00 .42329E+01 .18859E+01 .46479E+01 .22939E+01 .45325E+01
 .64140E+01 .46655E+05 .54125E+04 .54731E+00 .99800E+00 .14000E+01 .13430E+01 .46726E+01 .10072E+09 .14471E+01 .31101E+01 .99335E+00 .10569E+01 .34345E-01 .37436E+01
 .15338E+02 .30277E+06 .86533E+05 .61417E+00 .95125E+00 .13930E+00 .12548E+00 .10574E+01 .14767E+09 .14967E+01 .15064E+01 .17358E+01 .21653E+01 .27473E+01 .57636E+00
 .14285E+02 .11682E+06 .26379E+05 .42040E+00 .56371E+00 .26101E+00 .13939E+00 .39874E+01 .67392E+08 .17132E+00 .21065E-02 .25480E+01 .26086E+01 .58509E+01 .16378E+01
 .48792E+01 .32056E+06 .27001E+06 .39294E+00 .71347E+00 .13625E+00 .76928E-01 .17417E+01 .11282E+09 .53957E+00 .29907E+01 .21462E+01 .44983E+01 .15712E+01 .24705E+01
 .91184E+01 .19058E+06 .84415E+05 .43593E+00 .71575E+00 .22838E+00 .13858E+00 .20509E+01 .46564E+08 .96678E+00 .48795E+01 .99768E+00 .51959E+01 .58495E+01 .11055E+01
 .15523E+02 .14004E+06 .34435E+05 .48217E+00 .68174E+00 .24711E+00 .11344E+00 .25212E+01 .13135E+09 .29012E+01 .17462E+01 .15104E+01 .40187E+01 .52000E+01 .14610E+01
 .21739E+01 .88695E+04 .20160E+04 .81927E+00 .53883E+00 .21965E+00 .68338E-01 .37526E+01 .33429E+08 .20033E+01 .59795E+01 .25518E+01 .43666E+01 .34122E+01 .12014E+01
 .39120E+01 .19697E+05 .14727E+04 .64704E-01 .18806E+00 .19797E+01 .24068E+01 .42578E+01 .11063E+09 .10557E+01 .79137E+00 .17814E+01 .18824E+01 .59438E+01 .45457E+01
 .20082E+01 .12314E+04 .11108E+04 .83963E+00 .85502E+00 .12025E+00 .86345E-01 .70922E+00 .47730E+07 .12070E+01 .54150E+01 .62649E+00 .46461E+01 .89901E+00 .95816E+00
 .11051E+02 .33484E+05 .16682E+05 .76666E+00 .31678E+00 .22429E+00 .16013E+00 .41234E+01 .72352E+08 .13913E+01 .20399E+01 .13871E+01 .24120E+01 .55217E+01 .55590E+01
 .55879E+01 .14461E+06 .48958E+05 .94944E+00 .21575E+00 .71315E-01 .89538E-01 .57141E+01 .84178E+08 .12021E+01 .18040E+01 .21402E+01 .58691E+01 .43696E+01 .49089E+01
 .34319E+01 .98986E+04 .12510E+04 .66412E+00 .46328E+00 .11044E+00 .10873E+00 .10803E+01 .11455E+09 .19707E+01 .58752E+01 .21095E+01 .61781E+01 .61763E+00 .59741E+01
 .41758E+01 .16199E+05 .94227E+04 .75998E+00 .35327E+00 .62141E-01 .14990E+00 .45502E+00 .20675E+08 .15824E+01 .43006E+01 .13489E+01 .28788E+01 .54380E+01 .54284E+01
 .70578E+01 .12546E+05 .54257E+04 .35909E+00 .29613E+00 .13972E+00 .15483E+00 .48268E+01 .11967E+09 .18326E+01 .36427E+01 .10781E+00 .98078E+00 .28051E+01 .28464E+01
 .80447E+01 .95008E+05 .26613E+04 .75109E-01 .51221E+00 .18766E+00 .15016E+00 .19791E+01 .10686E+09 .80106E+00 .19629E+01 .94221E+00 .56344E+01 .38709E+01 .58890E+01
 .15452E+02 .11983E+05 .12681E+04 .22632E+00 .71702E+00 .96420E-01 .66162E-01 .43977E+01 .85692E+08 .13185E+01 .27982E+00 .10655E+01 .28821E+01 .29098E+01 .27108E-01
 .93223E+01 .41343E+06 .94077E+04 .81248E+00 .52769E+00 .24917E+00 .15906E+00 .17253E+01 .15339E+09 .15563E+01 .39092E+01 .10666E+01 .59078E+01 .45298E+01 .62629E+01
 .13918E+02 .24521E+06 .96777E+05 .88827E+00 .25692E+00 .15737E+00 .35457E-01 .37815E+01 .15179E+09 .68312E+00 .24236E+01 .25689E+01 .20047E+01 .29299E+00 .21517E+01
 .98654E+01 .28896E+06 .97927E+05 .14049E+00 .25284E+00 .30086E+00 .13661E+00 .32512E+01 .87693E+08 .28375E+01 .62533E+01 .19710E+01 .26873E+01 .57791E+01 .21885E+01
 .16885E+01 .57665E+05 .90145E+04 .95468E+00 .24169E+00 .11168E+01 .22786E+01 .21666E+01 .10136E+09 .29474E+00 .49405E+01 .19026E+01 .49546E+01 .19130E+00 .61630E+01
 .70993E+01 .39861E+05 .10349E+05 .86334E+00 .70388E+00 .13958E+00 .30811E-01 .56588E+00 .71007E+08 .97994E+00 .17517E+01 .15243E+01 .35075E+01 .19444E+01 .32371E+01
 .10013E+02 .12664E+06 .21342E+05 .20262E+00 .43649E+00 .51650E-01 .14488E+00 .59628E+01 .14514E+09 .97791E+00 .12284E+01 .25865E+01 .58067E+01 .13304E+01 .43549E+01
 .16132E+02 .41004E+05 .31774E+05 .64031E+00 .95718E+00 .17659E+00 .14162E+00 .13787E+01 .39207E+08 .11252E+01 .36959E+01 .10104E+01 .57649E+01 .51703E+01 .41770E+00
 .79479E+01 .54874E+05 .18487E+04 .71060E+00 .35412E+00 .21500E+00 .11018E+00 .39570E+01 .10363E+09 .40483E+00 .42244E+01 .20852E+01 .95461E+00 .10512E+01 .27489E+01
 .82399E+01 .10143E+05 .41356E+04 .58368E+00 .44115E+00 .77863E-01 .14477E+00 .60922E+01 .72560E+08 .42791E+00 .42273E+01 .17600E+01 .20255E+00 .51377E+01 .61704E+01
 .74521E+01 .13093E+05 .41405E+04 .58962E+00 .42589E-02 .49348E-01 .11695E+00 .24304E+00 .88777E+08 .91600E+00 .71041E+00 .16042E+01 .22839E+01 .35652E+01 .30662E+01
 .13902E+02 .11266E+05 .94395E+03 .31243E+00 .77785E+00 .20346E+00 .11163E+00 .43180E+01 .32943E+08 .13780E+01 .55759E+01 .11022E+01 .55174E+01 .68763E+00 .12577E+01
 .34070E+01 .15337E+06 .22719E+06 .76273E+00 .72727E+00 .15431E+00 .10661E+00 .50988E+01 .13651E+09 .28947E+01 .50491E+01 .23066E+01 .62616E+01 .44772E+01 .39936E-01
 .63299E+01 .32729E+05 .15281E+04 .54670E-01 .68393E-02 .15716E+00 .17165E+00 .49618E+01 .14086E+09 .22132E+01 .14296E+01 .25132E+01 .17118E+01 .39197E+01 .20643E+01
 .56613E+01 .20430E+06 .20696E+05 .75711E+00 .15107E+00 .24267E+00 .15948E+00 .19549E+01 .30464E+08 .18610E+01 .39467E+01 .27113E+01 .59170E+01 .41374E+00 .47453E+01
 .58073E+01 .17349E+06 .86889E+05 .88253E-01 .28224E+00 .74780E-01 .13911E+00 .60550E+01 .62159E+08 .21490E+01 .33842E+01 .90571E+00 .60724E+01 .50254E+01 .10001E+01
 .56827E+01 .13104E+06 .76935E+05 .89611E-01 .27451E+00 .92421E-01 .13643E+00 .60375E+01 .85359E+08 .22166E+01 .51031E+01 .16517E+01 .27552E+01 .10496E+01 .28459E+00
 .18506E+02 .15013E+06 .17581E+05 .18605E+00 .97322E+00 .37080E-01 .86935E-01 .59164E+01 .22976E+08 .23021E+01 .51179E+01 .60966E+00 .54312E+01 .33661E+01 .54243E+01
 .72617E+01 .31044E+06 .55158E+04 .98213E+00 .34664E+00 .76372E-01 .92266E-01 .78090E+00 .15510E+09 .29474E+01 .56351E+01 .12234E+01 .60287E+01 .47458E-01 .31776E+01
 .11220E+02 .21942E+05 .19147E+05 .19927E+00 .21059E+00 .17992E+00 .13656E+00 .15745E+01 .40852E+08 .18810E+01 .43157E+01 .17629E+01 .29042E+00 .40248E+01 .48397E+01
 .91898E+01 .13731E+06 .46562E+04 .90119E+00 .24035E+00 .86133E-01 .10928E+00 .11395E+01 .84564E+08 .11917E+00 .16033E+01 .12393E+01 .45565E+01 .60573E+01 .17482E+01
 .70151E+01 .46641E+05 .13368E+05 .96481E+00 .10594E+00 .40480E-01 .12455E-01 .19067E+01 .14611E+09 .11317E+01 .34026E+01 .15156E+01 .47845E+01 .57171E+01 .32878E+01
 .11378E+02 .23943E+06 .11323E+06 .74933E+00 .61275E+00 .11102E+00 .14565E+00 .55783E+01 .87535E+08 .10331E+01 .11549E+01 .25265E+01 .42296E+01 .61758E+00 .41748E+01
 .54609E+01 .10898E+06 .22188E+05 .57446E+00 .81792E+00 .12959E+00 .18681E+00 .79311E+00 .24061E+08 .73332E+00 .33484E+01 .25686E+01 .53976E+01 .17068E+01 .52000E+01
 .95871E+01 .22231E+06 .11494E+06 .31648E+00 .94725E+00 .21923E+00 .48370E-01 .30309E+01 .15465E+09 .26218E+01 .52772E+01 .14636E+00 .35731E+01 .60138E+01 .70032E+00
 .75763E+01 .20929E+06 .15736E+06 .14920E+00 .36529E+00 .22683E+00 .17096E+00 .20667E+01 .72922E+08 .19948E+01 .28390E+01 .15454E+01 .40667E+01 .10397E+01 .59833E+01
 .37668E+01 .24316E+06 .40724E+05 .99800E+00 .57850E+00 .14248E+01 .67002E+00 .57916E+01 .11993E+09 .10006E+01 .61700E+01 .21761E+01 .16635E+01 .38223E+01 .17314E+01
 .65955E+01 .94309E+05 .36695E+05 .29771E+00 .98318E+00 .23029E+00 .11220E+00 .27943E+01 .11322E+09 .27703E+01 .55638E+01 .14828E+01 .45707E+01 .11031E+01 .16446E+01
 .28935E+01 .24280E+06 .20017E+06 .29188E+00 .19055E+00 .13282E+00 .30750E-01 .60215E+01 .56758E+08 .24439E+01 .51508E+01 .16845E+01 .23834E+01 .48496E+01 .16840E+01
 .14881E+02 .21090E+06 .52245E+05 .10763E+00 .75789E+00 .19135E+00 .15887E+00 .17996E+01 .96969E+08 .69843E+00 .28654E+01 .20568E+01 .84704E+00 .44718E+01 .60059E+01
 .13230E+02 .21192E+06 .27087E+05 .69802E+00 .93760E+00 .13397E+00 .11330E+00 .47051E+01 .22514E+08 .26538E+00 .29214E+00 .23211E+01 .56135E+00 .26938E+01 .22799E+01
 .23916E+01 .18182E+06 .18984E+05 .63596E+00 .87319E+00 .13141E+00 .40351E-01 .21416E+01 .87972E+08 .25152E+00 .29532E+01 .21581E+01 .22526E+01 .26245E+01 .60573E+01
 .14482E+02 .90691E+05 .10393E+06 .54954E+00 .71934E-01 .76011E-01 .16024E-01 .57064E+01 .14530E+09 .63567E+00 .51725E+01 .54221E+00 .30795E+01 .37366E+01 .39907E+01
 .13846E+02 .24494E+06 .93766E+04 .41465E+00 .57343E+00 .18317E+00 .17737E+00 .15042E+01 .12517E+09 .22656E+01 .58260E-01 .13685E+01 .32981E+01 .57147E+01 .47499E+01
 .54816E+01 .19212E+06 .81814E+05 .79459E-01 .95973E+00 .15690E+00 .85698E-01 .24066E+01 .90443E+08 .22322E+01 .17097E+01 .18026E+01 .42617E+01 .56072E+01 .47845E+00
 .11970E+02 .46521E+06 .19027E+06 .68709E+00 .18224E+00 .23694E+00 .16923E+00 .24451E+01 .83063E+08 .66586E+00 .57215E+01 .20859E+01 .50538E+01 .61285E+01 .27795E+01
 .12091E+02 .37824E+06 .13574E+06 .77988E+00 .83909E+00 .24086E+00 .14692E+00 .24097E+01 .92657E+08 .16540E+01 .93439E+00 .21630E+01 .39765E+01 .60300E+01 .37511E+01
 .77449E+01 .44344E+06 .22051E+06 .99800E+00 .74591E-01 .13336E+00 .98773E-01 .15332E+01 .15234E+09 .28541E+01 .53944E+00 .23692E+01 .59005E+01 .14072E+01 .43058E+01
 .42300E+01 .42578E+06 .10992E+06 .59365E+00 .99800E+00 .15747E+00 .14299E+00 .12354E+01 .11158E+09 .19904E+01 .24605E+01 .85678E+00 .29048E+01 .57878E+01 .51707E+01
 .14406E+02 .25009E+06 .15381E+06 .41067E+00 .28425E+00 .86238E-01 .15536E+00 .45287E+00 .15554E+09 .16094E+01 .21236E+01 .78612E+00 .13668E+01 .16135E+01 .62456E+01
 .12666E+02 .18213E+06 .46977E+05 .11383E+00 .60019E+00 .18072E+00 .84171E-01 .38922E+01 .70544E+08 .50366E+00 .27562E+00 .14296E+01 .29317E+01 .95500E+00 .49384E+01
 .78649E+01 .44055E+06 .21278E+06 .98730E+00 .16170E+00 .22542E+00 .16356E+00 .23313E+01 .27690E+08 .12434E+01 .45623E+01 .46311E+00 .33755E+01 .17490E+01 .32497E+01
 .85794E+01 .53809E+05 .26166E+04 .89601E+00 .40578E+00 .18633E+00 .96082E-01 .16634E+01 .12555E+09 .87680E+00 .30301E+01 .13315E+01 .56559E+01 .43586E+01 .17007E+01
 .65992E+01 .68390E+06 .87132E+04 .74063E+00 .90271E-01 .17939E+00 .11346E+00 .24828E+01 .19247E+08 .20893E+01 .27159E+01 .23777E+01 .18543E+01 .35634E+01 .49777E+01
 .17963E+01 .14128E+06 .23162E+05 .32111E+00 .49781E+00 .86257E-01 .97412E-01 .37745E+00 .15721E+09 .24172E+01 .60286E+01 .20614E+01 .52822E+01 .29151E+01 .38120E+01
 .14012E+02 .63679E+05 .20665E+05 .33528E+00 .79894E+00 .76614E-01 .54198E-01 .50001E-01 .48655E+08 .21492E+01 .49804E+00 .18914E+01 .24562E+01 .32039E+01 .39015E+00
 .14611E+02 .56642E+05 .16686E+05 .32232E+00 .79242E+00 .72205E-01 .55722E-01 .51374E-01 .14024E+09 .18081E+01 .28917E+01 .11407E+01 .30878E+01 .55612E+01 .37046E+01
 .14941E+02 .39333E+05 .21478E+05 .30930E+00 .79323E+00 .62477E-01 .50676E-01 .41818E-01 .11699E+09 .18041E+01 .25273E+01 .23283E+01 .29642E+00 .97472E+00 .43844E+01
 .57878E+01 .15288E+06 .44116E+05 .32098E+00 .14285E+00 .16163E+00 .16154E+00 .12786E+01 .12377E+09 .11743E+01 .41715E+01 .13084E+01 .14565E+00 .45337E+01 .45929E+01
 .58177E+01 .18645E+06 .47080E+05 .33098E+00 .15880E+00 .16306E+00 .16107E+00 .12997E+01 .28019E+08 .15035E+01 .39678E+01 .17323E+01 .49258E+01 .23730E+01 .45112E+01
 .65248E+01 .17711E+06 .48355E+05 .47520E+00 .43464E+00 .10886E-01 .60373E-01 .15666E+00 .59097E+08 .15258E+01 .48794E+00 .30485E+01 .52893E+01 .61720E+01 .25109E+01
 .65485E+01 .11865E+06 .50803E+05 .49956E+00 .42616E+00 .16291E-01 .40828E-01 .14174E+00 .59047E+08 .18514E+01 .62178E+01 .10958E+01 .35979E+01 .52755E+01 .61696E+01
 .35128E+01 .54271E+04 .13258E+04 .99800E+00 .99044E+00 .20709E+00 .16140E+00 .13255E+01 .18304E+08 .19962E+01 .96939E-01 .81583E+00 .55636E+01 .74479E+00 .13674E+01
 .53491E+01 .18067E+06 .37508E+04 .22649E+00 .32594E+00 .93038E-01 .13463E+00 .57904E+01 .46626E+08 .15192E+01 .10080E+01 .13070E+01 .18134E+01 .78162E+00 .33916E+01
 .52702E+01 .18128E+06 .27953E+04 .23216E+00 .32606E+00 .77899E-01 .14405E+00 .57813E+01 .75728E+08 .10081E+01 .48448E+01 .17107E+01 .12338E+01 .51147E+01 .47624E+01
 .40824E+01 .18531E+06 .13841E+05 .28557E+00 .35572E+00 .20126E+00 .28846E-01 .38219E+01 .27479E+08 .18682E+01 .49313E+01 .12909E+01 .39656E+01 .26139E+00 .35853E+01
 .10597E+02 .22544E+06 .15867E+05 .38630E+00 .40922E+00 .24069E+00 .15474E+00 .43157E+01 .90969E+08 .24325E+01 .45715E+00 .48762E+00 .62506E+00 .40376E+00 .18273E+01
 .10814E+02 .25505E+06 .20449E+05 .38376E+00 .41670E+00 .24100E+00 .14480E+00 .43369E+01 .89949E+08 .24049E+01 .48902E+01 .17971E+01 .34936E+01 .48511E+01 .59886E+00
 .54075E+01 .32407E+06 .19128E+05 .73673E+00 .65010E+00 .16212E+00 .15455E+00 .50763E+01 .88070E+08 .26558E+01 .30781E+01 .22325E+01 .46947E+01 .92418E+00 .17940E+01
 .20795E+01 .36737E+05 .20619E+05 .70724E+00 .90392E+00 .22632E+00 .80383E-01 .39427E+01 .55660E+08 .17320E+01 .20273E+01 .88694E+00 .59820E+01 .14740E+01 .39944E+01
 .59848E+01 .10485E+06 .10010E+05 .88881E+00 .21303E+00 .68735E-01 .44667E-01 .60739E+00 .15750E+09 .70866E+00 .11124E+01 .49344E+00 .46231E+01 .62063E+01 .39856E+01
 .10424E+02 .99194E+05 .60946E+05 .27472E+00 .68455E+00 .50879E-01 .10971E+00 .61639E+01 .12584E+09 .95106E+00 .59257E+01 .10702E+01 .36394E+01 .62648E+01 .50174E+01
 .62668E+01 .36286E+05 .32227E+04 .25487E+00 .30351E+00 .17161E+00 .99380E-01 .33086E+01 .14077E+09 .13087E+01 .38751E+01 .22467E+01 .45488E+01 .17752E+01 .19935E+01
 .60401E+01 .47648E+05 .31511E+04 .25284E+00 .31693E+00 .16432E+00 .95194E-01 .33133E+01 .11275E+09 .58433E+00 .38177E+01 .13897E+01 .12776E+01 .13232E+01 .37943E+01
 .88582E+01 .22695E+04 .13708E+04 .46522E+00 .31673E+00 .17625E+00 .29347E-01 .24902E+01 .15032E+09 .22650E+01 .40640E+01 .13986E+01 .57945E+01 .37793E+01 .30223E+01
 .80270E+01 .24816E+06 .70079E+05 .53774E+00 .86836E-01 .22308E+00 .82770E-01 .41213E+01 .36536E+08 .30460E+01 .22120E+01 .25942E+01 .60197E+00 .32114E+01 .22081E+01
 .39763E+01 .22936E+05 .21372E+05 .99132E+00 .33080E+00 .26479E+00 .10812E+00 .34786E+01 .80684E+07 .10602E+01 .45593E+01 .23048E+01 .49146E+00 .24393E+01 .86426E+00
 .10935E+02 .38622E+05 .17320E+05 .44581E+00 .24455E+00 .15143E+00 .14782E+00 .48150E+01 .93235E+08 .14749E+01 .49065E+01 .12773E+01 .78559E+00 .49525E+01 .16531E+01
 .10183E+02 .11814E+06 .36697E+04 .95115E-02 .55595E+00 .42202E-01 .15259E+00 .16745E+00 .15012E+09 .47580E+00 .46490E+01 .12265E+00 .44355E+01 .47363E+00 .20135E+01
 .28886E+01 .27753E+06 .10503E+06 .77772E+00 .67082E+00 .19064E+00 .11035E+00 .38358E+01 .13150E+09 .27408E+00 .24399E+01 .18020E+01 .45469E+01 .11962E+00 .37684E+01
 .11598E+02 .81638E+05 .25486E+05 .29059E+00 .51763E-01 .83337E-01 .10749E+00 .10947E+01 .12690E+09 .18291E+01 .57662E+01 .70243E+00 .52667E+01 .14509E+01 .66565E+00
 .47018E+01 .35277E+05 .57339E+05 .12204E-01 .99800E+00 .23821E+00 .12443E+00 .23883E+01 .27834E+08 .65046E+00 .48451E+01 .24793E+01 .57839E+00 .59980E+01 .32644E+01
 .56217E+01 .10384E+06 .59315E+04 .11925E+00 .93199E+00 .24180E+00 .18683E+00 .42389E+01 .59068E+08 .10649E+01 .52628E+01 .24945E+01 .45349E+01 .58873E+01 .35595E+01
 .54348E+01 .65914E+04 .57370E+04 .20642E+00 .11117E-01 .38065E-01 .14174E+00 .44048E-01 .15574E+09 .13607E+01 .20135E+01 .20200E+01 .27564E+01 .20171E+01 .49527E+01
 .50992E+01 .24268E+05 .15476E+05 .36153E+00 .81910E+00 .46337E-01 .11619E+00 .42840E+00 .53462E+08 .11336E+01 .22058E+01 .21399E+01 .28503E+01 .40326E+01 .26354E+01
 .33680E+01 .18781E+06 .27937E+05 .61822E-01 .42893E+00 .18693E+00 .74051E-01 .43408E+01 .13124E+09 .17217E+01 .52028E+01 .13595E+01 .42058E+01 .51268E+01 .46890E+01
 .11656E+02 .21687E+06 .42299E+05 .24059E+00 .17695E-01 .14888E+00 .14227E+00 .49201E+01 .96473E+08 .12772E+01 .88054E+00 .25668E+01 .43178E+01 .46334E+01 .30666E+01
 .15678E+02 .42116E+05 .33644E+05 .92284E-02 .78344E+00 .94573E-01 .12768E+00 .56605E+01 .58672E+08 .99724E+00 .59525E+01 .12795E+01 .20558E+01 .43962E+01 .17193E+00
 .64091E+01 .13368E+05 .21185E+05 .46140E+00 .86223E+00 .14063E+00 .10222E+00 .50354E+01 .10346E+09 .26657E+01 .43351E+00 .13020E+01 .17274E+01 .68550E+00 .43144E+01
 .24043E+01 .84214E+05 .14712E+05 .98061E+00 .40511E+00 .17141E+00 .84691E-01 .39500E+01 .73934E+07 .28732E+01 .77734E+00 .24883E+01 .55530E+01 .16114E+01 .19058E+01
 .92759E+01 .25692E+05 .13940E+04 .92872E+00 .89228E+00 .14680E+00 .72468E-01 .48307E+01 .56578E+08 .24428E+01 .17714E+01 .11469E+01 .47536E-01 .51633E+01 .34049E+01
 .78371E+01 .89583E+05 .30578E+05 .32460E+00 .24111E+00 .94491E-01 .13725E+00 .49684E+00 .51100E+08 .17843E+01 .31772E+01 .13919E+01 .61152E+01 .99113E+00 .32326E+01
 .38940E+01 .44543E+05 .11363E+05 .78904E+00 .55000E+00 .13992E+00 .72306E-01 .20867E+01 .10055E+09 .16623E+01 .34542E+01 .10522E+01 .29673E+01 .23915E-01 .36379E+01
 .51326E+01 .10251E+06 .32186E+04 .54457E+00 .40875E+00 .17905E+00 .10484E+00 .47951E+01 .15765E+09 .19684E+01 .28357E+01 .70261E+00 .17236E+01 .56028E+01 .15470E+01
 .72833E+01 .16206E+06 .13724E+05 .14221E+00 .54180E-01 .25142E+00 .18314E+00 .43017E+01 .15702E+09 .20482E+01 .79876E+00 .44470E+00 .62588E+01 .61842E+01 .57860E+01
 .10758E+02 .51362E+05 .48026E+04 .96899E+00 .17368E+00 .93026E-01 .12988E+00 .67408E+00 .10415E+09 .44554E+00 .66419E+00 .16289E+01 .48478E+01 .24090E+01 .85970E+00
 .92975E+01 .32544E+06 .29660E+05 .66171E+00 .85552E+00 .27377E+00 .12730E+00 .31130E+01 .48631E+08 .54731E+00 .50662E+01 .13527E+01 .50150E+01 .25770E+01 .39672E+01
 .69608E+01 .63807E+06 .16053E+06 .67137E+00 .44771E-01 .12410E+00 .55583E-01 .10179E+01 .79354E+08 .10777E+01 .50871E+00 .19382E+01 .33728E+01 .49059E-01 .56751E+01
 .45509E+01 .13900E+06 .27332E+04 .89253E+00 .37658E+00 .24942E+00 .15932E+00 .26684E+01 .50345E+08 .10214E+01 .49081E+01 .87536E+00 .20193E+01 .59963E+01 .15131E+01
 .14021E+02 .44507E+05 .34845E+05 .85441E+00 .96822E+00 .35319E-01 .97704E-01 .30882E+00 .14558E+09 .14190E+01 .10371E+01 .18947E+01 .51578E+01 .48176E+01 .34339E+01
 .13278E+02 .24805E+06 .40927E+05 .55588E+00 .56834E+00 .59211E-01 .11757E+00 .57219E+01 .14465E+09 .25302E+01 .36894E+01 .18197E+01 .46041E-01 .60771E+01 .39935E+01
 .14377E+01 .40496E+06 .27648E+05 .99800E+00 .99800E+00 .14284E+00 .12056E-01 .27715E+01 .27322E+08 .17814E+01 .52989E+00 .22995E+01 .62750E+00 .13414E+01 .28201E+01
 .64696E+01 .82435E+05 .39274E+05 .60166E+00 .82055E+00 .21162E+00 .13600E+00 .30125E+01 .23482E+07 .18926E+01 .20863E+01 .10952E+01 .30809E+01 .61754E+01 .27828E+01
 .99126E+01 .47426E+06 .17330E+06 .53461E+00 .94895E+00 .22261E+00 .18592E+00 .24439E+01 .15915E+08 .56069E+00 .20369E+01 .25109E+01 .40260E+01 .36191E+00 .60183E+01
 .15869E+02 .60137E+05 .40012E+05 .93346E+00 .34127E+00 .18879E+00 .13399E+00 .13887E+01 .72692E+08 .62313E+00 .47751E+01 .11599E+01 .15570E+01 .17935E+01 .51718E+01
 .12666E+02 .10083E+06 .50257E+05 .81918E+00 .28205E+00 .30046E+00 .13073E+00 .32529E+01 .14627E+09 .21632E+01 .50764E+01 .21181E+01 .11530E+01 .23840E+01 .74899E+00
 .13113E+02 .58250E+05 .44366E+05 .41080E+00 .70720E+00 .66113E-01 .10860E+00 .61720E+01 .14765E+09 .20567E+01 .53806E+01 .15317E+01 .18742E+01 .35590E+01 .20505E+00
 .60376E+01 .19432E+06 .57048E+04 .94326E+00 .73898E+00 .10830E+00 .73290E-01 .46563E+01 .32154E+08 .20319E+01 .54056E+01 .23191E+01 .42316E+01 .43466E+01 .17014E+01
 .15056E+02 .33794E+06 .44596E+05 .74709E+00 .95423E+00 .96044E-01 .14155E+00 .77498E+00 .89945E+08 .14281E+01 .74656E+00 .19271E+01 .11409E+01 .18925E+01 .37265E+01
 .15102E+02 .31863E+06 .42632E+05 .76426E+00 .95731E+00 .82958E-01 .15003E+00 .77025E+00 .12263E+09 .82143E+00 .46602E+01 .56877E+00 .16255E+01 .62304E+01 .71319E+00
 .64609E+01 .19086E+05 .11507E+05 .93528E+00 .17380E+00 .80678E-01 .67617E-01 .61901E+00 .93865E+08 .19284E+01 .59798E+01 .17713E+01 .52679E+01 .47744E+01 .42653E+01
 .10108E+02 .80579E+05 .30342E+05 .65152E+00 .28064E+00 .70000E-01 .85627E-01 .79675E+00 .47079E+08 .11577E+01 .17128E+01 .10114E+01 .43133E+01 .31844E+01 .61839E+01
 .58551E+01 .40926E+06 .85670E+05 .86503E+00 .92414E+00 .83323E-01 .11942E+00 .55924E+01 .25013E+08 .13503E+01 .59649E+01 .25063E+01 .22674E+01 .46425E+01 .36638E+01
 .87000E+01 .18267E+06 .96606E+05 .85777E-01 .56176E+00 .12004E+00 .16980E+00 .55240E+01 .35826E+08 .19421E+01 .58318E+01 .11097E+01 .20140E+01 .26723E+00 .38353E+01
 .62491E+01 .49923E+05 .49974E+05 .99800E+00 .37981E+00 .20726E+01 .25551E+01 .62929E+00 .94410E+08 .28596E+01 .35321E+01 .77793E+00 .61137E+01 .12123E+01 .41023E+01
 .12609E+02 .68007E+05 .70700E+04 .64043E+00 .43546E+00 .12691E+00 .59518E-01 .27490E+01 .13937E+09 .26061E+01 .44690E+01 .20054E+01 .15301E+00 .34065E+01 .49160E+00
 .44286E+01 .20536E+06 .10907E+05 .99800E+00 .99800E+00 .21421E+00 .16358E+00 .16747E+01 .63828E+08 .13415E+01 .22634E+01 .13692E+01 .51112E+01 .22043E+01 .19859E+00
 .91910E+01 .16133E+06 .25412E+05 .88580E+00 .69204E+00 .82498E-01 .15183E+00 .56227E+01 .24430E+08 .26474E+01 .22111E+01 .12688E+01 .17239E+01 .61174E+01 .58122E+01
 .56430E+01 .12321E+06 .10678E+06 .95194E+00 .46069E+00 .25642E+00 .15956E+00 .18450E+01 .13239E+09 .22572E+01 .32763E+00 .18030E+01 .16390E+01 .35896E+01 .44301E+01
 .24672E+01 .56538E+05 .27675E+05 .56444E+00 .97846E+00 .15134E+00 .10628E+00 .40346E+01 .26922E+08 .15538E+01 .38674E+01 .97710E+00 .42531E+01 .54054E+01 .59165E+01
 .10891E+02 .63491E+05 .11422E+05 .68599E+00 .31613E+00 .21390E+00 .81508E-01 .41956E+01 .12980E+09 .27503E+00 .24624E+01 .19053E+01 .27982E+01 .32762E+01 .37159E+01
 .88388E+01 .72082E+05 .13619E+05 .11730E+00 .35083E+00 .12205E+00 .14664E+00 .54839E+01 .14669E+09 .22208E+01 .77250E+00 .27294E+01 .45118E+01 .11823E+01 .23024E+01
 .90634E+01 .69822E+05 .16643E+05 .10700E+00 .35568E+00 .13656E+00 .12646E+00 .54965E+01 .15421E+09 .11319E+01 .10161E+01 .79954E+00 .58929E+01 .61131E+00 .37962E+01
 .12561E+02 .62049E+05 .96482E+05 .56234E+00 .86073E+00 .17448E+00 .89321E-01 .14090E+01 .10803E+09 .25650E+01 .30385E+01 .20275E+01 .51792E+01 .29480E+00 .36763E+01
 .19066E+02 .35565E+06 .29539E+05 .48361E+00 .54677E+00 .30087E+00 .16525E+00 .40789E+01 .51994E+08 .22962E+01 .37933E+01 .19129E+01 .36254E+01 .65035E+00 .41952E+01
 .15878E+02 .11626E+06 .19475E+05 .67879E+00 .68400E+00 .15785E+00 .19538E+00 .58236E+00 .27293E+08 .25764E+01 .16551E+01 .94417E+00 .59893E+01 .42338E+01 .29655E+01
 .72006E+01 .41409E+06 .76700E+05 .50145E+00 .99800E+00 .27735E+00 .12970E+00 .35645E+01 .10753E+09 .20448E+01 .47370E+01 .91715E+00 .27007E+01 .29757E+01 .44080E+01
 .84470E+01 .30314E+06 .15227E+06 .12217E-01 .16879E-01 .10992E+00 .76407E-01 .28273E+00 .12876E+09 .26350E+01 .24533E+01 .14952E+01 .12520E+01 .52585E+01 .15463E+01
 .16052E+02 .54847E+06 .11813E+06 .15338E+00 .14797E+00 .22887E+00 .16321E+00 .38775E+01 .15691E+09 .14849E+01 .38289E+01 .12390E+01 .29731E+01 .24848E+00 .28196E+01
 .12530E+02 .16330E+06 .13797E+06 .15253E+00 .38404E+00 .67265E-01 .82044E-01 .52791E+00 .70683E+08 .25494E+01 .30610E+01 .25212E+01 .18261E-02 .42916E+01 .10374E+01
 .18709E+01 .12631E+06 .51244E+04 .71704E+00 .89686E-01 .16519E+01 .18344E+01 .47930E+01 .72648E+08 .15377E+01 .43066E+01 .25033E+00 .52112E+01 .48649E+01 .48650E+01
 .34397E+01 .35477E+06 .12486E+05 .51250E+00 .53193E+00 .16473E+00 .14834E+00 .10878E+01 .14313E+09 .13715E+01 .61249E+01 .23441E+01 .44649E+01 .51564E+01 .16701E+01
 .43054E+01 .95088E+04 .50336E+04 .30265E+00 .79572E+00 .22642E+00 .18316E+00 .40909E+01 .10756E+09 .21905E+01 .71936E+00 .15706E+01 .47163E+01 .96862E+00 .13385E+01
 .74064E+01 .20894E+06 .15719E+04 .34906E+00 .15883E+00 .27430E+00 .13221E+00 .37211E+01 .15528E+09 .16965E+01 .22539E+01 .13662E+01 .32668E+01 .39745E+01 .57545E+01
 .71121E+01 .17463E+06 .20323E+04 .34431E+00 .16865E+00 .26234E+00 .12932E+00 .37115E+01 .10510E+09 .23189E+01 .11884E+01 .17279E+01 .48233E+01 .51553E+01 .49692E+01
 .54606E+01 .15325E+05 .15542E+04 .99208E+00 .70088E+00 .29379E+00 .16587E+00 .38829E+01 .68331E+08 .24654E+01 .53652E+01 .17085E+01 .45725E+01 .32830E+01 .56091E+00
 .24911E+01 .41779E+04 .18734E+04 .10639E+00 .43375E+00 .20988E+00 .92941E-01 .23047E+01 .39439E+08 .15467E+01 .45947E+00 .12717E+01 .51499E+01 .30861E+00 .32253E+01
 .74284E+01 .42056E+05 .21578E+04 .47082E+00 .57430E+00 .14110E-01 .16129E+00 .19586E+00 .18225E+08 .26434E+00 .25006E+01 .21627E+01 .48525E+01 .42898E+01 .58298E+01
 .60762E+01 .80740E+05 .74612E+04 .79388E+00 .83322E+00 .54866E-01 .11480E+00 .62517E+01 .13190E+09 .27594E+01 .57380E+01 .25238E+01 .55656E+01 .12346E+01 .28143E+01
 .10594E+02 .23203E+06 .14750E+05 .74711E+00 .98869E+00 .58831E-02 .12562E+00 .65818E-02 .34164E+08 .18950E+01 .10693E+01 .14224E+01 .53128E+01 .22134E+01 .21236E+01
 .83062E+01 .18014E+06 .12678E+05 .45008E+00 .10458E+00 .26408E+00 .12669E+00 .36282E+01 .31467E+08 .18152E+01 .38299E+01 .16837E+01 .25420E+01 .11209E-01 .20846E+00
 .42311E+01 .23361E+05 .20051E+05 .80754E+00 .64061E+00 .32508E+00 .15087E+00 .32915E+01 .51118E+07 .70795E+00 .18967E+01 .71953E+00 .51902E+01 .60425E+01 .53629E+01
 .14542E+02 .61477E+05 .28938E+05 .89291E+00 .22270E+00 .21801E+00 .11475E+00 .29906E+01 .40918E+08 .18229E+01 .64125E+00 .19585E+01 .86392E+00 .14094E+01 .49897E+01
 .15781E+02 .78597E+05 .38093E+05 .29327E+00 .79115E+00 .59569E-01 .14012E+00 .46195E+00 .14471E+09 .77441E+00 .19608E+01 .62478E+00 .62819E+01 .62589E+01 .58904E+01
 .10368E+02 .14224E+06 .61217E+05 .25573E+00 .30507E+00 .17102E+00 .72957E-01 .45905E+01 .48586E+08 .13491E+01 .56626E+01 .78712E+00 .24428E+01 .44153E+01 .55339E+01
 .80119E+01 .28148E+05 .24934E+05 .40621E+00 .96272E+00 .30127E+00 .19084E+00 .25401E+01 .10479E+09 .10351E+01 .18683E+01 .26477E+01 .40591E+01 .32846E+01 .43018E+01
 .79402E+01 .14446E+05 .30339E+05 .40287E+00 .97372E+00 .30596E+00 .18314E+00 .25343E+01 .39839E+08 .26630E+01 .46183E+01 .98699E+00 .38390E+01 .56251E+01 .55616E+01
 .30595E+01 .50087E+06 .23543E+06 .31754E-02 .99800E+00 .25700E+00 .19056E+00 .19856E+01 .80070E+08 .14370E+01 .11824E+01 .12944E+01 .47852E+01 .73151E+00 .43939E+01
 .33938E+01 .19293E+06 .41801E+05 .77985E+00 .24464E+00 .25851E+00 .17191E+00 .40246E+01 .14409E+09 .17471E+01 .33100E+00 .25947E+01 .17884E+01 .13276E+00 .57766E+01
 .12507E+02 .27948E+05 .80532E+04 .22180E+00 .58132E+00 .16586E+00 .16264E+00 .44968E+01 .10040E+09 .15107E+01 .49165E+01 .22814E+01 .10276E+01 .19786E+00 .49459E+01
 .16811E+02 .30710E+06 .94011E+05 .46299E-01 .38126E+00 .29419E+00 .11580E+00 .33612E+01 .15335E+09 .89984E+00 .32584E+01 .15612E+01 .78068E+00 .35372E+01 .43042E+01
 .11221E+02 .55027E+06 .24859E+06 .93365E+00 .34842E-01 .11144E+00 .79186E-01 .10210E+01 .86379E+08 .82093E+00 .58558E+01 .15019E+01 .36856E+01 .68967E+00 .54727E+01
 .90787E+01 .16346E+06 .11824E+06 .37520E+00 .64674E+00 .73726E-01 .38788E-01 .49125E+01 .15755E+09 .13694E+01 .56857E+01 .17924E+01 .15326E+01 .51597E+00 .76173E-01
 .58339E+01 .56500E+05 .28500E+05 .29331E+00 .82184E+00 .22056E+00 .14291E+00 .49679E+01 .45871E+08 .21253E+01 .53080E+01 .22097E+01 .37615E+01 .14719E+01 .93630E+00
 .16657E+02 .49682E+05 .42319E+05 .45129E+00 .23728E+00 .17053E+00 .14940E+00 .52078E+01 .49815E+08 .20022E+01 .56023E+01 .65711E+00 .50763E+01 .35572E+01 .14269E+01
 .12881E+02 .78016E+05 .47224E+05 .68016E+00 .89893E+00 .54906E-01 .16124E+00 .97570E-01 .60926E+08 .20727E+01 .41018E+01 .99241E+00 .24041E+01 .59108E+01 .13155E+01
 .12666E+02 .92002E+05 .33970E+05 .81648E+00 .11790E+00 .26265E+00 .16403E+00 .39528E+01 .11311E+09 .22510E+01 .19438E+01 .19766E+01 .25407E+01 .60315E+01 .14584E+01
 .14183E+02 .38319E+06 .32110E+06 .13847E+00 .66668E+00 .11739E+00 .15051E+00 .88650E+00 .15089E+08 .22645E+01 .29219E+00 .22427E+00 .31824E+01 .17806E+01 .67068E-01
 .13961E+02 .27143E+06 .11808E+06 .57214E+00 .51184E+00 .15217E+00 .16158E+00 .99180E+00 .11680E+08 .26815E+01 .76659E+00 .48887E+00 .28113E+00 .59741E+01 .33896E+01
 .28673E+01 .19845E+05 .42901E+04 .13835E-01 .96411E+00 .11649E+00 .13598E+00 .59188E+00 .30021E+08 .40351E+00 .52557E+01 .17337E+01 .48229E+01 .28520E+01 .51233E+01
 .29734E+01 .54609E+05 .19881E+05 .59327E+00 .83007E+00 .13020E+00 .15579E-01 .45508E+01 .11629E+09 .22415E+01 .22790E+01 .26253E+01 .53938E+01 .75752E+00 .33994E+01
 .84996E+01 .50281E+06 .34398E+05 .12258E+00 .96680E+00 .17767E+00 .45288E-01 .36460E+01 .27730E+07 .15086E+01 .22852E+01 .27099E+00 .51254E+01 .27293E+01 .55953E+01
 .61929E+01 .12302E+06 .53871E+05 .78467E+00 .19303E+00 .25865E+00 .16218E+00 .27821E+01 .10394E+09 .16880E+01 .24664E+01 .20878E+01 .36547E+01 .10759E+01 .46558E+01
 .12110E+02 .28507E+06 .10136E+06 .36420E+00 .97410E+00 .23433E+00 .14012E+00 .31387E+01 .10214E+09 .87258E+00 .36630E+01 .18144E+00 .59036E+01 .40726E+01 .39018E+01
 .28207E+01 .10746E+06 .94657E+03 .97318E+00 .58032E+00 .11558E+00 .17652E+00 .60082E+01 .13537E+09 .21164E+01 .33279E+01 .11681E+01 .60870E+01 .82651E+00 .14486E+01
 .12942E+02 .16686E+06 .49544E+05 .96415E+00 .48406E+00 .18568E+00 .12389E+00 .40457E+01 .32755E+08 .77808E+00 .90716E+00 .77672E+00 .14486E+01 .44870E+01 .53560E+01
 .43436E+01 .36983E+05 .94392E+04 .61712E-01 .72180E+00 .18131E+01 .77568E+00 .34633E+01 .70214E+07 .29907E+01 .45520E+01 .65274E+00 .40983E+01 .31756E+01 .55732E+01
 .33115E+01 .21633E+06 .20442E+06 .71621E-01 .22499E+00 .16391E+00 .10017E+00 .10435E+01 .15198E+09 .95537E+00 .57820E+01 .85118E+00 .14331E+01 .17736E+01 .73127E+00
 .96869E+01 .49700E+06 .46635E+05 .75407E+00 .92067E+00 .16377E+00 .16685E+00 .14742E+01 .97985E+08 .21447E+01 .40055E+01 .23855E+01 .19863E+01 .46616E+01 .24883E+01
 .64199E+01 .85337E+05 .39172E+05 .19487E+00 .80531E+00 .23117E+00 .14941E+00 .31503E+01 .29614E+08 .97753E+00 .31224E+01 .20110E+01 .82960E+00 .53353E+01 .53906E+01
 .60357E+01 .72135E+05 .13726E+05 .83286E+00 .28763E+00 .27124E+00 .16475E+00 .23108E+01 .12764E+09 .20305E+01 .13700E+01 .21817E+01 .46805E+01 .58968E+01 .55951E+01
 .36844E+01 .24409E+06 .17947E+06 .99800E+00 .99800E+00 .21147E+00 .50785E-01 .32480E+01 .41984E+08 .22283E+01 .58797E+01 .19995E+01 .30513E+01 .81717E-02 .56953E+01
 .22358E+01 .11999E+08 .10903E+07 .35553E+00 .99800E+00 .12264E+00 .89819E-01 .36785E+01 .14022E+09 .13510E+01 .32482E+01 .14529E+01 .17451E+00 .61861E+01 .42966E+01
 .98371E+01 .11545E+06 .10738E+06 .24562E+00 .35256E+00 .20954E+00 .10127E+00 .19786E+01 .15757E+09 .31273E+00 .97583E+00 .17109E+01 .60012E+01 .22292E+00 .60654E+01
 .55981E+01 .23541E+06 .86712E+05 .36482E+00 .79209E+00 .22177E+00 .75587E-01 .34322E+01 .10385E+09 .20397E+01 .51419E+01 .25444E+00 .15660E+01 .19140E+01 .39948E+01
 .30445E+01 .33474E+07 .68677E+05 .99800E+00 .99503E+00 .19876E+00 .15519E+00 .45402E+01 .14622E+09 .12412E+01 .43767E+01 .25301E+01 .50335E+01 .55023E+01 .18272E+01
 .14033E+02 .55497E+06 .13315E+06 .52065E+00 .76774E+00 .22322E+00 .16891E+00 .31599E+01 .43489E+08 .15664E+01 .12284E+01 .20897E+01 .44711E+01 .44592E+01 .31964E+01
 .10756E+02 .45138E+05 .98393E+04 .67173E+00 .17607E+00 .23708E+00 .99554E-01 .24016E+01 .36427E+07 .13098E+01 .38041E+01 .14835E+01 .15224E+01 .53373E+01 .33847E+01
 .18262E+02 .35049E+05 .31082E+05 .92861E+00 .60229E+00 .69955E-01 .15849E+00 .34207E+00 .11811E+08 .19036E+01 .55859E+01 .15100E+01 .21951E+01 .47588E+01 .22699E+00
 .26022E+01 .41552E+06 .58882E+05 .55507E+00 .53696E+00 .10942E+00 .15263E+00 .59076E+01 .48614E+08 .68312E+00 .60457E+01 .20326E+01 .25767E+01 .47946E+01 .15842E+01
 .10064E+01 .47629E+07 .24759E+06 .88117E+00 .99800E+00 .24675E+00 .93343E-01 .35574E+01 .82905E+08 .13470E+01 .45958E+01 .22072E+01 .43233E+01 .47773E+01 .51089E+01
 .94137E+01 .39461E+06 .20044E+05 .11449E-01 .91262E+00 .15070E+00 .75153E-01 .28237E+01 .13398E+09 .79581E+00 .60829E+01 .20691E+01 .26645E+01 .17012E+01 .44500E+01
 .70694E+01 .14306E+06 .28354E+05 .46001E+00 .99800E+00 .25520E+00 .13675E+00 .41333E+01 .55872E+08 .81627E+00 .56046E+01 .13239E+01 .26583E+01 .10401E+01 .41289E+01
 .14841E+02 .44772E+06 .25133E+05 .89384E+00 .86021E+00 .88043E-01 .16346E+00 .12436E+00 .17978E+08 .80599E+00 .60470E+01 .16369E+01 .59986E+01 .61466E+01 .62725E+01
 .11296E+02 .12247E+07 .19953E+05 .63968E+00 .55024E+00 .12122E+00 .56060E-01 .31737E+01 .88109E+08 .72457E+00 .17278E+01 .17100E+01 .28937E+01 .40715E+00 .15669E+00
 .95272E+01 .12814E+06 .93950E+05 .87017E+00 .24042E-03 .25882E+00 .13652E+00 .29101E+01 .39729E+08 .10425E+01 .18005E+01 .25173E+00 .33044E+01 .77243E+00 .47387E+01
 .65622E+01 .88998E+05 .11331E+05 .87592E+00 .42249E+00 .19507E+00 .14302E+00 .23191E+01 .11303E+09 .10371E+01 .37336E+01 .12871E+01 .58868E+01 .40685E+01 .44231E+01
 .12283E+02 .90427E+05 .87596E+05 .43090E+00 .36984E+00 .18356E+00 .15069E+00 .36674E+01 .43159E+08 .17114E+01 .39001E+01 .85386E-01 .60499E+01 .56621E+01 .60719E+00
 .11601E+02 .51843E+05 .11922E+05 .27545E+00 .56555E+00 .35074E-01 .14833E+00 .23794E+00 .14580E+09 .15222E+01 .42823E+01 .11646E+01 .63694E+00 .15963E+01 .18655E+00
 .28008E+01 .10393E+07 .27878E+05 .95917E+00 .99800E+00 .72011E+00 .26092E+01 .59494E+01 .13899E+08 .19546E+01 .49709E+01 .27752E+01 .22689E+00 .45571E+01 .46878E+01
 .54534E+01 .90990E+05 .22058E+05 .64537E+00 .99800E+00 .12876E+00 .43294E-02 .26606E+01 .11721E+09 .21232E+01 .21508E+01 .75661E+00 .51579E+01 .40334E+01 .80439E+00
 .43643E+01 .18014E+06 .25816E+06 .23114E+00 .99800E+00 .32739E+00 .16823E+00 .35348E+01 .12295E+09 .15726E+01 .10657E-01 .16046E+01 .19818E+01 .38849E+01 .11934E+01
 .18922E+02 .84296E+05 .12679E+06 .37900E+00 .48575E+00 .15108E+00 .11287E+00 .21726E+01 .11865E+09 .64406E+00 .55017E+00 .15974E+01 .63992E+00 .36819E+00 .41100E+01
 .87145E+01 .91674E+05 .50502E+05 .66285E+00 .89780E+00 .36456E-01 .17828E+00 .61040E+01 .11826E+09 .21313E+01 .16828E+01 .26510E+01 .28915E+01 .14764E+01 .16392E+01
 .68619E+01 .55030E+06 .84298E+04 .99800E+00 .31904E+00 .41882E-01 .16649E+00 .23257E+00 .12981E+09 .23972E+01 .17008E+01 .21905E+01 .48153E+01 .59846E+01 .31376E+01
 .11595E+02 .22819E+05 .18432E+05 .25435E+00 .97613E+00 .72959E-01 .47195E-01 .53942E+01 .22516E+08 .28199E+01 .19322E-01 .20086E+01 .50324E+00 .25957E+01 .13711E+01
 .52186E+01 .41709E+05 .13483E+04 .61187E+00 .34181E+00 .21619E+00 .12479E+00 .45278E+01 .96039E+08 .15109E+01 .47726E+01 .46557E+00 .53181E+01 .43950E+01 .49097E+01
 .27114E+01 .15654E+05 .29226E+04 .19215E+00 .50413E+00 .14692E+00 .81709E-01 .51390E+01 .13084E+09 .29264E+01 .60899E+01 .21884E+01 .81741E+00 .17196E+01 .16279E+01
 .16179E+01 .47168E+05 .12668E+04 .95974E+00 .16209E+00 .21917E+01 .16902E+01 .22230E+01 .31727E+08 .10341E+01 .53931E+00 .43608E+00 .45514E+01 .24234E+01 .46601E+01
 .49070E+01 .30230E+05 .32711E+04 .78378E+00 .33499E+00 .88774E-01 .89139E-01 .58792E+01 .51213E+08 .94702E+00 .27226E+01 .20367E+01 .56185E+01 .62475E+01 .14069E+00
 .94767E+01 .21033E+06 .13719E+05 .89183E+00 .98944E+00 .43169E-02 .15535E+00 .21730E-01 .12037E+09 .25396E+00 .54408E+01 .11539E+01 .33587E+01 .55917E+01 .30228E+01
 .28850E+01 .51498E+05 .17270E+04 .94685E+00 .26943E+00 .21688E+00 .81497E-01 .42286E+01 .94870E+08 .63966E+00 .31943E+01 .61098E+00 .37346E+00 .48018E+01 .23940E+00
 .87020E+01 .81565E+05 .26296E+05 .76387E+00 .88932E+00 .13069E+00 .94125E-01 .49488E+01 .11776E+09 .15655E+01 .56891E+01 .11254E+01 .51020E+01 .13589E+01 .51029E+01
 .84656E+01 .87701E+05 .22693E+05 .75691E+00 .89426E+00 .13162E+00 .96736E-01 .49421E+01 .77132E+07 .10342E+01 .81003E+00 .14605E+01 .63912E+00 .14899E+01 .55173E+01
 .43077E+01 .99307E+05 .32917E+04 .45054E+00 .76720E+00 .74347E-01 .14212E+00 .43709E+00 .41421E+08 .14496E+01 .48618E+01 .11241E+01 .61807E+01 .34898E+01 .16394E+01
 .75566E+01 .11356E+04 .93390E+03 .43925E+00 .76711E+00 .10940E+00 .10961E+00 .72152E+00 .43231E+08 .98383E+00 .33922E+01 .34723E+00 .25302E+00 .14995E-01 .50895E+01
 .14326E+02 .95515E+05 .77523E+05 .35675E+00 .57513E+00 .21537E+00 .16132E+00 .18957E+01 .11970E+09 .11939E+01 .44797E+01 .14725E+01 .20643E+01 .38074E+01 .38267E+01
 .14269E+02 .65244E+05 .72225E+05 .34866E+00 .55152E+00 .21167E+00 .16768E+00 .18981E+01 .34753E+08 .16027E+01 .19724E+00 .58884E+00 .36085E+01 .61471E+01 .35057E+01
 .13181E+02 .19630E+06 .13280E+04 .89690E+00 .29200E+00 .26540E+00 .17434E+00 .44171E+01 .10978E+09 .24415E+01 .48022E+01 .14498E+01 .22000E+01 .14220E+01 .28901E+00
 .62215E+01 .78321E+05 .45831E+05 .32496E+00 .95128E+00 .76046E-01 .19667E-01 .68895E+00 .69359E+08 .22164E+01 .11775E+01 .14876E+01 .11504E+01 .45517E+01 .41421E+01
 .34798E+01 .23673E+05 .24702E+04 .65495E+00 .23366E+00 .10885E+00 .13599E+00 .54021E+01 .57365E+07 .25587E+01 .16651E+00 .19898E+01 .22197E+00 .50777E+01 .23216E+01
 .12697E+02 .11565E+06 .13878E+04 .13898E+00 .58671E+00 .43649E-01 .18305E-01 .55635E+01 .45718E+07 .17354E+01 .20062E+01 .82120E+00 .48555E+01 .60468E+01 .32616E+01
 .43935E+01 .59633E+06 .16445E+05 .80569E+00 .18622E+00 .19254E+00 .56372E-01 .43129E+01 .12461E+09 .17986E+01 .62412E+01 .13009E+01 .40024E+01 .11831E+01 .14494E+01
 .33203E+01 .16859E+06 .51876E+04 .71104E+00 .27283E+00 .25076E+00 .13197E+00 .21290E+01 .15114E+08 .17337E+01 .68643E+00 .10526E+01 .21759E+01 .43921E+01 .58161E+01
 .11118E+02 .31950E+05 .32754E+05 .26611E+00 .33142E+00 .29641E+00 .15129E+00 .25824E+01 .67773E+08 .24488E+01 .41057E+01 .75116E+00 .49857E+01 .85861E+00 .11145E+01
 .14554E+02 .30254E+05 .14271E+05 .34171E+00 .97027E+00 .48917E-01 .16736E+00 .13488E+00 .12470E+09 .61836E+00 .14340E+01 .21052E+01 .54240E+01 .61803E+01 .30218E+01
 .65298E+01 .21352E+06 .25962E+05 .60175E+00 .79165E+00 .10351E+00 .47793E-01 .59484E+01 .51671E+08 .21810E+01 .11826E+01 .27134E+01 .62463E+01 .55943E+01 .75600E+00
 .62167E+01 .57310E+05 .10644E+05 .23082E+00 .62011E+00 .15700E+00 .11258E+00 .34997E+01 .14863E+09 .51742E+00 .46843E+01 .20334E+01 .61096E+01 .55016E+01 .46068E+00
 .16033E+02 .15472E+06 .16178E+04 .44901E+00 .29884E+00 .34452E-01 .96900E-01 .25352E-01 .11879E+09 .11187E+01 .36048E+01 .25188E+01 .20752E+01 .32585E+00 .48852E+01
 .31694E+01 .69435E+06 .33118E+05 .99800E+00 .38785E+00 .33518E-01 .11618E+00 .29177E+00 .10106E+09 .25059E+01 .54236E+01 .70533E+00 .61482E+00 .94437E+00 .11876E+01
 .60260E+01 .77843E+06 .59991E+06 .36603E+00 .21249E+00 .11520E+00 .17887E+00 .53898E+01 .19620E+08 .27051E+01 .40262E+01 .12683E+01 .60081E+01 .39411E+01 .19959E+01
 .58159E+01 .80225E+06 .60546E+06 .36408E+00 .19813E+00 .95392E-01 .19214E+00 .54037E+01 .10770E+09 .10243E+01 .36422E+01 .80365E+00 .30735E+01 .13425E+01 .21934E+01
 .54039E+01 .10928E+06 .27079E+05 .11251E+00 .55371E+00 .24518E+00 .15095E+00 .36196E+01 .15296E+09 .11823E+01 .44991E+01 .15800E+01 .26819E+01 .61413E+01 .49332E+00
 .12492E+01 .90635E+05 .89470E+04 .32182E+00 .67855E+00 .27949E+01 .16242E+01 .28933E+01 .94571E+08 .11927E+01 .51510E+01 .75812E+00 .55174E+01 .22740E+01 .28020E+01
 .15347E+02 .83645E+05 .13097E+05 .85446E+00 .99582E+00 .10695E+00 .67000E-01 .74736E+00 .44002E+08 .11904E+01 .59749E+01 .23243E+01 .12219E+01 .86091E+00 .59529E+01
 .11738E+02 .38077E+05 .13069E+05 .11621E+00 .61071E+00 .56728E-01 .73283E-01 .54767E+01 .62764E+08 .22793E+01 .13516E+01 .72626E+00 .14846E+00 .25609E+01 .51526E+00
 .50550E+01 .21111E+06 .81865E+05 .68519E-01 .72946E+00 .67955E-01 .13812E+00 .57304E+01 .10516E+08 .10156E+01 .35481E+01 .10567E+01 .52151E+01 .27467E+01 .53599E+00
 .99233E+01 .19846E+06 .15314E+06 .73944E+00 .90204E+00 .11135E+00 .12776E+00 .53192E+01 .42188E+08 .93750E+00 .20898E+01 .16271E+01 .41678E+01 .58990E+01 .46519E+01
 .13445E+02 .48807E+05 .12575E+05 .65467E+00 .65510E-01 .15482E+00 .15806E+00 .11736E+01 .56127E+07 .87442E+00 .36588E+01 .77976E+00 .35737E+01 .16676E+01 .53147E+01
 .10578E+02 .90636E+04 .34101E+04 .42380E+00 .81612E+00 .25062E+00 .15678E+00 .19459E+01 .30160E+08 .16981E+01 .29503E+00 .17118E+01 .69333E+00 .11112E+01 .39726E+01
 .18529E+02 .68410E+05 .29921E+04 .12768E+00 .87176E+00 .49245E-01 .82644E-01 .57813E+01 .14025E+09 .77277E+00 .25728E+01 .23101E+01 .20587E+01 .37561E+01 .18172E+01
 .47636E+01 .45349E+06 .10828E+06 .55920E+00 .94688E+00 .12415E+00 .51458E-01 .56889E+01 .64158E+08 .28291E+01 .33124E+00 .12249E+01 .36100E+01 .23411E+01 .79251E+00
 .15370E+02 .31724E+06 .34413E+05 .59006E+00 .51342E+00 .32767E+00 .17045E+00 .30987E+01 .63843E+07 .13663E+01 .15644E+00 .95425E+00 .91865E+00 .48564E+01 .62690E+01
 .65543E+01 .14212E+06 .40476E+05 .74206E+00 .26908E+00 .15989E+00 .57599E-01 .41091E+01 .35422E+08 .20970E+01 .26305E+01 .27174E+00 .26840E+01 .24972E+01 .31187E+01
 .60279E+01 .17598E+05 .17145E+04 .76456E+00 .40578E+00 .14388E+01 .12494E+01 .48094E+01 .14752E+09 .16298E+01 .31967E+00 .19245E+01 .55269E+01 .54648E+01 .61244E+01
 .10673E+02 .15602E+06 .14975E+06 .38242E+00 .90503E-01 .84236E-01 .13328E+00 .66809E+00 .14555E+09 .17704E+01 .32554E+01 .10839E+01 .58398E+01 .50391E+01 .47956E+01
 .34693E+01 .10095E+06 .12649E+05 .28327E+00 .24872E+00 .12268E+00 .15333E-01 .54040E+01 .47849E+08 .10784E+01 .99640E+00 .11542E+01 .47323E+01 .42770E+01 .32435E+01
 .14603E+02 .46723E+06 .75571E+04 .21268E+00 .14036E-01 .21875E+00 .53268E-01 .32281E+01 .77517E+08 .67185E+00 .47112E+01 .13023E+01 .57440E+01 .44617E+01 .44204E+01
 .93200E+01 .15654E+06 .70168E+04 .94428E+00 .99679E+00 .82433E-02 .44102E-01 .62348E+01 .14885E+09 .88835E+00 .60750E+01 .15583E+01 .31709E+01 .14405E+01 .11924E+01
 .12438E+02 .14662E+06 .78384E+05 .76264E+00 .21329E+00 .14310E+00 .16887E+00 .11459E+01 .41549E+08 .70704E+00 .50180E+01 .20632E+01 .43132E+01 .23660E+01 .61101E+01
 .54373E+01 .24668E+06 .49237E+04 .88070E+00 .77191E+00 .73964E-01 .11108E+00 .59026E+01 .13653E+09 .16617E+01 .16989E+01 .22506E+01 .94825E+00 .22958E+01 .83062E+00
 .41267E+01 .71990E+06 .14783E+06 .25563E+00 .20326E+00 .23338E+00 .13644E+00 .40144E+01 .15495E+09 .19218E+01 .38003E+01 .69068E+00 .60801E+01 .59154E+01 .42081E+01
 .61876E+01 .27079E+06 .94180E+05 .99107E+00 .59912E+00 .10305E+00 .13251E+00 .81735E+00 .12087E+09 .95964E-01 .60932E+01 .12361E+01 .34678E+01 .58497E+01 .16950E+01
 .50264E+01 .26750E+06 .52448E+05 .44505E+00 .77793E+00 .28383E+00 .16594E+00 .28972E+01 .10063E+09 .13553E+01 .43077E+01 .20520E+01 .21537E+01 .19553E+01 .10985E+01
 .78556E+01 .14788E+06 .22152E+05 .82750E+00 .64977E+00 .83628E-01 .14161E+00 .55887E+01 .10169E+09 .15234E+01 .40272E+01 .13973E+01 .59584E+01 .31751E+01 .34085E+01
 .73658E+01 .43746E+06 .21026E+05 .93765E+00 .29050E+00 .25349E-01 .10764E+00 .17969E+00 .84187E+08 .94937E+00 .72549E+00 .64060E+00 .28644E+00 .52392E+01 .59769E+01
 .36856E+01 .14723E+06 .10358E+06 .55749E+00 .16942E+00 .38049E-01 .79170E-01 .15889E+00 .12340E+09 .25133E+01 .91768E+00 .21309E+01 .21447E+01 .12154E+01 .68138E+00
 .58853E+01 .34618E+06 .65348E+05 .21585E+00 .61382E+00 .30648E+00 .12460E+00 .39820E+01 .14482E+09 .22667E+01 .16384E+01 .29014E+01 .77295E-01 .57033E+01 .84713E+00
 .29630E+01 .14716E+06 .79145E+05 .67406E+00 .99800E+00 .13945E+00 .10435E-01 .59047E+01 .74451E+08 .20681E+01 .10860E+01 .13668E+01 .30819E+01 .38691E+01 .48253E+01
 .16344E+02 .27227E+06 .45770E+05 .71402E+00 .37598E+00 .18317E+00 .16396E+00 .48753E+01 .12792E+09 .10969E+01 .68165E+00 .57845E+00 .95499E+00 .31376E+00 .22350E+01
 .10991E+02 .15702E+06 .11560E+06 .27778E-01 .13895E+00 .74956E-01 .13493E+00 .43749E+00 .40142E+08 .14574E+01 .37658E+01 .21641E+01 .36251E+01 .55241E+01 .11573E+00
 .96847E+01 .68416E+06 .53761E+05 .32434E+00 .56535E+00 .84807E-01 .17159E+00 .60174E+01 .64965E+08 .19748E+01 .59186E+01 .15853E+00 .28259E+00 .61771E+01 .55216E+00
 .49391E+01 .25973E+06 .11301E+06 .65796E+00 .65036E-01 .86991E-01 .12515E+00 .56755E+01 .15507E+09 .15920E+01 .51885E+00 .28978E+01 .40332E+01 .44344E+01 .25949E+00
 .76657E+01 .29372E+06 .22893E+06 .50868E+00 .68611E-01 .58361E-01 .94791E-01 .83527E+00 .43848E+08 .16190E+01 .28533E+01 .24538E+01 .46223E+01 .29599E+01 .48157E+01
 .15106E+02 .24014E+06 .25073E+06 .54365E+00 .54017E+00 .78416E-01 .17362E+00 .20027E+00 .28348E+08 .26043E+01 .54789E+01 .18337E+01 .59089E+01 .43216E+01 .52065E+01
 .11983E+02 .20183E+06 .55585E+05 .43981E+00 .75006E+00 .23126E+00 .90125E-01 .40323E+01 .30563E+08 .17381E+01 .62024E+01 .20630E+01 .41116E+01 .61715E+01 .27229E+01
 .95701E+01 .48406E+06 .24943E+05 .18286E+00 .52264E+00 .12492E+00 .98936E-01 .53178E+01 .12951E+07 .30913E+01 .45663E+01 .12427E+01 .43448E+01 .40070E+01 .34719E+01
 .69021E+01 .30209E+06 .27514E+06 .29474E+00 .99096E+00 .15584E+00 .45787E-01 .46575E+01 .89307E+08 .14837E+01 .36010E+01 .13705E+01 .47813E+01 .18460E+01 .48727E+01
 .50186E+01 .47806E+06 .31483E+06 .92875E+00 .46552E+00 .27557E+00 .16666E+00 .32676E+01 .16444E+08 .23327E+01 .18711E+01 .21965E+01 .40337E+01 .14999E+01 .20642E-01
 .94773E+01 .66331E+06 .58295E+06 .69640E+00 .39874E+00 .83881E-01 .71752E-01 .54127E+00 .18233E+08 .20700E+01 .15145E+01 .94126E-01 .82214E+00 .28400E+01 .54500E+01
 .32027E+01 .38192E+06 .59216E+05 .83010E+00 .99800E+00 .12463E+00 .13538E+00 .92199E+00 .33604E+07 .20301E+01 .21318E+01 .60435E+00 .56829E+01 .26576E+01 .24439E+01
 .16792E+02 .11247E+05 .22048E+04 .85803E+00 .68860E-01 .59613E-01 .38547E-01 .57725E+01 .14414E+09 .15153E+01 .21603E+01 .19534E+01 .60350E+00 .23551E+01 .54590E+01
 .88112E+01 .11353E+06 .63474E+05 .40819E+00 .82608E+00 .10305E+00 .20816E-01 .21272E+01 .14333E+09 .22642E+01 .22605E+01 .91474E+00 .27330E+01 .98446E-01 .14906E+01
 .12015E+02 .32119E+06 .13157E+06 .34703E+00 .43723E+00 .30044E+00 .11836E+00 .24785E+01 .13327E+09 .64802E+00 .58087E+01 .15099E+01 .26748E+01 .10164E+01 .18917E+01
 .11260E+02 .25517E+06 .39065E+05 .62938E+00 .45290E+00 .28090E+00 .16759E+00 .33425E+01 .63861E+08 .17455E+01 .29135E+01 .18732E+01 .47657E+00 .11432E+01 .15870E+01
 .72063E+01 .10935E+06 .20564E+05 .99800E+00 .99602E+00 .11552E+00 .13697E+00 .61014E+01 .42410E+08 .87573E+00 .53634E+01 .11953E+01 .14135E+01 .32644E+01 .10037E+01
 .17150E+02 .32638E+06 .15542E+05 .45518E+00 .57602E+00 .97969E-01 .38469E-01 .25006E+01 .45421E+08 .11839E+01 .22261E+01 .14842E+01 .48976E+01 .10934E+01 .27969E+01
 .40809E+01 .42429E+04 .14177E+04 .11433E+00 .18424E-01 .11188E+00 .78525E-01 .31480E+01 .78600E+08 .28883E+00 .42079E+01 .21203E+01 .61213E+01 .42554E+01 .27932E+01
 .12044E+02 .51919E+04 .72272E+03 .20034E+00 .49063E+00 .16121E+00 .59318E-01 .23621E+01 .73544E+08 .27128E+01 .28093E+01 .22064E+00 .48232E+01 .62440E+01 .58684E+01
 .44516E+01 .31837E+06 .70723E+05 .91750E+00 .19526E+00 .58167E-01 .13501E+00 .58291E+01 .10752E+09 .11728E+01 .76954E+00 .25187E+00 .48795E+01 .11692E+01 .47327E+01
 .55409E+01 .33579E+05 .15289E+05 .67897E+00 .99246E+00 .64693E-01 .58733E-01 .58539E+01 .15778E+09 .24694E+01 .13315E+01 .18883E+01 .29863E+01 .52121E+01 .50578E+01
 .60752E+01 .53809E+05 .36069E+05 .59285E+00 .81127E+00 .28041E+00 .10993E+00 .32019E+01 .14822E+09 .71730E+00 .33182E+01 .21797E+01 .57227E+01 .29588E+01 .54270E+01
 .10236E+02 .35698E+05 .49685E+04 .54993E+00 .54534E+00 .17618E+00 .13571E+00 .27416E+01 .14174E+09 .13674E+01 .32399E+01 .89144E+00 .42708E+01 .15932E+01 .48188E+01
 .10473E+02 .57685E+05 .59377E+04 .53912E+00 .54215E+00 .15817E+00 .12477E+00 .27521E+01 .13279E+09 .59535E+00 .89812E+00 .25376E+01 .37347E+00 .14704E+01 .15386E+01
 .40601E+01 .28118E+06 .77096E+04 .42442E+00 .55374E-01 .21908E+00 .10778E+00 .37429E+01 .15086E+09 .85375E+00 .62221E+01 .15000E+01 .58865E+01 .24556E+01 .12411E+01
 .14371E+02 .45845E+06 .16405E+05 .22759E-01 .41689E+00 .18715E+00 .75949E-01 .35821E+01 .20205E+08 .58183E+00 .55001E+01 .19524E+01 .54018E+01 .21704E+01 .35722E+00
 .56410E+01 .34060E+05 .29917E+05 .29966E+00 .17173E+00 .11871E+00 .11612E+00 .99380E+00 .25819E+08 .20983E+01 .60353E+01 .13904E+01 .47697E+01 .31999E+00 .57707E+01
 .16342E+01 .92241E+05 .11442E+05 .11096E+00 .63702E+00 .20123E+00 .57790E-01 .38604E+01 .75805E+08 .20075E+01 .27948E+01 .11219E+01 .52010E+01 .38453E+00 .17065E+01
 .15417E+02 .49966E+05 .29668E+05 .29551E+00 .26117E+00 .17165E+00 .14153E+00 .49468E+01 .15311E+09 .14902E+01 .46046E+01 .22942E+01 .11375E+01 .80423E+00 .44793E+01
 .25356E+01 .20266E+05 .18882E+05 .93811E+00 .75841E+00 .21662E+00 .17802E+00 .23016E+01 .28147E+07 .10146E+01 .42396E+01 .13284E+01 .11489E+01 .23852E+01 .20413E+01
 .14439E+02 .16326E+06 .55138E+05 .96290E+00 .44968E-01 .12072E+00 .81165E-01 .24522E+01 .11274E+09 .18597E+01 .11054E+01 .75515E+00 .22672E+01 .93448E+00 .49070E+01
 .14533E+02 .16620E+06 .41815E+05 .95537E+00 .44589E-01 .10711E+00 .74396E-01 .24627E+01 .87715E+08 .83909E+00 .59085E+01 .24689E+01 .32207E+01 .38082E+01 .45154E+01
 .14177E+02 .15982E+06 .47738E+05 .95345E+00 .34402E-01 .11029E+00 .66990E-01 .24610E+01 .90056E+08 .14737E+01 .53919E+01 .56547E+00 .71591E+00 .11611E+01 .37339E+01
 .36573E+01 .79128E+05 .82075E+04 .82394E+00 .40631E+00 .95275E-01 .11198E+00 .67063E+00 .13648E+09 .22571E+01 .66366E+00 .13110E+01 .27505E+01 .76402E+00 .62723E+01
 .26396E+01 .94647E+05 .23820E+05 .58844E+00 .99800E+00 .13241E+00 .65182E-01 .34409E+01 .13954E+09 .91424E+00 .30741E+01 .35765E+00 .19587E+01 .88201E+00 .24332E+01
 .90932E+01 .24979E+06 .11846E+06 .65103E+00 .66190E+00 .17113E+00 .38273E-01 .27965E+01 .64886E+08 .14093E+01 .10776E+01 .19623E+01 .42322E+01 .25024E+01 .53411E+01
 .17614E+02 .82978E+05 .60628E+04 .16428E+00 .51462E+00 .10301E+00 .14401E+00 .59968E+00 .65482E+06 .19957E+01 .58090E+01 .22336E+01 .59682E+01 .59271E+01 .50142E+01
 .17806E+02 .84872E+05 .54056E+04 .15145E+00 .53281E+00 .98363E-01 .14377E+00 .60955E+00 .10690E+09 .23905E+01 .45981E+01 .48813E+00 .43042E+01 .32870E+01 .43988E+01
 .56545E+01 .64639E+05 .17070E+05 .68822E+00 .24502E+00 .11101E+00 .12253E+00 .53744E+01 .66099E+08 .25739E+01 .13583E+01 .17457E+01 .90573E+00 .61343E+01 .53251E+01
 .54133E+01 .77224E+04 .64478E+04 .27157E+00 .60760E-01 .40406E-01 .15966E+00 .61626E+01 .58143E+08 .17687E+01 .37164E+01 .26864E+01 .30418E+01 .55316E-01 .22944E+01
 .33122E+01 .17640E+05 .11666E+05 .90490E-01 .93885E+00 .17208E+01 .68283E+00 .42919E+01 .23177E+08 .10132E+01 .49050E+01 .75100E+00 .36371E+01 .30484E+01 .42369E+01
 .72681E+01 .54277E+05 .87106E+04 .61268E+00 .93073E+00 .21589E+00 .13584E+00 .31303E+01 .63627E+08 .16710E+01 .42547E+01 .15824E+01 .48995E+01 .37677E+01 .37013E+01
 .71990E+01 .50328E+05 .59505E+04 .61076E+00 .92405E+00 .21369E+00 .14541E+00 .31164E+01 .78660E+08 .20347E+01 .36490E+01 .13958E+01 .97933E+00 .54144E+00 .20935E+01
 .95393E+01 .41738E+06 .58023E+05 .77159E+00 .78619E+00 .12501E+00 .13851E+00 .53529E+01 .15007E+09 .69889E+00 .31850E+01 .75929E+00 .41498E+01 .34809E+01 .85448E+00
 .13813E+02 .25473E+05 .10516E+05 .85671E+00 .57406E+00 .33716E+00 .16247E+00 .30289E+01 .15431E+09 .19730E+01 .12858E+01 .30509E+00 .46398E+01 .58023E+01 .55771E+01
 .69550E+01 .22971E+06 .10225E+06 .84929E+00 .44807E+00 .18978E+00 .49932E-01 .24316E+01 .99246E+08 .17964E+01 .16921E+01 .15624E+01 .48680E+01 .16373E+01 .60641E+01
 .64691E+01 .15064E+06 .10341E+06 .56541E+00 .20066E+00 .18661E+00 .82315E-01 .18106E+01 .23567E+08 .13238E+01 .36250E+01 .40534E+00 .27566E+01 .26410E+01 .48926E+01
 .63045E+01 .84037E+05 .32189E+05 .34815E+00 .24864E+00 .23433E+00 .11985E+00 .23413E+01 .11781E+09 .12673E+01 .74485E+00 .42278E+00 .29265E+01 .53058E+01 .11503E+01
 .80059E+01 .23240E+06 .20503E+05 .62532E+00 .98533E+00 .13684E+00 .10733E+00 .52340E+01 .53347E+08 .14603E+01 .11868E+01 .14389E+01 .61338E+01 .14491E+00 .14642E+01
 .15259E+02 .11587E+06 .11969E+06 .65596E+00 .95068E+00 .24112E+00 .10932E+00 .36926E+01 .12532E+09 .49827E+00 .58889E+01 .19650E+01 .44993E+01 .55852E+01 .89862E+00
 .73670E+01 .53472E+06 .26792E+06 .47299E+00 .11694E-01 .16143E+00 .86505E-01 .20867E+01 .72131E+06 .16577E+01 .50765E+01 .10839E+01 .36382E+01 .32044E+01 .16516E+01
 .73348E+01 .35716E+06 .50333E+05 .83834E-01 .89892E+00 .18389E+00 .82019E-01 .20215E+01 .82802E+07 .15713E+01 .39442E+01 .24504E+01 .36492E+01 .17152E+01 .36168E+00
 .10722E+02 .29274E+05 .25623E+05 .46321E+00 .93236E-01 .14572E+00 .12543E+00 .10845E+01 .22561E+08 .16966E+01 .38477E+00 .17399E+01 .47467E+01 .62089E+01 .31357E+00
 .25550E+01 .77425E+05 .23505E+05 .79305E+00 .16209E+00 .10914E+00 .13559E+00 .10937E+01 .11835E+08 .11595E+01 .34204E+01 .76852E+00 .10548E+01 .48219E+01 .36638E+01
 .50726E+01 .95167E+05 .48663E+05 .18368E+00 .32981E+00 .20185E+00 .49875E-01 .28606E+01 .12517E+09 .14279E+01 .53052E+01 .13035E+01 .10576E+01 .55335E+01 .46149E+01
 .15226E+02 .30282E+06 .11553E+06 .25300E+00 .85261E+00 .14432E+00 .18670E+00 .54257E+01 .43636E+07 .15449E+01 .23113E+01 .10878E+01 .94870E+00 .35828E+00 .68945E+00
 .14277E+02 .11131E+05 .11775E+04 .28217E+00 .21291E+00 .78392E-01 .95297E-01 .51834E+01 .13928E+08 .73334E+00 .23099E+01 .20579E+01 .14737E+01 .37087E+01 .42598E+01
 .16146E+02 .81013E+05 .23950E+05 .22505E+00 .60193E+00 .94708E-01 .13548E+00 .55413E+01 .89577E+08 .83730E+00 .54897E+01 .14786E+01 .59472E+01 .40287E+01 .45000E+00
 .16694E+02 .12954E+06 .21607E+05 .23643E+00 .62004E+00 .85389E-01 .12264E+00 .55270E+01 .12737E+09 .99378E+00 .47662E+01 .91415E+00 .44099E+00 .33963E+01 .60196E+01
 .39206E+01 .18236E+06 .18794E+05 .85965E+00 .49504E+00 .30026E+01 .22065E+01 .32937E+01 .45620E+08 .23029E+01 .85655E+00 .74242E+00 .39478E+00 .55890E+01 .13885E+00
 .50181E+01 .64441E+05 .47031E+05 .43951E+00 .35721E+00 .12011E+00 .60595E-01 .80286E+00 .12991E+08 .81368E+00 .33065E+01 .21225E+01 .29362E+01 .52093E+01 .49837E+01
 .89411E+01 .20684E+06 .11748E+04 .90941E+00 .53091E+00 .18854E+01 .25663E+01 .18911E+01 .99013E+07 .13297E+01 .29363E+01 .21192E+01 .38783E+01 .49557E+01 .78454E+00
 .13340E+02 .13002E+06 .27934E+05 .90135E+00 .63392E+00 .13739E+00 .15879E+00 .10311E+01 .83512E+08 .10863E+01 .22173E+01 .13746E+01 .65222E+00 .82105E+00 .12438E+01
 .13629E+02 .51384E+06 .11915E+06 .32620E+00 .48510E+00 .10333E+00 .16213E+00 .54477E+01 .14784E+08 .16902E+01 .52722E+01 .20343E+00 .16089E+01 .53218E+01 .61179E+01
 .12834E+02 .81057E+05 .28347E+04 .51131E+00 .12236E+00 .90160E-01 .36197E-01 .25554E+01 .90377E+08 .19400E+01 .44767E+01 .22148E+01 .29904E+01 .21271E+01 .44497E+01
 .12646E+02 .14023E+06 .81892E+03 .22897E+00 .23683E+00 .89516E-01 .62714E-01 .55531E+01 .20395E+08 .10702E+01 .42178E+01 .59602E+00 .50181E+01 .27893E+01 .47009E+01
 .16049E+02 .14446E+06 .39932E+05 .52348E+00 .87516E+00 .18237E+00 .15118E+00 .49623E+01 .13041E+08 .25409E+01 .22251E+00 .58018E+00 .62553E+01 .25086E+01 .25094E+01
 .10014E+02 .35270E+06 .21921E+05 .53841E+00 .32495E+00 .55526E-01 .12705E+00 .59917E+01 .43356E+08 .11853E+01 .99640E+00 .10769E+01 .40488E+01 .56522E+01 .21343E-02
 .16963E+02 .52426E+05 .18785E+05 .17360E+00 .83903E+00 .22450E+00 .12930E+00 .44167E+01 .90763E+08 .14775E+01 .48159E+01 .28811E+01 .49260E+01 .44064E+01 .45648E+01
 .61913E+01 .16365E+06 .61592E+05 .82185E+00 .89109E+00 .18564E+00 .12737E+00 .29382E+01 .72527E+08 .11178E+01 .26309E+01 .13479E+01 .12790E+01 .19925E+01 .28192E+01
 .73267E+01 .39076E+06 .60145E+05 .85048E+00 .57069E+00 .15822E+00 .15082E+00 .49554E+01 .94442E+08 .17727E+01 .34790E+01 .26037E+00 .12713E+01 .32170E+01 .24692E+00
 .11233E+02 .74346E+06 .16399E+05 .70242E+00 .77102E+00 .65942E-01 .83143E-01 .61359E+01 .73243E+08 .28165E+01 .24327E+01 .12375E+01 .25189E+01 .49335E+01 .25602E+01
 .16012E+01 .28371E+06 .22423E+06 .75341E-01 .26611E+00 .12464E+00 .11424E+00 .50298E+01 .11632E+09 .13331E+01 .19245E+01 .16605E+01 .53348E+01 .60570E+01 .60390E+01
 .13161E+02 .11233E+06 .47909E+05 .18462E+00 .36342E+00 .22882E+00 .16392E+00 .41902E+01 .14277E+09 .15552E+01 .39182E+01 .19270E+01 .44765E+01 .51570E+01 .26900E+01
 .65981E+01 .27840E+06 .31722E+05 .98708E+00 .99800E+00 .23165E+00 .15492E+00 .38124E+01 .92696E+08 .20331E+01 .48766E+01 .49270E+00 .56448E+01 .60200E+01 .14001E+01
 .13953E+02 .14877E+06 .11013E+06 .33811E+00 .63539E+00 .24698E+00 .11111E+00 .40167E+01 .10281E+09 .15912E+01 .16876E+01 .22621E+01 .58361E+01 .44256E+01 .61707E+01
 .13393E+02 .15700E+05 .14115E+04 .16069E+00 .98350E+00 .87132E-02 .15814E+00 .61831E+01 .12896E+09 .60255E+00 .11565E+01 .22908E+01 .29507E+01 .96888E+00 .16462E+01
 .74425E+01 .12979E+06 .17007E+06 .98101E+00 .17112E+00 .14489E+00 .54038E-02 .37516E+01 .44339E+08 .20809E+01 .55679E+01 .44817E+00 .11734E+01 .59489E+01 .45241E+01
 .15371E+02 .55708E+05 .15158E+04 .42631E-01 .86554E+00 .15779E+00 .10613E+00 .18680E+01 .98752E+08 .76364E+00 .53109E+01 .14346E+01 .32086E+01 .30315E+01 .34497E+01
 .15493E+02 .22641E+05 .18606E+05 .61811E-01 .92882E+00 .87456E-01 .14995E+00 .62541E+00 .77700E+08 .13722E+01 .26604E+01 .80203E+00 .37812E+01 .28730E+00 .38359E+01
 .88837E+01 .26296E+06 .13424E+06 .50501E+00 .57578E-01 .15326E+00 .10347E+00 .10169E+01 .37393E+08 .28305E+01 .23183E+01 .22122E+01 .16537E+01 .18052E+01 .23878E+01
 .85342E+01 .16433E+06 .28351E+05 .12816E-01 .95751E+00 .26222E+00 .11650E+00 .31734E+01 .63776E+08 .38405E+00 .51442E+01 .15096E+01 .26438E+01 .34213E+01 .50461E+01
 .70713E+01 .39159E+06 .27067E+06 .58456E+00 .78549E+00 .37683E-01 .91006E-01 .21975E+00 .64877E+08 .28174E+01 .40868E+01 .13145E+01 .11757E+01 .19917E+00 .49745E+01
 .10194E+02 .36837E+06 .28238E+06 .72450E+00 .91860E+00 .96587E-01 .14303E+00 .59007E+01 .20886E+08 .10778E+01 .62341E+01 .95894E+00 .33425E+01 .39493E+01 .52507E+01
 .16497E+02 .62085E+05 .15884E+05 .55057E+00 .92241E+00 .87282E-01 .13105E+00 .56302E+01 .12534E+09 .79220E+00 .38288E+01 .49346E+00 .36422E+01 .19664E+01 .49550E+01
 .12831E+02 .21027E+06 .43978E+05 .40680E+00 .19179E-01 .13059E+00 .17027E+00 .55138E+01 .43192E+08 .13601E+01 .40270E+01 .14993E+01 .95148E+00 .47465E+01 .40241E+01
 .12267E+02 .11833E+06 .49626E+05 .49147E+00 .38543E+00 .12453E+00 .11314E+00 .53136E+01 .11381E+09 .15411E+01 .49288E+01 .19184E+01 .28268E+01 .32507E+01 .73132E+00
 .12283E+02 .19294E+06 .14600E+06 .58189E+00 .64483E+00 .60317E-01 .14741E+00 .24689E+00 .14502E+09 .11015E+01 .33142E+01 .19346E+01 .25359E+01 .16520E+01 .34439E+01
 .10071E+02 .54971E+06 .36071E+06 .60099E+00 .43611E-01 .19985E+00 .53526E-01 .39081E+01 .13708E+09 .11205E+01 .59574E+01 .19496E+01 .54209E+01 .90203E+00 .58619E+01
 .75973E+01 .30965E+04 .77708E+03 .22710E+00 .77748E+00 .24079E+00 .15966E+00 .45395E+01 .33590E+08 .15938E+01 .44278E+00 .16845E+01 .23450E+01 .54978E+01 .47431E+01
 .49058E+01 .11020E+06 .57256E+04 .71294E+00 .26719E+00 .23067E+00 .94834E-01 .25105E+01 .14197E+09 .29431E+01 .65333E+00 .85193E+00 .26426E+01 .28312E+01 .52947E+01
 .11570E+02 .20734E+05 .46299E+04 .47481E+00 .98460E+00 .18633E+00 .17062E+00 .51465E+01 .61013E+07 .70401E+00 .13076E+01 .13450E+01 .26083E+01 .28471E+01 .81377E+00
 .10769E+02 .52968E+05 .14773E+04 .62600E+00 .37659E+00 .19421E+00 .16988E+00 .45321E+01 .78387E+08 .11531E+01 .90421E+00 .23169E+01 .38737E+01 .44543E+01 .15255E+01
 .71139E+01 .47329E+05 .91524E+04 .52861E+00 .72470E+00 .19662E+00 .61576E-01 .39899E+01 .15370E+09 .14369E+01 .54770E+01 .80076E+00 .32360E+01 .33319E+01 .47442E+01
 .38158E+01 .11456E+06 .84017E+05 .49489E+00 .30644E+00 .20883E+00 .14972E+00 .47020E+01 .84849E+08 .13782E+01 .25484E+01 .85418E+00 .40109E+01 .54758E+01 .45890E+01
 .11321E+01 .78429E+05 .63751E+04 .40856E+00 .58716E+00 .20830E+01 .24782E+01 .14616E+01 .40538E+08 .24084E+01 .53196E+01 .11117E+01 .46750E+01 .48837E+01 .89716E+00
 .34653E+01 .47565E+05 .34464E+04 .28514E+00 .60947E-02 .23428E+00 .13170E+00 .26286E+01 .51084E+08 .16671E+01 .12271E+00 .12340E+01 .18883E+01 .38418E+01 .20213E+01
 .10204E+02 .48921E+05 .35943E+04 .59033E+00 .37551E+00 .21838E+00 .16556E+00 .30453E+01 .15476E+09 .15452E+01 .40318E+01 .69472E+00 .10239E+01 .45910E+01 .50567E+01
 .86003E+01 .94704E+05 .23517E+04 .46146E+00 .10338E+00 .10766E+00 .81348E-01 .50569E+01 .12459E+09 .30331E+00 .60862E-01 .10836E+00 .20909E+01 .11178E+01 .46498E+01
 .10251E+02 .10618E+06 .24839E+05 .42304E+00 .63342E+00 .45934E-01 .68723E-01 .15165E+00 .44402E+08 .16418E+01 .66833E+00 .15988E+01 .51508E+01 .17535E+01 .39577E+01
 .10103E+02 .11640E+06 .17304E+05 .41970E+00 .63538E+00 .42796E-01 .55526E-01 .15346E+00 .76894E+08 .11410E+01 .32871E+01 .86406E+00 .36785E+01 .34002E+01 .15987E+00
 .51229E+01 .14974E+05 .17126E+04 .45614E+00 .42010E+00 .13578E+00 .16107E+00 .10199E+01 .92565E+08 .12052E+01 .25148E+01 .58029E+00 .56453E+01 .11807E+01 .47299E+01
 .33024E+01 .81493E+05 .77858E+04 .52495E-01 .62609E+00 .12217E+00 .12533E+00 .99404E+00 .34757E+08 .88373E+00 .28135E+01 .20945E+00 .40131E+00 .18100E+00 .29573E+01
 .75879E+01 .14952E+06 .33478E+05 .80653E+00 .73647E+00 .14574E+00 .94430E-01 .14606E+01 .12976E+09 .20765E+01 .38042E+01 .12660E+01 .62540E+01 .32743E+01 .45334E+01
 .27924E+01 .12236E+05 .51452E+04 .13293E+00 .14510E+00 .62908E-01 .93408E-01 .61093E+01 .70619E+08 .75601E+00 .58363E+01 .12558E+01 .38487E+01 .50040E+01 .59375E+00
 .12806E+02 .15594E+06 .45228E+05 .57533E+00 .19835E+00 .20173E+00 .12475E+00 .42759E+01 .15392E+09 .29312E+01 .24758E+01 .23732E+01 .21108E+01 .45934E+01 .44899E+01
 .12489E+02 .31232E+05 .22282E+05 .86531E-01 .60322E+00 .28361E+00 .17715E+00 .30830E+01 .27074E+08 .10240E+01 .10254E+01 .20719E+01 .56727E+01 .33729E+01 .17310E+01
 .62746E+01 .21116E+06 .35515E+04 .35696E+00 .99800E+00 .14184E+00 .14803E+00 .47708E+01 .10580E+09 .10071E+01 .20264E+01 .21068E+01 .41511E+01 .43622E+01 .56932E+01
 .13575E+02 .13762E+06 .32726E+05 .80020E+00 .97117E+00 .71429E-01 .12329E+00 .57623E+01 .33178E+08 .20200E+01 .30498E+00 .23888E+01 .48923E+01 .11730E+01 .11536E+01
 .10766E+02 .14098E+06 .10945E+05 .18037E+00 .12128E+00 .24140E+00 .16667E+00 .19084E+01 .32242E+08 .22328E+01 .96102E-01 .16678E+01 .22133E+01 .48629E+01 .36855E+01
 .12680E+02 .81953E+06 .63483E+05 .79027E-01 .32365E-01 .23483E-01 .60947E-01 .60665E+01 .43817E+08 .11400E+01 .25443E+01 .15836E+01 .23677E+01 .17033E+01 .48164E+01
 .33592E+01 .22436E+06 .31034E+05 .74763E+00 .19542E+00 .19362E+00 .50062E-01 .23997E+01 .13377E+09 .16288E+01 .47090E+01 .21703E+01 .33834E+01 .31905E+01 .31994E+01
 .36323E+01 .33759E+06 .25741E+06 .86587E+00 .97096E+00 .18836E+00 .36141E-01 .28061E+01 .22204E+08 .11824E+01 .46708E+01 .20669E+01 .61509E+01 .11107E+01 .43623E+01
 .16599E+02 .16086E+06 .70539E+05 .95666E+00 .22058E+00 .43258E-01 .78878E-01 .54710E+01 .15677E+08 .12632E+01 .15803E+01 .49685E+00 .40619E+01 .15195E+01 .37045E+01
 .11968E+02 .54822E+06 .24369E+05 .32609E+00 .48166E+00 .22723E+00 .69905E-01 .35225E+01 .88639E+08 .78718E+00 .47187E+01 .44414E+00 .45287E+01 .17287E+01 .28865E+01
 .10606E+02 .35384E+06 .63590E+05 .90660E+00 .11260E+00 .61373E-01 .10025E+00 .56665E+01 .79298E+08 .12020E+01 .42147E+01 .22344E+01 .47397E+01 .28258E+00 .17608E+01
 .32171E+01 .93622E+05 .33390E+05 .66988E+00 .99800E+00 .31021E+00 .18753E+00 .29066E+01 .57483E+08 .10258E+01 .20836E+01 .11441E+01 .41674E+01 .55889E+00 .16327E+00
 .10586E+02 .70448E+06 .80585E+05 .66231E+00 .99307E+00 .66952E-01 .11689E+00 .74065E+00 .68856E+08 .22405E+01 .25945E+01 .49229E+00 .54416E+01 .20503E+01 .51299E+01
 .63149E+01 .16406E+06 .13752E+06 .23951E+00 .21093E+00 .11082E+00 .16899E-01 .44048E+01 .20631E+08 .17626E+01 .48911E+01 .71311E+00 .56423E+01 .10807E+01 .27976E+01
 .12603E+02 .72482E+05 .46421E+05 .32575E+00 .64518E+00 .84086E-01 .13668E+00 .58474E+01 .55396E+08 .21537E+01 .30044E+01 .12862E+01 .53508E+01 .45387E+01 .16211E+00
 .11076E+02 .19020E+06 .13238E+04 .34862E+00 .92490E+00 .19297E+00 .89038E-01 .39863E+01 .13244E+09 .48810E+00 .45474E+01 .20827E+01 .55444E+01 .43574E+01 .29429E+01
 .67307E+01 .56268E+05 .16939E+04 .27178E+00 .17839E+00 .11625E+00 .68355E-01 .10345E+01 .32605E+07 .56207E+00 .41963E+01 .24822E+01 .44961E+01 .11001E+01 .46271E+01
 .15027E+02 .55639E+06 .21575E+06 .41770E+00 .98421E+00 .14003E+00 .89150E-02 .13869E+01 .11344E+09 .92361E+00 .60807E+01 .24172E+01 .70591E+00 .22770E+01 .34346E+01
 .63361E+01 .33087E+06 .11518E+05 .34553E+00 .61087E+00 .10554E+00 .12283E+00 .11408E+01 .13604E+09 .92874E+00 .21676E+01 .18215E+01 .56785E+01 .88332E+00 .55099E+01
 .63640E+01 .28129E+06 .10176E+06 .14426E+00 .18848E+00 .24829E+00 .16064E+00 .15877E+01 .96293E+08 .25844E+01 .11653E+01 .25477E+01 .20607E+01 .28879E+01 .30931E+01
 .51155E+01 .65402E+06 .94290E+05 .33005E+00 .54277E+00 .72025E-01 .16239E+00 .61468E+01 .11397E+09 .20150E+01 .29108E+01 .17794E+01 .38709E+01 .43810E+01 .47861E+01
 .54566E+01 .14148E+06 .34870E+05 .36690E-01 .16490E-01 .16923E+00 .88990E-01 .13521E+01 .11596E+09 .23905E+01 .54845E+01 .22669E+01 .60589E+01 .51267E+01 .19679E+01
 .83011E+01 .10983E+06 .14416E+06 .18158E+00 .72861E+00 .19863E+00 .14748E+00 .16878E+01 .47857E+07 .15860E+01 .60208E+01 .18846E+01 .64970E+00 .20117E+00 .34388E+01
 .14253E+02 .27807E+06 .17765E+05 .25646E+00 .29338E-01 .55221E-01 .15635E+00 .58565E+01 .82691E+08 .15119E+01 .14277E+01 .21561E+01 .58281E+01 .34703E+01 .51484E+01
 .55001E+01 .27945E+06 .30615E+05 .85448E+00 .63237E+00 .57701E-02 .11638E+00 .56030E-01 .47334E+08 .22701E+01 .22694E+01 .13383E+01 .61682E+01 .41308E+01 .18309E+01
 .15987E+02 .58856E+05 .27363E+05 .98570E+00 .74854E+00 .81631E-01 .94972E-01 .99531E+00 .52338E+08 .17453E+01 .50499E+00 .68922E+00 .58918E+01 .43625E+01 .58471E+01
 .12814E+02 .42311E+06 .11273E+06 .51507E+00 .18395E+00 .35800E-01 .11772E+00 .26316E+00 .35886E+08 .15747E+01 .14802E+01 .15014E+01 .48257E+01 .57775E+01 .19059E+01
 .89559E+01 .39070E+05 .18674E+05 .75782E+00 .64918E+00 .29569E+00 .14215E+00 .37621E+01 .13648E+09 .68647E+00 .59237E+01 .26138E+01 .48509E+01 .27896E+01 .13313E+01
 .15126E+02 .28981E+06 .29735E+05 .17618E+00 .72639E+00 .11962E+00 .80453E-01 .23942E+01 .13016E+09 .25207E+01 .33380E+01 .14009E+01 .29685E+01 .15605E+01 .26601E+01
 .16236E+02 .30256E+06 .14196E+06 .73232E+00 .23103E+00 .95362E-01 .15794E+00 .65547E+00 .52929E+08 .10765E+01 .29257E+00 .14997E+01 .20997E+01 .46823E+01 .22938E+01
 .14116E+02 .33746E+06 .21787E+06 .72425E+00 .14490E+00 .16565E+00 .10486E+00 .32656E+01 .82012E+08 .11830E+01 .35139E+00 .72641E+00 .15382E+01 .10563E+01 .37831E+00
 .86358E+01 .34015E+05 .17417E+05 .71573E+00 .42252E+00 .12743E+00 .15792E+00 .53757E+01 .15341E+09 .83677E+00 .57347E+01 .22934E+01 .23991E+01 .79332E+00 .40368E+01
 .37446E+01 .48006E+04 .31055E+04 .99800E+00 .99800E+00 .11831E+00 .15168E+00 .80546E+00 .14528E+09 .17422E+01 .23694E+01 .17688E+01 .83190E-01 .44756E-01 .19703E+01
 .29667E+01 .21694E+04 .17640E+04 .35149E-02 .54223E+00 .22180E+00 .91718E-01 .39087E+01 .11913E+08 .23836E+01 .59413E+00 .24757E+01 .48995E+01 .59750E+01 .19033E+01
 .11182E+01 .19770E+06 .71513E+04 .51638E+00 .59420E+00 .16574E+01 .19811E+01 .42467E+01 .74129E+08 .12745E+01 .29510E+01 .44547E+00 .52254E+01 .61456E+01 .62252E+01
 .29383E+01 .55200E+05 .31697E+04 .82831E+00 .98785E+00 .18536E+00 .16795E+00 .50567E+01 .21140E+08 .15560E+01 .56068E+01 .87462E+00 .29090E+01 .39695E+01 .15385E+01
 .75039E+01 .45134E+05 .87521E+03 .83638E+00 .82024E+00 .12581E+00 .14735E+00 .49609E+01 .78330E+08 .26484E+01 .49650E+01 .29849E+01 .15681E+01 .12520E+00 .56585E+01
 .14922E+02 .92924E+04 .45456E+04 .65253E+00 .55062E+00 .22675E+00 .13749E+00 .16952E+01 .34983E+08 .17852E+01 .53845E+00 .87614E+00 .21727E+01 .40083E+00 .30474E+01
 .57244E+01 .49775E+05 .92252E+04 .17770E+00 .19453E+00 .16288E+00 .13094E+00 .44880E+01 .64630E+08 .24347E+01 .44855E+01 .11319E+01 .14827E+01 .59876E+01 .22377E+01
 .15052E+02 .77863E+05 .38773E+05 .18471E+00 .83193E+00 .14470E+00 .15888E+00 .54038E+01 .12121E+09 .20894E+01 .68892E+00 .20002E+01 .65865E+00 .24398E+00 .32915E+01
 .13184E+02 .94729E+05 .64290E+05 .86555E-01 .27165E+00 .21781E+00 .15737E+00 .22037E+01 .81470E+08 .16620E+01 .33291E+01 .14003E+01 .38582E+01 .37925E+01 .10520E+00
 .22899E+01 .11222E+06 .43064E+05 .99122E+00 .79375E+00 .58078E+00 .20121E+01 .56850E+01 .56952E+08 .90920E+00 .51246E+01 .17379E+01 .23900E+01 .30829E+01 .25572E+01
 .42140E+01 .10155E+06 .47145E+04 .54330E+00 .93623E+00 .71278E+00 .20367E+01 .57278E+01 .38042E+08 .14343E+01 .59008E+01 .18083E+01 .46712E+01 .36445E+01 .59424E+01
 .42150E+01 .10620E+06 .43946E+04 .54407E+00 .93488E+00 .71424E+00 .20224E+01 .57432E+01 .84563E+08 .25421E+01 .83839E+00 .24727E+01 .32198E+00 .48247E+01 .50099E+01
 .78198E+01 .48141E+04 .13294E+04 .42871E+00 .11598E-01 .19296E-01 .17303E+00 .26375E+00 .33362E+08 .86206E+00 .13541E+01 .20801E+01 .28592E+01 .41370E+01 .22964E+01
 .17227E+01 .41247E+04 .98743E+03 .43829E+00 .33183E+00 .72557E-01 .45450E-01 .53802E+01 .30883E+08 .20923E+01 .37488E+01 .16047E+01 .45426E+01 .22947E+00 .15549E+01
 .11857E+02 .13198E+06 .39854E+05 .57804E+00 .88988E+00 .14362E+00 .13876E+00 .10296E+01 .15177E+09 .22746E+01 .42138E+01 .22483E+01 .25631E+01 .18214E+01 .58025E+01
 .11153E+02 .38140E+05 .85866E+04 .75769E+00 .73787E-01 .17718E+00 .10307E+00 .40861E+01 .93562E+08 .17047E+01 .38083E+00 .13587E+01 .16532E+01 .62510E+00 .45264E+01
 .25609E+01 .52750E+05 .41939E+05 .99800E+00 .28790E+00 .12762E+00 .14280E+00 .54007E+01 .11936E+09 .20868E+01 .13604E+01 .26857E+01 .22510E+01 .61745E+01 .49108E+01
 .12683E+02 .93470E+05 .10453E+06 .91184E+00 .10235E-01 .89623E-01 .16340E+00 .39525E+00 .17042E+08 .18776E+01 .57979E+01 .13867E+01 .17001E+01 .49147E+00 .46361E+01
 .24728E+01 .34592E+06 .79834E+05 .88745E+00 .99800E+00 .22401E+01 .21789E+01 .40242E+01 .18894E+08 .55734E+00 .55333E+01 .25737E+01 .10646E+01 .71408E+00 .57361E+01
 .43295E+01 .19983E+06 .13635E+06 .99298E+00 .93834E+00 .11311E+01 .18995E+01 .51155E+01 .86463E+07 .13179E+01 .18438E+01 .13176E+01 .33058E+01 .64221E+00 .31467E+01
 .11834E+02 .11430E+06 .26768E+05 .83260E+00 .90759E+00 .23259E+00 .95781E-01 .28450E+01 .13110E+09 .26040E+01 .56373E+01 .57909E+00 .35291E+01 .36399E+01 .10132E+01
 .14820E+02 .19479E+05 .58358E+04 .33402E+00 .66158E+00 .15565E+00 .40495E-01 .25559E+01 .12551E+09 .75891E+00 .31454E+01 .26039E+01 .14468E+01 .19253E+01 .31666E+01
 .62306E+01 .77966E+05 .10420E+05 .45030E+00 .98761E-01 .25041E+00 .11066E+00 .32224E+01 .65650E+08 .11632E+01 .57976E+01 .10253E+01 .59198E+01 .41932E+01 .21787E+01
 .11207E+02 .23393E+06 .97633E+04 .12583E+00 .18100E+00 .85365E-01 .89225E-01 .11744E+01 .30669E+08 .17301E+01 .29387E+01 .18396E+01 .42140E+01 .51651E+01 .42603E+01
 .11043E+02 .15704E+06 .10374E+05 .12901E+00 .18223E+00 .84774E-01 .10508E+00 .11975E+01 .37103E+08 .24330E+01 .16270E+01 .17466E+01 .34186E+01 .23476E+01 .10266E+01
 .53032E+01 .29183E+04 .11343E+04 .80669E+00 .75298E+00 .79594E-01 .13952E+00 .61700E+00 .67905E+08 .22498E+01 .11381E+01 .19332E+01 .83182E+00 .36934E+01 .21567E-01
 .13694E+02 .51235E+06 .55976E+05 .79094E+00 .77795E+00 .19283E+00 .44974E-01 .24635E+01 .37248E+08 .12571E+01 .12506E+01 .81472E+00 .27005E+01 .30122E+01 .22065E+01
 .23920E+01 .48886E+06 .56744E+05 .99800E+00 .93951E+00 .26937E+00 .16673E+00 .29574E+01 .72664E+08 .27290E+01 .21556E+01 .13222E+01 .33217E+01 .18685E+01 .26001E+01
 .88296E+01 .72093E+05 .46959E+05 .86637E+00 .47500E-01 .15157E+00 .17217E+00 .94546E+00 .15681E+09 .16707E+01 .54844E+01 .23423E+01 .18166E+01 .29556E+01 .12673E+01
 .51549E+01 .53321E+05 .23083E+05 .66923E+00 .43910E+00 .15054E+00 .44722E-01 .32118E+01 .51528E+08 .10739E+01 .30702E+00 .23842E+01 .25497E+01 .31373E+01 .59243E+01
 .12081E+02 .94421E+05 .35640E+05 .61426E+00 .26864E+00 .10335E+00 .16375E+00 .68220E+00 .97172E+08 .78997E+00 .10206E+01 .53703E+00 .52443E+01 .58649E+01 .11361E+01
 .88070E+01 .20216E+06 .82212E+05 .34268E+00 .23542E+00 .18902E+00 .97838E-01 .34839E+01 .12937E+09 .70160E+00 .42505E+01 .22355E+00 .20985E+01 .13905E+01 .31534E-01
 .11869E+02 .66405E+06 .10447E+06 .42682E+00 .95272E+00 .25595E+00 .10705E+00 .22768E+01 .12853E+09 .20041E+01 .45308E+01 .12583E+01 .47173E+01 .35751E+01 .54001E+01
 .13740E+02 .30358E+06 .15695E+06 .62229E+00 .65589E+00 .19109E+00 .82183E-01 .33258E+01 .45923E+08 .19236E+01 .19830E+01 .19316E+01 .79244E+00 .55717E+01 .41954E+01
 .80436E+01 .70674E+06 .23159E+06 .69956E-01 .41248E+00 .21301E+00 .11372E+00 .22925E+01 .15271E+09 .15723E+01 .58386E+00 .19103E+01 .36144E+01 .46336E+01 .61843E+01
 .14230E+02 .11095E+06 .16342E+05 .91841E+00 .50095E+00 .26657E+00 .10809E+00 .29681E+01 .76410E+07 .15716E+01 .45007E+01 .18092E+01 .40420E+01 .18748E+01 .74640E+00
 .13348E+02 .48475E+05 .32911E+05 .99919E-01 .52842E+00 .17631E+00 .96102E-01 .42418E+01 .53628E+08 .21469E+01 .55405E+01 .86364E+00 .24366E+01 .56149E+01 .53220E+01
 .10172E+02 .51966E+05 .58235E+05 .34014E+00 .50741E+00 .21124E-01 .15058E+00 .17988E+00 .46113E+08 .11314E+01 .48039E+01 .20327E+01 .17819E+01 .49281E+01 .11889E+01
 .66283E+01 .96850E+04 .16812E+04 .88699E+00 .18966E+00 .21855E+00 .12719E+00 .19869E+01 .31439E+08 .15303E+01 .37850E+01 .84682E+00 .38563E+01 .39420E+01 .58592E+01
 .17695E+02 .61425E+06 .16152E+06 .64791E+00 .27281E+00 .11464E+00 .70973E-01 .22998E+00 .80759E+08 .23757E+01 .21946E+01 .69345E+00 .62801E+01 .55684E+01 .33813E+01
 .98735E+01 .80634E+05 .81456E+05 .33385E+00 .79236E-01 .12456E+00 .71041E-01 .47823E+01 .10241E+09 .92089E+00 .40014E+01 .84359E+00 .64379E+00 .52206E+01 .51442E+01
 .98857E+01 .49277E+06 .45027E+04 .78653E+00 .52472E+00 .91275E-01 .10171E+00 .57700E+01 .11188E+09 .85257E+00 .21851E+01 .11897E+01 .14178E+01 .34243E-01 .85691E+00
 .79254E+01 .28848E+06 .25963E+04 .84246E+00 .99800E+00 .10048E+00 .55517E-01 .47178E+01 .23776E+08 .29485E+01 .83526E+00 .95445E+00 .95467E+00 .43319E+01 .12562E+01
 .17297E+02 .18726E+06 .26892E+05 .94972E+00 .17201E+00 .33083E+00 .18950E+00 .31186E+01 .13920E+09 .21469E+01 .60081E+00 .27245E+01 .29672E+01 .58445E+01 .49803E+01
 .11408E+02 .13708E+06 .11501E+06 .55397E+00 .40678E+00 .15250E+00 .13493E+00 .23218E+01 .88666E+08 .16488E+01 .14385E+01 .68944E+00 .19826E+01 .38523E+01 .35251E+01
 .16171E+02 .39982E+05 .12759E+05 .36362E+00 .25566E+00 .10131E+00 .15726E+00 .21790E+00 .43602E+08 .16754E+01 .52914E+01 .74925E+00 .88820E+00 .28330E+01 .60796E+01
 .12036E+02 .11545E+06 .45385E+05 .53117E-01 .73370E+00 .13336E+00 .32164E-01 .60477E+01 .20233E+08 .16440E+01 .94343E+00 .81520E+00 .13312E+01 .32441E+00 .18997E+01
 .17727E+02 .19760E+06 .47365E+05 .54238E+00 .17935E+00 .15460E+00 .13692E+00 .49557E+01 .13922E+09 .14364E+01 .31826E+00 .18981E+01 .19387E+01 .45794E+01 .37981E+01
 .41840E+01 .68693E+06 .41935E+06 .99800E+00 .83274E+00 .90642E-01 .15745E+00 .57618E+01 .16021E+08 .13751E+01 .26291E+01 .25115E+01 .19764E+01 .38719E+01 .77246E+00
 .18874E+02 .31973E+06 .47046E+04 .19930E+00 .91636E+00 .19638E+00 .10688E+00 .36220E+01 .93368E+08 .14852E+01 .62543E+01 .24032E+00 .42810E+01 .53476E+01 .45722E+01
 .13236E+02 .57005E+06 .12698E+06 .28635E+00 .31898E+00 .87486E-01 .11700E+00 .10428E+01 .13526E+09 .13890E+01 .34239E+01 .19946E+00 .41599E+01 .16375E+01 .48085E+01
 .84886E+01 .35500E+06 .44857E+04 .61691E+00 .99800E+00 .12029E+00 .13638E+00 .47442E+01 .12685E+09 .14562E+01 .59065E+01 .27721E+01 .10428E+01 .52691E+01 .66552E-01
 .41264E+01 .48209E+05 .14760E+05 .81336E+00 .72091E+00 .22650E+00 .12791E+00 .38991E+01 .92724E+08 .22264E+01 .30359E+01 .11059E+01 .44881E+01 .13925E+01 .12111E+01
 .74767E+01 .27243E+05 .44765E+04 .78952E+00 .32196E+00 .15360E+00 .17979E+00 .11598E+01 .15494E+09 .20504E+01 .18816E+01 .89323E+00 .32197E+01 .21261E+01 .62811E+01
 .89963E+01 .43731E+05 .34320E+05 .51479E+00 .51478E+00 .10545E+00 .66507E-01 .85275E+00 .61186E+08 .15450E+01 .42316E+01 .17510E+01 .13942E+01 .60831E+01 .64237E+00
 .55916E+01 .73785E+05 .62263E+05 .61126E+00 .31049E+00 .24868E+00 .15259E+00 .31054E+01 .76311E+08 .20372E+01 .60958E+01 .19075E+01 .14212E+00 .27606E+01 .38422E+01
 .10376E+02 .90382E+06 .49001E+05 .42922E-01 .18748E+00 .97199E-01 .86081E-01 .62332E+00 .45753E+08 .17406E+01 .39784E+01 .21149E+01 .27122E+01 .51901E+01 .17409E+01
 .25227E+01 .20688E+05 .23480E+05 .56103E+00 .12845E+00 .19837E+01 .32670E+00 .28578E+01 .43141E+07 .14823E+01 .30358E+01 .14128E+01 .49497E+01 .23472E+01 .52648E+01
 .74569E+01 .13700E+06 .31962E+05 .75865E+00 .24408E+00 .22337E+00 .71405E-01 .34089E+01 .13986E+09 .14113E+01 .56792E+01 .24452E+01 .18593E+01 .35725E+01 .31430E+01
 .84301E+01 .35712E+06 .12982E+06 .95780E+00 .20109E+00 .14184E+00 .12151E+00 .95769E+00 .20819E+08 .24104E+01 .50084E+01 .97671E+00 .46955E+01 .37328E+01 .21523E+01
 .45084E+01 .30030E+06 .12446E+05 .65939E+00 .69839E+00 .19431E+00 .12546E+00 .25393E+01 .12276E+09 .12170E+01 .10229E+01 .14939E+01 .43360E+01 .41240E+00 .48906E+01
 .83590E+01 .13746E+06 .82979E+05 .40909E-01 .17445E-01 .84489E-01 .96829E-01 .57555E+01 .14062E+09 .21334E+01 .20372E+01 .10536E+01 .14809E+01 .31310E+01 .38800E+01
 .51566E+01 .47212E+05 .13951E+04 .31066E+00 .69419E+00 .19723E+00 .12047E+00 .24079E+01 .14382E+09 .19070E+01 .42398E+01 .16606E+01 .38169E+01 .42096E+01 .42007E+00
 .92733E+01 .74307E+04 .45909E+04 .46822E-01 .94450E+00 .22418E+00 .13953E+00 .16814E+01 .14640E+08 .14558E+01 .62744E+00 .18485E+01 .36612E+01 .54807E+01 .46125E+01
 .95695E+01 .96421E+05 .10972E+05 .68206E+00 .79017E+00 .66927E-01 .16885E+00 .62314E+01 .98664E+08 .14000E+01 .36430E+01 .10140E+01 .33147E+00 .36635E+01 .90810E+00
 .28218E+01 .76634E+05 .95817E+04 .39000E+00 .13767E-01 .60750E-01 .85240E-01 .58952E+01 .81931E+08 .18135E+01 .41579E+01 .10058E+01 .19087E+01 .56529E+01 .26409E+01
 .18000E+01 .64492E+04 .55976E+04 .91512E+00 .99800E+00 .95531E-01 .67633E-01 .84140E+00 .63672E+08 .20815E+01 .10305E+01 .22458E+01 .92691E+00 .62809E+01 .20039E+01
 .66752E+01 .31222E+06 .75415E+05 .53338E+00 .77505E+00 .18956E+00 .18536E+00 .38196E+01 .32251E+08 .50876E+00 .21367E+01 .48024E+00 .18632E+01 .62709E+01 .41015E+01
 .67772E+01 .39120E+06 .10197E+06 .53200E+00 .77987E+00 .17279E+00 .17870E+00 .38112E+01 .81872E+08 .10469E+01 .55650E+01 .22957E+01 .13118E+01 .56237E+01 .59990E+01
 .73798E+01 .76051E+05 .25091E+05 .99238E-01 .47358E+00 .61047E-01 .18402E+00 .59899E+01 .48531E+08 .14550E+01 .46451E+01 .95783E+00 .24450E+01 .50612E+00 .18387E-02
 .57141E+01 .16126E+06 .29816E+05 .76204E+00 .99800E+00 .97133E-01 .68301E-01 .58780E+01 .14641E+09 .82228E+00 .53511E+01 .58946E+00 .20173E+01 .57858E+01 .29459E+01
 .37229E+01 .51743E+06 .15099E+05 .52806E+00 .52529E-01 .46649E-01 .16847E+00 .60464E+01 .11219E+09 .21551E+01 .58186E+01 .96452E+00 .34610E+01 .36427E+01 .32640E+01
 .91820E+01 .15974E+06 .52970E+04 .63507E-01 .12330E+00 .17039E+00 .15509E+00 .50956E+01 .14517E+09 .35568E+00 .13631E+01 .20717E+01 .65723E+00 .13340E+01 .45453E+01
 .49621E+01 .30279E+05 .19418E+05 .57806E+00 .28846E+00 .17019E+00 .20617E-01 .35377E+01 .44473E+07 .26146E+01 .26884E+01 .71980E+00 .55417E+01 .22469E+01 .28750E+01
 .66244E+01 .23221E+06 .11188E+06 .29368E+00 .89133E+00 .11741E+00 .11621E+00 .47875E+01 .16840E+06 .17713E+01 .23288E+01 .26533E+01 .29465E+01 .76418E+00 .50783E+01
 .38405E+01 .14516E+07 .24446E+05 .97807E+00 .99800E+00 .13853E+00 .11266E+00 .24027E+01 .93986E+08 .15085E+01 .34195E+00 .19894E+01 .47306E+01 .43499E+01 .29200E+01
 .15141E+02 .81163E+05 .33938E+04 .93292E+00 .14988E+00 .11663E+00 .11579E+00 .11271E+01 .97996E+08 .18734E+01 .37029E+01 .72231E+00 .28223E+01 .46844E+01 .36021E+01
 .11146E+02 .13629E+05 .19823E+05 .68898E+00 .25059E+00 .72304E-01 .10196E+00 .69390E+00 .67536E+08 .25317E+01 .49840E+01 .84175E+00 .88123E+00 .34562E+00 .57162E+01
 .53980E+01 .27051E+05 .27436E+05 .25688E+00 .99520E+00 .63071E-01 .16624E+00 .57449E+01 .11603E+09 .94850E+00 .56004E+00 .98968E+00 .51718E+01 .36171E+01 .56195E+01
 .17703E+01 .28992E+06 .58730E+05 .11724E-01 .56580E+00 .72963E-01 .79082E-01 .50491E+01 .10104E+09 .21857E+01 .61363E+01 .15617E+01 .31963E+01 .47286E+01 .44377E+01
 .11978E+02 .25781E+06 .88399E+05 .34997E+00 .38187E+00 .42465E-01 .44575E-01 .69726E+00 .59964E+08 .49668E+00 .61135E+01 .13757E+01 .38146E+01 .32209E+01 .43677E+01
 .12455E+02 .49097E+05 .16984E+05 .72398E+00 .80426E+00 .10701E+00 .12136E+00 .38852E+01 .13297E+08 .25573E+01 .24938E+01 .34440E+00 .29176E+01 .55338E+01 .57156E+01
 .11585E+02 .60186E+05 .83361E+04 .44139E+00 .55212E+00 .18876E+00 .65853E-01 .40057E+01 .14447E+09 .52931E+00 .17619E+01 .15910E+01 .24717E+01 .57422E+01 .47824E+00
 .86362E+01 .27058E+06 .99235E+05 .90385E+00 .50684E+00 .52861E-01 .97543E-01 .30575E+00 .70491E+08 .79229E+00 .11475E+01 .27180E+01 .39478E+01 .41519E+00 .42492E+01
 .54773E+01 .29083E+05 .22996E+05 .46982E+00 .92908E+00 .11460E+00 .16415E+00 .10414E+01 .92225E+08 .13490E+01 .30386E+01 .25150E+01 .59372E+01 .35202E+00 .45759E+01
 .10966E+02 .26004E+05 .21194E+04 .73332E+00 .99152E+00 .10315E+00 .99802E-01 .61402E+01 .11918E+07 .15721E+01 .60444E+01 .10981E+01 .14311E+01 .39156E+00 .37221E+01
 .11162E+02 .37223E+05 .45473E+04 .72138E+00 .23161E+00 .15918E+00 .33351E-01 .34675E+01 .44003E+07 .61074E+00 .49473E+01 .18085E+01 .20823E+01 .13823E+01 .21090E+01
 .11041E+02 .29876E+06 .16636E+06 .97747E+00 .50627E+00 .19141E+00 .12690E+00 .29302E+01 .88091E+08 .12988E+01 .11972E+01 .76724E+00 .23448E+01 .58739E+01 .50915E+01
 .13359E+02 .27679E+06 .16489E+06 .66329E+00 .73151E+00 .43742E-01 .13980E+00 .29658E+00 .75080E+08 .14080E+01 .48020E+01 .64625E+00 .31257E+01 .26075E+01 .13949E+01
 .41826E+01 .49493E+06 .26607E+06 .28133E+00 .19798E+00 .87415E-01 .73115E-01 .56718E+01 .15174E+09 .16089E+00 .62041E+01 .17957E+01 .58001E+01 .91934E+00 .50641E+01
 .73310E+01 .44867E+06 .40328E+05 .77316E+00 .49636E+00 .16531E+00 .15127E+00 .18052E+01 .12146E+09 .14228E+01 .70391E-01 .18585E+01 .35690E+01 .32043E+01 .59557E+01
 .13999E+02 .33484E+06 .14910E+06 .82113E+00 .63915E+00 .21603E+00 .13053E+00 .19907E+01 .95967E+08 .12317E+01 .36681E+01 .17965E+01 .53069E-01 .50928E+01 .63814E+00
 .96101E+01 .27019E+06 .81894E+05 .77692E+00 .26831E+00 .27838E+00 .16652E+00 .37823E+01 .13217E+09 .13105E+01 .55617E+01 .16680E+01 .10577E+01 .99262E+00 .41054E+01
 .14115E+02 .14545E+06 .42995E+05 .78193E-01 .56200E+00 .13356E+00 .13919E+00 .50924E+01 .71384E+08 .79848E+00 .28845E+01 .24142E+01 .57091E+01 .34189E+01 .21938E+01
 .10580E+02 .10861E+06 .10673E+04 .73025E+00 .51771E+00 .31828E+00 .14509E+00 .35236E+01 .98396E+08 .18973E+01 .34289E+01 .66523E+00 .16879E+01 .57027E+01 .62717E+01
 .93274E+01 .11886E+06 .12018E+06 .20147E+00 .67346E-01 .88575E-01 .10418E+00 .67426E+00 .26488E+07 .19287E+01 .47198E+01 .18258E+01 .37960E+01 .26357E+01 .27657E+01
 .59449E+01 .77691E+04 .98115E+04 .10243E-01 .89852E+00 .36139E-01 .46955E-01 .51818E+01 .11923E+09 .15460E+01 .78378E+00 .11263E+01 .34779E+01 .27414E+01 .37703E+01
 .50776E+01 .36030E+05 .29682E+05 .78578E+00 .27689E+00 .21656E+00 .51703E-01 .25105E+01 .19021E+08 .27304E+01 .56235E+01 .18201E+01 .37476E+01 .44833E+01 .55365E+01
 .13166E+01 .14589E+06 .11358E+06 .69668E+00 .62693E+00 .19964E+00 .14558E+00 .38318E+01 .28930E+07 .22190E+01 .30955E+01 .22488E+01 .41721E+01 .66950E+00 .22660E+01
 .72240E+01 .53158E+06 .30977E+05 .93322E+00 .50033E+00 .22593E+00 .86177E-01 .32221E+01 .17014E+07 .42509E+00 .57306E+01 .59885E+00 .12027E+01 .31211E+01 .41342E+01
 .11337E+02 .28633E+05 .16131E+04 .89039E+00 .21218E+00 .23428E+00 .14169E+00 .33953E+01 .72866E+08 .26955E+01 .32144E+01 .25546E+01 .20335E+01 .32432E+01 .35535E+01
 .12084E+02 .12314E+06 .45621E+05 .45643E+00 .76035E+00 .24214E+00 .17794E+00 .40173E+01 .12394E+09 .10783E+01 .48450E+01 .22619E+01 .19053E+01 .43521E+01 .47896E+01
 .56081E+01 .59109E+05 .10282E+05 .59290E+00 .36490E+00 .21429E+00 .16491E+00 .32642E+01 .15707E+09 .10699E+01 .13355E+01 .38768E+00 .15787E+01 .19966E+01 .21733E+01
 .39877E+01 .15808E+05 .48710E+04 .25373E+00 .11427E+00 .86115E-01 .18662E+00 .45087E+00 .54584E+08 .77012E+00 .50385E+00 .17805E+01 .52812E+01 .29947E+01 .46339E+01
 .87221E+01 .10066E+05 .13785E+04 .39883E+00 .77428E+00 .77972E-01 .10546E+00 .73378E+00 .72568E+08 .63198E+00 .45004E+01 .40897E+00 .50849E+01 .27663E+01 .44575E+01
 .75071E+01 .71897E+05 .34501E+05 .51216E+00 .99338E+00 .14072E+00 .52823E-01 .98748E+00 .14048E+09 .54542E+00 .39878E+01 .15074E+01 .33178E+01 .49335E+01 .10349E+01
 .64376E+01 .14050E+06 .30412E+05 .74186E+00 .44121E+00 .13494E+00 .98230E-01 .44214E+01 .94493E+08 .18882E+01 .59119E-01 .99846E+00 .51742E+01 .24982E+01 .62201E+01
 .37963E+01 .49109E+05 .44456E+05 .36527E-01 .13648E+00 .27839E+00 .16580E+00 .36434E+01 .99104E+08 .19594E+01 .46883E+00 .10451E+01 .48104E+01 .34607E+01 .59418E+01
 .86105E+01 .20628E+05 .13822E+04 .44104E+00 .55425E+00 .15627E-01 .79538E-01 .60325E+01 .12087E+09 .15773E+01 .21521E+01 .52167E+00 .42107E+00 .23591E+01 .62568E+01
 .36672E+01 .60278E+05 .22460E+05 .68776E+00 .95860E+00 .12827E+00 .57105E-01 .55095E+00 .49112E+08 .23388E+01 .38511E+01 .16765E+01 .62788E+01 .47927E+01 .23346E+01
 .11385E+02 .28823E+06 .14306E+06 .20946E+00 .98610E+00 .28512E+00 .15718E+00 .41249E+01 .43825E+08 .14664E+01 .11019E+01 .25912E+01 .33229E+01 .46272E+01 .54644E+01
 .30324E+01 .56253E+05 .49753E+04 .42320E-01 .53040E+00 .15631E+00 .11703E+00 .49771E+01 .61924E+08 .13996E+01 .31383E+01 .26307E+01 .61201E+00 .83002E+00 .61776E+01
 .16331E+01 .50639E+06 .10202E+05 .72559E+00 .98295E+00 .20412E+01 .18276E+01 .39640E+01 .37288E+08 .80728E+00 .16823E+01 .17106E+01 .44651E+00 .19319E+01 .32811E+01
 .13310E+02 .47222E+05 .18194E+05 .96570E+00 .12722E+00 .18500E+00 .71097E-01 .21466E+01 .33810E+08 .11477E+01 .15253E+01 .22274E+01 .23113E+00 .64999E+00 .60843E+01
 .94641E+01 .17085E+06 .10550E+06 .54370E+00 .92821E+00 .93461E-01 .62577E-01 .22536E-01 .42073E+08 .19176E+01 .44073E+01 .20714E+01 .52900E+01 .56078E+01 .58850E+00
 .15537E+02 .91754E+05 .11721E+05 .98537E+00 .63885E+00 .12963E+00 .13741E+00 .94115E+00 .70808E+08 .28863E+00 .29015E+01 .19468E+01 .15856E+01 .26380E+01 .40341E+01
 .17757E+02 .95843E+05 .13814E+05 .78554E+00 .41661E+00 .11623E+00 .68849E-01 .15158E+01 .13357E+09 .12003E+01 .30983E+01 .19274E+01 .45267E+01 .29823E+01 .52153E+01
 .31809E+01 .12035E+06 .10116E+05 .99800E+00 .27515E+00 .21430E+00 .76635E-01 .25295E+01 .52396E+08 .11317E+01 .58309E+01 .15163E+01 .25744E+01 .33561E+01 .12979E+01
 .74153E+01 .69490E+05 .68574E+04 .54951E+00 .46209E+00 .10463E+00 .16085E+00 .75268E+00 .13429E+09 .11742E+01 .38465E+01 .93710E+00 .40574E+01 .17705E+01 .48899E+01
 .21973E+01 .24557E+06 .13418E+04 .62158E-01 .99109E+00 .16274E+00 .85336E-01 .44592E+01 .12477E+09 .12461E+01 .12728E+01 .17123E+01 .35133E+01 .50171E+01 .19536E+01
 .46217E+01 .64087E+04 .58143E+04 .17964E+00 .91549E+00 .16791E+00 .46383E-01 .15192E+01 .11719E+09 .20815E+01 .20809E+01 .12757E+01 .19265E+01 .14801E+01 .39098E+01
 .11214E+02 .14853E+06 .38115E+05 .68745E+00 .38188E+00 .93232E-01 .12209E+00 .64929E+00 .12239E+09 .93150E+00 .23636E+01 .26032E+01 .45936E+01 .34517E+01 .29304E+01
 .61066E+01 .37540E+05 .82549E+04 .46953E+00 .57640E+00 .13766E+00 .57200E-01 .23009E+01 .14600E+09 .19180E+01 .26757E+01 .15825E+01 .43854E+01 .47760E+01 .16365E+01
 .93945E+01 .12339E+06 .20368E+05 .44356E+00 .22743E+00 .15956E+00 .99342E-01 .22030E+01 .11914E+09 .26021E+01 .62805E+01 .12047E+01 .54173E+01 .35928E+01 .32958E+01
 .53030E+01 .27241E+06 .17351E+06 .77294E+00 .32896E+00 .28841E+00 .11586E+00 .36471E+01 .19829E+08 .16356E+01 .54521E+01 .70151E+00 .91497E+00 .24350E+01 .39312E+01
 .16548E+02 .38983E+05 .10912E+05 .87281E+00 .38723E+00 .15908E+00 .63332E-01 .16907E+01 .89914E+08 .76795E+00 .34007E+01 .22056E+01 .19667E+01 .49999E+01 .23664E+01
 .84360E+01 .94840E+05 .19169E+05 .14361E+00 .12288E+00 .22800E+00 .45347E-01 .24786E+01 .14814E+08 .28459E+01 .30763E+01 .19626E+01 .14758E+01 .50869E+01 .28842E+01
 .10485E+02 .42141E+06 .52956E+05 .78757E+00 .88744E+00 .10166E+00 .15271E+00 .55346E+01 .40040E+08 .16632E+01 .14742E+01 .23608E+01 .25994E+01 .12793E+01 .97268E+00
 .10873E+02 .19297E+06 .13802E+06 .34793E+00 .61690E+00 .25709E-01 .83147E-01 .12008E+00 .24353E+08 .24639E+01 .40612E+01 .55563E+00 .53897E+01 .15865E+01 .50136E+01
 .85025E+01 .34119E+05 .76219E+04 .14625E+00 .65325E+00 .13034E+00 .14506E+00 .89871E+00 .13932E+09 .62583E+00 .42392E+01 .96674E+00 .46510E+01 .49646E+01 .53795E+01
 .17372E+02 .11058E+06 .35841E+05 .54716E+00 .53051E+00 .12263E+00 .77957E-01 .55379E+01 .37124E+08 .73446E-01 .27214E+01 .43061E+00 .45250E+00 .13485E+01 .44570E+00
 .11047E+02 .63670E+05 .36856E+05 .43893E+00 .17682E-01 .40331E-01 .18558E-01 .39507E+01 .12021E+09 .12469E+01 .24322E-01 .54242E+00 .13168E+01 .19671E+01 .29832E+01
 .10558E+02 .17807E+06 .69514E+05 .46888E-01 .85183E+00 .22422E+00 .14136E+00 .47183E+01 .48662E+08 .95242E+00 .18438E+01 .25003E+01 .11285E+01 .45015E+01 .46207E+01
 .12675E+02 .61873E+05 .25597E+04 .47459E+00 .90309E+00 .22574E+00 .97236E-01 .27980E+01 .11385E+09 .22372E+01 .42852E+01 .13386E+01 .35915E+01 .13299E+01 .17434E+01
 .14212E+02 .46208E+06 .14748E+05 .37013E+00 .93090E+00 .26143E+00 .13110E+00 .25252E+01 .93284E+08 .14228E+01 .26460E+01 .18922E+01 .42896E+01 .38037E+01 .39827E+01
 .83628E+01 .69033E+05 .10976E+05 .76286E+00 .66377E+00 .16917E+00 .10716E+00 .30533E+01 .94936E+08 .19586E+01 .16108E+00 .28788E+01 .37785E+01 .23895E+01 .26319E+01
 .65511E+01 .62453E+05 .28028E+05 .52462E+00 .96205E+00 .19520E+00 .16015E+00 .49784E+01 .70380E+07 .74810E+00 .45046E+01 .67738E+00 .21680E+01 .29934E+01 .47425E+01
 .16717E+01 .65438E+06 .10496E+06 .98269E+00 .82456E-01 .30218E+01 .28964E+01 .30821E+01 .95804E+08 .22681E+01 .44890E+01 .11772E+01 .46507E+01 .26673E+01 .53412E+01
 .12183E+02 .29878E+06 .17497E+06 .13935E+00 .25711E+00 .30144E+00 .15915E+00 .27075E+01 .30005E+08 .16094E+01 .10912E+01 .21636E+01 .46996E+01 .27517E+01 .16148E+01
 .13978E+02 .14426E+06 .79907E+04 .16483E+00 .41233E-01 .16198E+00 .11570E+00 .10562E+01 .13761E+09 .26371E+01 .29950E+01 .15221E+01 .18501E+01 .18544E+01 .16747E+01
 .13425E+02 .35403E+06 .61877E+05 .12854E+00 .90936E+00 .20547E+00 .40733E-01 .30150E+01 .13050E+09 .26474E+01 .31040E+01 .13875E+01 .49598E+01 .44974E+01 .50846E+00
 .88306E+01 .68228E+05 .14287E+05 .10013E+00 .32448E+00 .14556E+00 .17406E+00 .33841E+00 .13817E+08 .21382E+01 .43188E+01 .16986E+01 .21744E+01 .31779E+01 .21742E+01
 .12277E+02 .55772E+05 .36362E+05 .27973E+00 .90094E+00 .26643E+00 .13279E+00 .22560E+01 .64356E+08 .10191E+01 .10048E+01 .52618E+00 .42059E+01 .32747E+01 .57103E+01
 .11700E+02 .20416E+06 .55133E+05 .12050E+00 .41553E+00 .22610E+00 .11069E+00 .36501E+01 .50334E+07 .38228E+00 .31562E+01 .17824E+01 .16881E+01 .10863E+01 .51956E+01
 .62595E+01 .15312E+06 .10124E+06 .18790E+00 .87082E+00 .74391E-01 .13838E+00 .50216E+00 .25342E+08 .21831E+01 .36435E+01 .11382E+01 .57999E+01 .56070E+01 .20459E+01
 .32837E+01 .25629E+05 .12512E+05 .99800E+00 .98108E+00 .26425E+00 .12350E+00 .28615E+01 .40567E+08 .22803E+01 .30077E+01 .24414E+01 .47479E+01 .13116E+01 .17119E+01
 .12362E+02 .59497E+05 .40264E+05 .64126E+00 .59721E+00 .29282E+00 .15562E+00 .36537E+01 .98859E+08 .25212E+01 .60857E+00 .86773E+00 .61088E+01 .30255E+00 .62259E+01
