 .66684E-01 .35339E+05 .42960E+04 .82593E+00 .20443E+00 .80367E+00 .26139E+01 .21841E+01 .44672E+07 .28728E+01 .43508E+00 .21832E+01 .53568E+01 .30293E+01 .34816E+01
 .51043E+01 .68895E+05 .48857E+05 .38177E-01 .18060E+00 .82056E-01 .37538E-01 .32919E+01 .72827E+08 .20112E+01 .47033E+01 .11391E+01 .44744E+01 .85478E+00 .18702E+01
 .24948E+01 .21883E+05 .82564E+04 .59101E+00 .12721E+00 .11625E+00 .12473E+00 .92156E+00 .10737E+09 .15609E+01 .26972E+01 .14699E+01 .27951E+01 .15690E+01 .25462E+01
 .14856E+02 .10470E+06 .50406E+04 .10096E+00 .88870E+00 .25740E+00 .14380E+00 .33019E+01 .13379E+09 .47903E+00 .15559E+01 .10230E+01 .34560E+01 .44879E+01 .57211E+01
 .65451E+01 .94487E+05 .22509E+05 .76236E+00 .22009E+00 .48185E-01 .16142E+00 .59787E+01 .14757E+09 .19919E+01 .45998E+00 .54162E+00 .52803E+01 .32201E+01 .61112E+01
 .25844E+01 .38820E+06 .78125E+04 .99800E+00 .18255E+00 .86370E+00 .10669E+01 .57585E+01 .76438E+08 .14966E+01 .49782E+01 .61504E+00 .16857E+01 .60614E+01 .31893E+01
 .13041E+02 .23182E+05 .17745E+05 .53882E+00 .25621E+00 .14334E+00 .51002E-01 .40392E+01 .43914E+08 .94288E+00 .34439E+01 .24063E+01 .29169E+01 .54065E+00 .19704E+01
 .12986E+02 .32003E+05 .14547E+05 .53940E+00 .25329E+00 .15126E+00 .41967E-01 .40454E+01 .11365E+09 .68809E+00 .58243E+01 .52333E+00 .54280E+01 .10252E+01 .44591E+00
 .25928E+01 .69901E+05 .94686E+04 .99800E+00 .53922E+00 .86345E-01 .60644E-01 .53380E+01 .49040E+08 .22574E+01 .57275E+01 .24613E+01 .70711E+00 .55884E+00 .33239E+01
 .57226E+01 .36663E+06 .11086E+06 .89611E+00 .99800E+00 .29908E+00 .16293E+00 .40684E+01 .29173E+07 .77512E+00 .16008E+01 .11436E+01 .44033E+01 .20240E+01 .48908E+01
 .13360E+02 .23293E+06 .56118E+04 .31445E+00 .78840E+00 .29955E+00 .15586E+00 .37247E+01 .95560E+08 .23423E+01 .57105E+00 .28507E+01 .53295E+01 .42665E+01 .57313E+01
 .13608E+02 .36899E+06 .22437E+06 .42532E+00 .11306E-01 .32831E-01 .91181E-01 .61898E+01 .12395E+09 .13126E+01 .56163E+01 .10626E+01 .17171E+01 .58777E+01 .42569E+01
 .75524E+01 .39948E+05 .24782E+04 .67616E+00 .51977E+00 .95734E-01 .86455E-01 .56034E+01 .11322E+09 .13696E+01 .58117E+01 .18725E+01 .35413E+01 .45380E+01 .59327E+01
 .56318E+01 .11723E+06 .40299E+05 .15151E+00 .81024E+00 .33100E+00 .15732E+00 .30040E+01 .10356E+09 .16954E+01 .52302E+00 .26277E+01 .60931E+01 .28321E+01 .32771E+01
 .35581E+01 .68875E+05 .75149E+05 .99342E+00 .78368E+00 .82687E-01 .40478E-01 .23608E+01 .94501E+08 .18350E+01 .11500E+01 .63031E+00 .58782E+01 .18912E+01 .45148E+00
 .14956E+02 .10141E+06 .27753E+05 .65869E+00 .37917E+00 .10759E+00 .53011E-01 .52837E+01 .68451E+08 .25732E+00 .13339E+01 .99814E+00 .60544E+01 .69907E+00 .76972E-01
 .10845E+01 .43773E+06 .20988E+06 .10301E+00 .18724E+00 .24695E+00 .15338E+00 .46397E+01 .29197E+08 .16898E+01 .66452E+00 .97312E+00 .16444E+01 .27068E+01 .48084E+01
 .35914E+01 .46266E+05 .32675E+05 .22970E+00 .26349E+00 .19513E+00 .15834E+00 .46427E+01 .35742E+08 .17577E+01 .19210E+00 .18050E+01 .15469E+01 .69033E+00 .47613E+00
 .18837E+01 .34057E+06 .18545E+04 .79993E+00 .14475E+00 .12154E+00 .13268E+00 .49757E+01 .39311E+08 .14440E+01 .41768E+01 .11379E+01 .35617E+01 .48725E+01 .10396E+01
 .48354E+01 .57543E+05 .11974E+05 .40090E+00 .97903E+00 .10701E+00 .12558E+00 .75663E+00 .46199E+07 .12646E+01 .86829E+00 .19280E+01 .14264E+01 .30746E+01 .12870E+01
 .32112E+01 .22664E+05 .21969E+05 .99184E+00 .43035E+00 .16353E+01 .74545E+00 .23037E+01 .96374E+08 .12142E+01 .44337E+01 .78800E+00 .21893E+01 .51397E+01 .20285E+01
 .11266E+02 .12221E+05 .24591E+04 .48409E+00 .78235E+00 .20408E+00 .86673E-01 .40907E+01 .57269E+08 .98564E+00 .14598E+01 .46198E+00 .42390E+00 .51098E+01 .61771E+01
 .10502E+02 .86581E+05 .22024E+05 .88499E+00 .40561E+00 .13448E+00 .14037E+00 .49792E+01 .10764E+08 .14990E+01 .87781E+00 .95447E+00 .22341E+00 .16163E+01 .47077E+01
 .10340E+02 .21202E+05 .18949E+05 .52663E-01 .62540E+00 .42966E-01 .10610E+00 .10707E+00 .27304E+08 .70964E+00 .45234E+01 .10804E+01 .52533E+01 .19441E+01 .29201E+01
 .84570E+01 .23818E+05 .95219E+04 .98092E+00 .90460E+00 .67276E-01 .99581E-01 .62282E+01 .75226E+08 .17967E+01 .71651E-01 .20954E+01 .40732E+01 .26806E+01 .20394E+01
 .82834E+01 .19878E+05 .66443E+04 .98044E+00 .90218E+00 .80861E-01 .89417E-01 .62218E+01 .45918E+08 .19839E+01 .25460E+01 .73152E+00 .28659E+01 .42312E+01 .52773E+01
 .13740E+02 .12729E+06 .16067E+05 .34371E+00 .30358E+00 .26590E+00 .16535E+00 .34498E+01 .61644E+07 .11114E+01 .60064E+01 .26194E+01 .46372E+01 .55952E+01 .14335E+01
 .46295E+01 .11649E+06 .20420E+05 .18505E+00 .69435E-01 .16965E+00 .15779E+00 .10599E+01 .98877E+08 .55875E+00 .33277E+00 .23264E+01 .26596E+01 .55401E+01 .34758E+01
 .76746E+01 .17935E+06 .53899E+05 .82432E+00 .65960E+00 .38005E-01 .10411E+00 .43468E+00 .98335E+08 .55548E+00 .13908E+01 .12619E+01 .23623E+01 .23462E+01 .16505E+01
 .81530E+01 .15244E+05 .16811E+04 .88487E+00 .96993E+00 .21669E+00 .73598E-01 .37914E+01 .56091E+07 .20947E+01 .37526E+01 .16701E+01 .60624E+01 .14623E+01 .19347E+01
 .12163E+02 .13105E+06 .28580E+04 .90775E+00 .10404E+00 .10411E+00 .13626E+00 .85762E+00 .66842E+08 .16049E+01 .27432E+01 .19978E+01 .27457E+00 .17547E+01 .36273E+00
 .15709E+02 .50671E+06 .92347E+04 .93667E+00 .27886E+00 .17415E+00 .13918E+00 .17393E+01 .13830E+09 .19771E+01 .12602E+01 .81975E+00 .45020E+01 .13253E+01 .21594E+01
 .76960E+01 .42248E+06 .19135E+05 .94267E+00 .79254E-02 .21305E+00 .12857E+00 .24716E+01 .17876E+08 .22430E+01 .35106E+01 .20829E+01 .10904E+01 .56707E+00 .18648E+01
 .29917E+01 .47349E+06 .17918E+05 .79032E+00 .46086E+00 .21744E+00 .12712E+00 .16789E+01 .14800E+09 .22549E+01 .20453E+01 .16956E+01 .11782E+01 .25352E+01 .60094E+01
 .17746E+02 .21970E+06 .98124E+04 .33594E+00 .50029E+00 .39335E-01 .11678E+00 .30686E+00 .10015E+09 .21751E+01 .46888E+01 .20785E+01 .24933E+01 .20830E+01 .44887E+01
 .70551E+01 .30802E+05 .10426E+05 .13335E+00 .92682E+00 .21289E+00 .16872E+00 .18706E+01 .85828E+08 .22732E+01 .35756E+01 .11047E+01 .87394E+00 .63121E+00 .27846E+01
 .11188E+02 .12593E+06 .11209E+05 .85358E+00 .75274E+00 .28249E+00 .13727E+00 .28708E+01 .26140E+08 .25799E+01 .51430E+01 .37366E+00 .76487E+00 .55829E+01 .47380E+01
 .54267E+01 .11344E+06 .13000E+05 .80815E-01 .61429E+00 .26757E+00 .11456E+00 .22406E+01 .93687E+08 .66613E+00 .79180E+00 .21458E+01 .87929E+00 .49671E+01 .60176E+01
 .18659E+02 .13104E+06 .47443E+04 .16869E+00 .60715E-01 .23014E+00 .12393E+00 .21701E+01 .92684E+08 .18067E+01 .44921E+01 .13755E+01 .57359E+01 .29865E+01 .33386E+01
 .64029E+01 .71668E+05 .25268E+04 .66356E+00 .97200E+00 .28804E+00 .16460E+00 .26391E+01 .47927E+08 .23838E+01 .53310E+01 .15703E+01 .56928E+01 .48667E+01 .24797E+01
 .66466E+01 .17870E+06 .62501E+05 .36242E+00 .19820E+00 .15539E+00 .16055E+00 .51456E+01 .69387E+08 .25312E+01 .61625E+01 .19459E+01 .57670E+01 .47870E+01 .10715E+01
 .42404E+01 .18407E+05 .30510E+04 .95685E-01 .18333E+00 .16291E+00 .17402E+00 .10825E+01 .11561E+09 .44232E+00 .64538E+00 .48047E+00 .24707E+01 .59337E+01 .45143E+01
 .10939E+02 .25497E+06 .81016E+05 .75299E-01 .75420E+00 .19151E+00 .14975E+00 .17078E+01 .75230E+08 .17641E+01 .24305E+01 .13636E+01 .59877E+01 .13887E+01 .29316E+01
 .75111E+01 .14486E+05 .39590E+04 .70711E+00 .69883E+00 .84828E-01 .27512E-01 .81127E+00 .14642E+09 .23909E+01 .14295E+01 .27737E+01 .27978E+01 .37086E+01 .47112E+01
 .63247E+01 .55164E+06 .59727E+04 .83827E-01 .41644E+00 .28323E+00 .14878E+00 .40433E+01 .93166E+08 .14808E+01 .47944E+00 .21300E+01 .31592E+01 .14250E+01 .19243E+01
 .43394E+01 .65115E+06 .34597E+06 .14917E+00 .36474E+00 .18770E+00 .14514E+00 .12877E+01 .82684E+08 .28327E+01 .29049E+01 .18720E+01 .12441E+01 .26458E+01 .58719E+01
 .10977E+02 .65511E+05 .40940E+05 .91990E+00 .90960E+00 .11957E+00 .85348E-01 .16193E+01 .59587E+08 .71430E+00 .31991E+00 .19924E+01 .54838E+01 .59924E+01 .30091E+01
 .20512E+01 .43441E+06 .16710E+06 .52165E+00 .99800E+00 .10817E+00 .91875E-01 .25605E+01 .30393E+08 .24191E+01 .26295E+01 .95971E+00 .59963E+01 .32410E+01 .25360E+01
 .45232E+01 .46308E+06 .94689E+04 .65946E+00 .62120E+00 .15722E-01 .10137E+00 .82251E-01 .91274E+08 .16285E+01 .60029E+01 .17625E+01 .59029E+01 .22289E+01 .31681E+01
 .15326E+02 .26543E+06 .45316E+04 .37811E+00 .94640E+00 .25939E+00 .10488E+00 .33542E+01 .11894E+09 .17712E+00 .56278E+01 .10672E+01 .43451E+01 .56313E+01 .49679E+00
 .85941E+01 .13354E+06 .85859E+05 .90090E-01 .38762E+00 .19298E+00 .14696E+00 .16983E+01 .73326E+07 .70439E+00 .41429E+01 .31193E+00 .58323E+01 .28744E+01 .35010E+01
 .51335E+01 .67624E+06 .51701E+06 .53592E+00 .89592E+00 .16059E+00 .10697E+00 .49463E+01 .82490E+08 .17992E+01 .49668E+01 .14305E+01 .27785E+01 .52078E+01 .43615E+01
 .86791E+01 .21432E+06 .53667E+05 .34218E+00 .52335E+00 .25986E+00 .14078E+00 .29575E+01 .58591E+08 .27629E+01 .46412E+01 .17202E+01 .14187E+01 .35166E+01 .27770E+00
 .59105E+01 .37468E+05 .40539E+05 .82208E+00 .98328E+00 .16927E+00 .13663E+00 .50050E+01 .99072E+08 .28396E+01 .46952E+01 .62492E+00 .13888E+01 .52710E+01 .38909E+01
 .16763E+01 .64131E+07 .10522E+07 .93245E+00 .10986E+00 .20798E+00 .15470E+00 .16653E+01 .43888E+08 .23378E+01 .23640E+01 .14180E+01 .30859E+01 .50455E+01 .55377E+01
 .86063E+01 .18320E+06 .69718E+04 .99800E+00 .32405E+00 .23740E+00 .65347E-01 .37528E+01 .98637E+08 .71965E+00 .34611E+00 .24629E+01 .49324E+01 .19075E+01 .54478E+01
 .26497E+01 .24777E+08 .18549E+07 .16914E+00 .99800E+00 .14327E+00 .12047E-01 .22214E+01 .44656E+08 .21448E+01 .39980E+00 .10551E+01 .30952E+01 .49395E+01 .16561E+01
 .81104E+01 .13400E+06 .78489E+04 .13394E+00 .37496E+00 .17160E+00 .64604E-01 .45822E+01 .17642E+08 .22577E+01 .98622E+00 .10552E+01 .31734E+01 .32289E+01 .12560E+01
 .79618E+01 .13892E+06 .95441E+04 .14090E+00 .37831E+00 .15967E+00 .74375E-01 .45853E+01 .82863E+08 .10270E+01 .47057E+01 .16035E+01 .26569E+01 .44227E+01 .56930E+01
 .80864E+01 .20875E+06 .85532E+04 .14060E+00 .37873E+00 .18292E+00 .53271E-01 .45840E+01 .66072E+08 .20771E+01 .10570E+00 .14907E+01 .15033E+01 .50392E+01 .68672E+00
 .38076E+01 .24029E+05 .17271E+04 .83070E-01 .17558E+00 .19987E+01 .24001E+01 .42587E+01 .65805E+08 .26626E+01 .49432E+01 .26733E+01 .90011E+00 .61111E+01 .40013E+01
 .39407E+01 .27139E+05 .60743E+04 .74712E-01 .29568E+00 .38249E-01 .15649E+00 .59348E+01 .12086E+09 .80007E+00 .33528E+01 .72378E+00 .56585E+01 .29261E+00 .12861E+01
 .15155E+01 .12746E+05 .39094E+04 .17647E+00 .29648E+00 .11801E+00 .69826E-01 .56732E+00 .11224E+09 .16477E+01 .44724E+01 .16723E+01 .47848E+01 .11153E+01 .40126E+01
 .53987E+01 .13708E+06 .34737E+05 .96693E+00 .22112E+00 .65748E-01 .10315E+00 .57009E+01 .13366E+07 .18754E+01 .60262E+01 .11297E+01 .31339E+01 .53376E+01 .56548E+01
 .39939E+01 .12533E+05 .87559E+04 .75654E+00 .36801E+00 .68528E-01 .14033E+00 .44992E+00 .12030E+09 .13608E+01 .26760E+01 .25808E+01 .18221E+01 .46080E+01 .27125E+01
 .67310E+01 .20121E+05 .70065E+04 .36010E+00 .28484E+00 .14383E+00 .15358E+00 .48011E+01 .38786E+08 .16193E+01 .31045E+01 .25995E+01 .45668E+01 .36726E+01 .57495E+01
 .60530E+01 .96076E+04 .12579E+04 .13660E+00 .66513E-02 .21143E+00 .12091E+00 .19009E+01 .52017E+08 .15861E+01 .60541E+01 .20571E+01 .48921E+00 .61068E+00 .23661E+01
 .86432E+01 .35470E+05 .51241E+04 .66011E+00 .97693E+00 .25991E+00 .15014E+00 .38787E+01 .19103E+08 .19805E+01 .24584E+01 .10582E+01 .34294E+00 .17210E+01 .20914E+01
 .15817E+02 .10607E+05 .13091E+04 .25616E+00 .70711E+00 .97055E-01 .80628E-01 .44021E+01 .99481E+08 .15155E+01 .21879E+01 .16163E+01 .55467E+00 .15350E+00 .33761E+01
 .68701E+01 .15874E+06 .19836E+05 .28456E+00 .34923E+00 .11374E+00 .99424E-01 .53736E+01 .90426E+08 .23022E+01 .29466E+01 .23762E+00 .44377E+01 .39127E+00 .85846E+00
 .97893E+01 .31690E+06 .44943E+05 .19475E+00 .43962E-01 .16849E+00 .12730E+00 .44448E+01 .27979E+08 .34051E+00 .42006E+01 .21341E+01 .10060E+01 .44863E+01 .27171E+01
 .95035E+01 .34343E+06 .37777E+05 .20119E+00 .50146E-01 .18644E+00 .10534E+00 .44526E+01 .96476E+08 .63976E+00 .55616E+01 .55518E+00 .38913E+01 .80828E+00 .26020E+01
 .15875E+01 .99011E+04 .27218E+04 .99800E+00 .26414E+00 .19730E+00 .60564E-01 .37660E+01 .12673E+09 .54568E+00 .19911E+01 .13649E+01 .32003E+01 .20796E+01 .23777E+01
 .10014E+02 .37527E+05 .17924E+05 .24311E+00 .37664E-01 .95014E-01 .12195E+00 .79236E+00 .62346E+08 .27088E+01 .60999E+01 .26532E+01 .34389E+01 .17410E+01 .46595E+01
 .37138E+01 .18319E+05 .37332E+04 .35515E+00 .65130E+00 .15975E+00 .92314E-01 .42286E+01 .56439E+08 .90416E+00 .47220E+01 .18647E+01 .63623E+00 .17271E+01 .48347E+01
 .34973E+01 .26294E+05 .12189E+05 .86427E+00 .86447E+00 .62241E-01 .17976E+00 .60317E+01 .97140E+08 .24080E+01 .25246E+01 .10490E+01 .12402E+01 .70374E+00 .40633E+00
 .39658E+01 .15295E+06 .10377E+06 .91443E+00 .46601E+00 .18187E+00 .10967E+00 .13323E+01 .15270E+09 .17874E+01 .15672E+01 .19060E+01 .94526E+00 .31298E+01 .39003E+01
 .40682E+01 .19507E+06 .11985E+06 .91330E+00 .46487E+00 .18520E+00 .11190E+00 .13306E+01 .21899E+06 .14409E+01 .11619E+01 .30531E+01 .30920E+01 .22897E+01 .35488E+00
 .63287E+01 .46915E+05 .64711E+05 .33830E+00 .63377E+00 .11119E+00 .16371E+00 .55742E+01 .13275E+09 .15586E+01 .23846E+01 .89574E+00 .54868E+01 .21584E+01 .68130E+00
 .42281E+01 .64176E+05 .32698E+05 .30680E+00 .43991E+00 .12939E+00 .87078E-01 .48285E+01 .11398E+09 .13224E+01 .31570E+01 .14349E+01 .33848E+01 .87259E+00 .36453E+01
 .15284E+02 .11113E+05 .41304E+04 .83138E+00 .86323E+00 .10330E+00 .55627E-01 .45803E+01 .42399E+08 .14815E+01 .63252E+00 .71438E+00 .31331E+01 .19686E+01 .95023E+00
 .45146E+01 .37731E+05 .21592E+05 .54151E+00 .10258E-01 .28302E+00 .13414E+00 .27580E+01 .12332E+09 .85308E+00 .25176E+01 .33170E+00 .61995E+01 .16022E+01 .58752E+01
 .23487E+01 .60326E+05 .15888E+04 .99800E+00 .41118E+00 .15366E+00 .16683E+00 .52905E+01 .31534E+08 .20800E+01 .37507E+01 .15740E+01 .49921E+01 .17608E+01 .16080E+01
 .17186E+02 .19088E+06 .35583E+05 .82300E+00 .92292E+00 .16192E+00 .15156E+00 .12056E+01 .28318E+08 .20936E+01 .56541E+01 .14214E+01 .56039E+01 .43429E+01 .15101E+01
 .13494E+02 .95390E+04 .67944E+03 .32876E+00 .76633E+00 .19345E+00 .10633E+00 .43195E+01 .11006E+08 .27334E+01 .46460E+01 .14579E+01 .10412E+01 .39518E+01 .15408E+01
 .10062E+02 .79013E+05 .67786E+05 .81211E+00 .82079E+00 .10109E+00 .95574E-01 .10696E+01 .15161E+09 .16504E+01 .51835E+01 .16394E+01 .55278E+01 .44874E+01 .50418E+01
 .42810E+01 .29633E+05 .66354E+04 .31316E+00 .27298E+00 .11100E+00 .77214E-02 .10805E+00 .57062E+08 .91671E-01 .42116E-01 .48363E+00 .10250E+01 .52264E+01 .37403E+01
 .56561E+01 .18390E+06 .11683E+06 .68508E-01 .26298E+00 .71892E-01 .15951E+00 .60356E+01 .91741E+07 .18700E+01 .37027E+01 .19476E+01 .57404E+01 .29872E+01 .22021E+01
 .29526E+01 .66589E+05 .44086E+05 .99800E+00 .86266E+00 .20277E+00 .12830E+00 .43627E+01 .15400E+09 .24499E+01 .12600E+01 .23790E+01 .40386E+01 .59786E+01 .32444E+01
 .21811E+01 .15753E+06 .11994E+05 .99800E+00 .31139E+00 .13762E+01 .57150E+00 .15514E+01 .57203E+08 .25234E+01 .11669E+01 .18575E+01 .47754E+01 .14819E+01 .76866E+00
 .15422E+02 .57960E+06 .60934E+05 .91813E+00 .88386E+00 .10423E+00 .11407E+00 .12948E+01 .43953E+08 .15641E+01 .79848E+00 .88507E+00 .44787E+01 .57558E+01 .57650E+01
 .79412E+01 .15830E+06 .72691E+04 .53672E+00 .78644E+00 .23140E+00 .13068E+00 .16780E+01 .75725E+08 .10035E+01 .25667E+01 .17890E+01 .18357E+01 .26036E+01 .51741E+01
 .88131E+01 .28616E+05 .11673E+05 .55279E+00 .34824E+00 .27472E+00 .13920E+00 .20525E+01 .89759E+08 .11326E+01 .34524E+01 .23286E+00 .45378E+01 .47430E+01 .57242E+01
 .95355E+01 .36574E+05 .21770E+05 .41063E+00 .86636E+00 .98277E-01 .76651E-01 .50491E+01 .12342E+09 .24471E+01 .36885E+01 .14701E+01 .23784E+01 .14068E+01 .13929E+01
 .29494E+01 .71432E+06 .93875E+05 .99800E+00 .99800E+00 .67482E-01 .52922E-01 .57344E+01 .41628E+08 .10818E+01 .44696E+01 .24843E+01 .35574E+01 .33413E+01 .44131E+01
 .17049E+02 .17823E+06 .19634E+05 .17501E+00 .31073E+00 .10694E+00 .67774E-01 .98169E+00 .54161E+08 .79703E+00 .32123E+00 .23715E+01 .58064E+01 .14444E+01 .26854E+00
 .68003E+01 .35310E+06 .18582E+05 .47144E+00 .85069E+00 .63011E-01 .13965E+00 .61097E+01 .99178E+08 .23656E+01 .39010E+01 .13099E+01 .13585E+01 .16223E+01 .28368E+01
 .12341E+02 .29356E+06 .61006E+04 .68311E-01 .68374E+00 .11565E+00 .15201E+00 .54964E+01 .10876E+09 .10423E+01 .56126E+01 .20860E+01 .27539E+01 .34368E+01 .45860E+01
 .11427E+02 .44894E+06 .54120E+05 .95038E+00 .90918E+00 .64796E-01 .15048E+00 .59470E+00 .95961E+08 .10909E+01 .24090E+01 .20073E+01 .39401E+01 .36914E+01 .27173E+01
 .94306E+01 .92792E+05 .21222E+05 .47935E+00 .29860E+00 .10477E+00 .22801E-01 .10780E+00 .94794E+07 .16582E+01 .59413E+01 .52059E+00 .51140E+00 .21548E+01 .51036E+01
 .11483E+02 .76120E+05 .78503E+05 .48916E+00 .85674E+00 .16921E+00 .10703E+00 .34722E+01 .75736E+07 .72406E+00 .29407E+01 .18640E+01 .12892E+01 .47934E+01 .21312E+01
 .18211E+02 .93714E+05 .71631E+03 .14094E+00 .97122E+00 .63748E-01 .69692E-01 .62445E+01 .96519E+08 .19557E+01 .51730E+01 .80892E+00 .15381E+01 .39082E+01 .34816E+01
 .87575E+01 .86371E+05 .12172E+05 .48397E+00 .71313E+00 .90964E-01 .33523E-02 .42007E+01 .67367E+08 .19554E+01 .13361E+01 .21803E+01 .29602E+01 .34967E+01 .27035E+01
 .97297E+01 .59722E+05 .30250E+05 .81203E+00 .72870E+00 .14230E+00 .53301E-01 .38789E+01 .25539E+08 .21181E+01 .16187E+01 .21108E+01 .61606E+01 .43107E+01 .18627E+01
 .10286E+02 .39997E+06 .15520E+06 .62604E+00 .20791E+00 .14777E+00 .70696E-01 .33486E+01 .85589E+08 .20059E+01 .45217E+00 .14902E+01 .10846E+01 .58638E+01 .29938E+01
 .10261E+02 .26521E+06 .10078E+06 .49742E+00 .72888E+00 .10163E+00 .11559E+00 .52532E+01 .15478E+09 .29281E+00 .11248E+01 .58632E+00 .82380E+00 .49081E+01 .14040E+01
 .11188E+02 .18262E+06 .23510E+05 .40912E+00 .62079E+00 .11112E+00 .45991E-01 .34292E+01 .44709E+08 .94007E+00 .35465E+01 .63813E+00 .46816E+01 .31474E+01 .35888E+01
 .13991E+02 .30750E+06 .24621E+05 .66029E+00 .93460E+00 .14665E+00 .10327E+00 .47198E+01 .69384E+08 .10283E+01 .62238E+01 .14722E+01 .66905E+00 .32079E+01 .52590E+01
 .37261E+01 .11935E+06 .30652E+05 .85527E+00 .33589E+00 .15006E+00 .11423E+00 .51296E+01 .11424E+09 .21525E+01 .18786E+01 .56292E+00 .41163E+01 .37650E-01 .44731E+01
 .11486E+02 .12646E+06 .12150E+06 .72945E+00 .76017E-02 .16098E-01 .31394E-01 .60061E+01 .55057E+07 .17471E+01 .46094E+00 .21728E+01 .42107E+00 .57298E+01 .55181E+01
 .13604E+02 .13719E+06 .78485E+05 .21071E+00 .69262E+00 .19943E+00 .12502E+00 .25575E+01 .46105E+07 .46923E+00 .43888E+01 .80027E+00 .40379E+01 .32619E+01 .33471E+00
 .84443E+01 .33465E+06 .38995E+06 .85931E+00 .92368E+00 .14697E+00 .67245E-01 .28683E+01 .30862E+08 .12425E+01 .11057E+00 .12838E+01 .22517E+01 .61833E+01 .24920E+01
 .30743E+01 .61984E+06 .57286E+06 .99800E+00 .10825E+00 .14242E+00 .11614E+00 .46924E+01 .78940E+08 .26962E+01 .51649E+01 .43279E+00 .16015E+01 .59937E+01 .19352E+00
 .93562E+01 .58696E+05 .45003E+05 .68593E+00 .41592E+00 .14536E+00 .39163E-01 .25180E+01 .13361E+09 .25695E+00 .23851E+01 .46311E+00 .51334E+01 .50418E+01 .42061E+00
 .62774E+01 .55855E+06 .25376E+06 .62560E+00 .30131E+00 .12818E+00 .16178E+00 .77752E+00 .15424E+09 .18332E+01 .29961E+01 .20970E+01 .26114E+01 .55393E+01 .24156E+01
 .13849E+02 .54890E+05 .13794E+05 .43189E+00 .69487E+00 .21597E+00 .14752E+00 .19681E+01 .10063E+08 .15448E+01 .34982E+01 .15974E+01 .50371E+01 .11538E+00 .41156E+01
 .30018E+01 .36864E+06 .37683E+04 .50636E+00 .45560E-01 .20940E+00 .17846E+00 .43306E+01 .16898E+08 .19229E+01 .18775E+01 .22097E+01 .37824E+00 .41695E+01 .39841E+01
 .17666E+01 .14494E+06 .21539E+05 .31458E+00 .50606E+00 .10505E+00 .10549E+00 .35989E+00 .18405E+08 .17457E+01 .23239E+01 .52054E+00 .30512E+01 .59916E+01 .18276E+00
 .14360E+02 .60891E+05 .23236E+05 .32624E+00 .80120E+00 .79214E-01 .46290E-01 .53632E-01 .28504E+08 .12860E+01 .56166E+01 .10051E+01 .45701E+01 .60196E+01 .32841E+01
 .59549E+01 .13394E+06 .44638E+05 .32248E+00 .13234E+00 .17014E+00 .16188E+00 .12813E+01 .11510E+09 .23738E+01 .55837E+01 .18001E+01 .32746E+01 .38792E+01 .31821E+01
 .63415E+01 .15698E+06 .56809E+05 .47326E+00 .44313E+00 .20456E-01 .66157E-01 .15575E+00 .15266E+09 .15842E+01 .32129E+01 .13459E+01 .63991E+00 .32907E+00 .11902E+01
 .34303E+01 .64130E+04 .91975E+03 .99800E+00 .98229E+00 .20866E+00 .15881E+00 .13334E+01 .12815E+09 .60884E+00 .20696E+01 .18415E+01 .77798E+00 .28764E+01 .37029E+01
 .40852E+01 .13996E+06 .22092E+05 .27463E+00 .36855E+00 .20682E+00 .52783E-01 .38236E+01 .13331E+09 .23501E+01 .22145E+01 .11093E+01 .37431E-01 .30298E+01 .22517E+01
 .40266E+01 .16602E+06 .25414E+05 .28427E+00 .37520E+00 .18910E+00 .39632E-01 .38206E+01 .14480E+09 .20049E+01 .38465E+01 .10998E+01 .34330E+01 .29392E+01 .30837E+01
 .10437E+02 .20087E+06 .14783E+05 .41527E+00 .42373E+00 .23873E+00 .13395E+00 .43195E+01 .67063E+08 .12708E+01 .14621E+01 .14878E+01 .18206E+01 .60219E+01 .19207E+01
 .25323E+01 .11282E+06 .65775E+04 .29788E+00 .22630E+00 .10466E+00 .61478E-01 .26395E+01 .29692E+08 .26787E+01 .82478E+00 .24809E+01 .21674E+01 .16525E+01 .37720E+01
 .12315E+02 .17434E+05 .96552E+04 .90156E+00 .64974E+00 .10585E+00 .66539E-01 .20330E+01 .17553E+08 .15608E+01 .72987E+00 .11277E+01 .30394E+01 .14167E+01 .53471E+01
 .42638E+01 .23491E+05 .24989E+05 .43113E+00 .61249E+00 .13465E+00 .36286E-01 .53399E+01 .11389E+09 .16175E+01 .61664E+01 .88225E+00 .13474E+01 .37227E+01 .55981E+01
 .31845E+01 .12627E+05 .94284E+04 .23746E+00 .29464E+00 .71029E-01 .61289E-01 .50610E+01 .13304E+09 .26990E+01 .15225E+01 .91194E+00 .22777E+01 .43855E+01 .44181E+01
 .58003E+01 .11000E+06 .17208E+05 .88826E+00 .20263E+00 .62689E-01 .52444E-01 .57510E+00 .78158E+08 .22946E+01 .33958E+01 .36365E+00 .38970E+01 .60444E+01 .55660E+01
 .19380E+01 .53907E+05 .20036E+05 .33667E+00 .11846E+00 .24000E+01 .22022E+01 .38829E+01 .67076E+08 .19668E+01 .43741E+01 .13221E+01 .46448E+01 .39350E+01 .51848E+01
 .66699E+01 .30186E+05 .44044E+04 .25307E+00 .31011E+00 .17204E+00 .11705E+00 .32918E+01 .92051E+08 .62252E+00 .25558E+00 .83459E+00 .57588E+01 .21331E+01 .30953E+01
 .68294E+00 .52770E+06 .91745E+04 .99800E+00 .12094E+00 .67377E+00 .24910E+01 .45948E+01 .29057E+08 .14380E+01 .56791E+01 .17217E+01 .24034E+01 .41627E+01 .28604E+01
 .14762E+02 .98178E+05 .43323E+04 .82084E+00 .55493E+00 .11582E+00 .90217E-01 .48122E+01 .14405E+08 .18680E+01 .64561E+00 .74565E+00 .27914E+01 .61681E+01 .24064E+01
 .28134E+01 .35973E+06 .15360E+05 .99800E+00 .15590E+00 .30898E+00 .14047E+00 .30138E+01 .99938E+08 .11894E+01 .36709E+01 .25507E+01 .40369E+01 .55498E+01 .44267E+01
 .43976E+01 .19210E+06 .21265E+06 .62960E+00 .64846E+00 .22960E+00 .12983E+00 .39309E+01 .37514E+08 .20281E+01 .21334E+01 .25818E+01 .39972E+01 .36518E+01 .12363E+00
 .36244E+01 .15734E+05 .33537E+04 .43536E-01 .84239E+00 .21083E+00 .40828E-01 .40426E+01 .65516E+08 .16213E+01 .41363E+01 .21199E+01 .34688E+01 .20942E+01 .55925E+01
 .85268E+01 .19281E+06 .91581E+05 .52469E+00 .81507E-01 .23913E+00 .98154E-01 .41087E+01 .47876E+07 .14729E+01 .53181E+01 .11635E+01 .56117E+01 .26087E+01 .38562E+01
 .76034E+01 .54428E+05 .48446E+05 .76772E+00 .27436E+00 .26576E+00 .13788E+00 .21244E+01 .96677E+08 .23674E+01 .61786E+01 .17882E+01 .36030E+01 .96190E+00 .18378E+01
 .32252E+01 .26768E+06 .38836E+05 .96699E+00 .90643E+00 .19367E+00 .73829E-01 .18855E+01 .14752E+08 .17418E+01 .50260E+01 .20821E+01 .55845E+01 .89049E+00 .43856E+01
 .12044E+02 .20030E+05 .19852E+05 .45038E+00 .22116E+00 .15722E+00 .13531E+00 .48273E+01 .92331E+08 .20373E+01 .58061E+01 .16141E+01 .55839E+01 .10377E+01 .57297E+00
 .71681E+01 .49022E+06 .67967E+05 .94736E+00 .23327E+00 .17267E+00 .15332E+00 .49131E+01 .11807E+08 .16106E+01 .61975E+01 .11911E+01 .61736E+01 .59922E+01 .35877E+00
 .53620E+01 .23470E+06 .13273E+04 .11006E+00 .27242E+00 .16658E+00 .78036E-01 .46812E+01 .73028E+08 .23899E+01 .58707E+01 .23796E+01 .60277E+01 .27074E+01 .40833E+01
 .88849E+00 .45914E+06 .36879E+04 .51836E+00 .61916E+00 .12795E+01 .18740E+01 .88576E+00 .46883E+07 .13746E+01 .17698E+01 .22418E+01 .25764E+01 .20757E+00 .34912E+01
 .34393E+01 .24760E+06 .10739E+05 .14290E+00 .99800E+00 .95620E-01 .11825E+00 .50933E+01 .66023E+08 .21363E+01 .95103E+00 .11156E+01 .57623E+01 .45711E+01 .32541E+01
 .12225E+02 .20472E+06 .26266E+05 .16016E+00 .34544E+00 .91580E-01 .14290E+00 .60227E+00 .13612E+09 .26989E+01 .32474E+01 .25299E+01 .11512E+01 .99339E-01 .44759E+01
 .17886E+01 .19700E+06 .73082E+05 .69014E+00 .40787E+00 .10863E+00 .27296E-01 .32469E+01 .90090E+08 .18150E+01 .29288E+01 .17700E+01 .48990E+01 .29402E+00 .20292E+01
 .15096E+02 .11815E+06 .94946E+05 .30304E+00 .81105E+00 .19225E+00 .15578E+00 .12943E+01 .10267E+09 .76722E+00 .39189E+01 .29479E+01 .33951E+01 .31474E+01 .10657E-01
 .10253E+02 .47623E+06 .74146E+05 .41051E+00 .75575E+00 .27260E+00 .15235E+00 .33185E+01 .96912E+08 .13915E+01 .15191E+01 .10128E+01 .16127E+01 .13878E+01 .54839E+01
 .62643E+01 .61364E+05 .51160E+05 .19138E+00 .20621E+00 .14087E+00 .85824E-01 .38396E+01 .13167E+09 .10906E+01 .12950E+01 .91005E+00 .57086E+01 .51700E+01 .52443E+01
 .62844E+01 .27575E+06 .81089E+05 .40213E+00 .51775E-02 .30204E+00 .16978E+00 .36828E+01 .15628E+09 .19881E+01 .52608E+01 .28694E+01 .37918E+01 .12370E+01 .43601E+01
 .42901E+01 .76499E+05 .29710E+05 .88241E+00 .11073E+00 .12022E+00 .43067E-01 .52190E+01 .14786E+09 .27572E+01 .62230E+01 .96799E+00 .30820E+01 .32576E+01 .30182E+01
 .42375E+01 .90286E+05 .41659E+05 .87607E+00 .10279E+00 .12390E+00 .37371E-01 .52010E+01 .13841E+09 .29532E+01 .56174E+01 .15181E+01 .26360E+01 .43282E+01 .62426E+01
 .11535E+02 .54787E+05 .10440E+04 .13155E+00 .85506E+00 .22197E+00 .11218E+00 .33530E+01 .56188E+08 .18015E+01 .42901E+01 .15124E+01 .20651E+01 .57659E+01 .49702E+01
 .10965E+02 .37038E+05 .67364E+04 .21707E+00 .93342E+00 .18345E+00 .94249E-01 .45144E+01 .45447E+08 .14858E+01 .41762E+01 .76605E+00 .58046E+01 .47533E+01 .26819E+01
 .31354E+01 .52418E+05 .40663E+05 .39803E+00 .40886E+00 .27325E+00 .17319E+00 .19453E+01 .55490E+07 .14647E+01 .27137E+01 .18382E+01 .37914E+00 .22235E+01 .42300E+01
 .64695E+01 .13952E+05 .15070E+05 .44795E+00 .86423E+00 .12584E+00 .10117E+00 .50265E+01 .43511E+08 .10809E+01 .10847E+01 .16272E+01 .20032E+01 .27879E+01 .44789E+01
 .91156E+01 .44240E+05 .97484E+03 .93041E+00 .91545E+00 .13102E+00 .89012E-01 .48329E+01 .70888E+08 .18766E+01 .60968E+01 .11136E+01 .50893E+00 .21929E+01 .11388E+01
 .60891E+01 .46136E+05 .17471E+05 .83387E+00 .12249E+00 .70513E-01 .16408E+00 .62055E+01 .22077E+08 .27828E+01 .21641E+01 .87275E+00 .49677E+01 .54397E+01 .10505E+01
 .16204E+01 .70358E+05 .73656E+05 .24500E+00 .96964E+00 .18488E+00 .15722E+00 .46997E+01 .12831E+09 .15338E+01 .40011E+01 .22340E+01 .28766E+01 .40870E+01 .54318E+01
 .11294E+02 .14844E+06 .23759E+05 .82990E+00 .71784E+00 .26837E+00 .13384E+00 .24243E+01 .15002E+09 .20774E+01 .60722E+01 .15070E+01 .25220E+01 .66835E+00 .59789E+01
 .98274E+01 .88540E+05 .47637E+05 .61396E+00 .90131E+00 .15140E+00 .25082E-01 .58005E+01 .13088E+09 .15975E+01 .20516E+01 .19604E+01 .58604E+01 .56424E+01 .41920E+00
 .61238E+01 .54215E+05 .20729E+05 .12224E+00 .26591E+00 .19373E+00 .13579E+00 .45777E+01 .32592E+08 .56989E+00 .26247E+01 .26883E+01 .51921E+01 .45322E+01 .35922E+01
 .52052E+01 .13783E+06 .20090E+06 .57751E-01 .57300E+00 .20507E+00 .13173E+00 .31547E+01 .14889E+09 .25862E+01 .86275E-01 .19767E+01 .19780E+01 .58688E+00 .45650E+01
 .14727E+02 .14479E+06 .32510E+05 .46421E+00 .25905E+00 .26883E+00 .16493E+00 .36521E+01 .14492E+09 .11441E+01 .10174E+01 .23075E+01 .35063E+01 .26540E+01 .57517E+01
 .15286E+02 .61004E+05 .62795E+05 .94461E+00 .27115E+00 .14153E+00 .48034E-01 .32860E+01 .49271E+07 .21348E+01 .14883E+01 .90577E+00 .38941E+01 .33339E+01 .40132E+01
 .15751E+02 .69512E+05 .33164E+05 .67564E+00 .49086E+00 .20229E+00 .12626E+00 .20847E+01 .72952E+08 .11869E+01 .40899E+00 .23845E+01 .82795E+00 .55845E+01 .14198E+00
 .12609E+02 .22594E+06 .57910E+04 .70936E+00 .35719E-01 .18837E+00 .12881E+00 .16902E+01 .14424E+09 .29394E+00 .38843E+01 .21883E+01 .51478E+01 .52208E+01 .14240E+01
 .16528E+02 .32632E+06 .25770E+05 .22096E+00 .73088E+00 .84959E-01 .92764E-01 .15099E+01 .46661E+08 .13623E+01 .13573E+01 .92156E+00 .89904E+00 .40143E+01 .58832E+01
 .53658E+01 .71956E+06 .20596E+06 .91016E+00 .99800E+00 .16613E+00 .11430E+00 .10823E+01 .83738E+08 .15323E+01 .77783E+00 .18628E+01 .17385E+01 .38192E+01 .46606E+01
 .67056E+01 .82351E+06 .21694E+06 .92082E+00 .72611E+00 .72903E-01 .12779E+00 .60697E+01 .13603E+09 .29103E+01 .62418E+01 .54876E+00 .52025E+01 .19073E+01 .58109E+01
 .10565E+02 .33836E+06 .23168E+06 .99166E-01 .73384E+00 .23109E+00 .88434E-01 .34537E+01 .15706E+09 .38788E+00 .60717E+01 .20243E+01 .42000E+01 .41729E+01 .48087E+01
 .63435E+01 .31143E+06 .19511E+05 .56502E+00 .36829E+00 .18223E+00 .10842E+00 .40817E+01 .10059E+09 .73018E+00 .95204E+00 .62345E+00 .48908E+01 .26711E+01 .35945E+01
 .35560E+01 .79253E+06 .65572E+06 .99800E+00 .13617E+00 .86077E-01 .13855E+00 .53661E+01 .12592E+08 .11246E+01 .56786E+01 .11348E+01 .47111E-01 .50509E+01 .37897E+01
 .11334E+02 .98938E+05 .15033E+05 .55407E+00 .48493E+00 .16298E-01 .68216E-01 .59573E+01 .82450E+08 .14560E+01 .60070E+01 .87125E+00 .20919E+01 .17224E+01 .58104E+01
 .83000E+01 .18241E+06 .16092E+05 .57223E+00 .56949E+00 .84491E-01 .25172E-01 .60528E+01 .72173E+08 .41359E+00 .81438E+00 .16032E+01 .12489E+01 .50147E+01 .54588E+01
 .84419E+01 .12602E+06 .99240E+05 .38944E+00 .97348E-01 .10715E+00 .13618E+00 .53636E+01 .80170E+08 .22096E+01 .14892E+01 .13191E+01 .16203E+01 .42471E+01 .59990E+01
 .12125E+02 .61359E+06 .95814E+05 .60724E+00 .76032E+00 .56199E-01 .14202E+00 .41634E+00 .45554E+08 .64134E+00 .60488E+01 .93674E+00 .33422E+01 .13183E+01 .23559E+01
 .13493E+02 .31288E+05 .31262E+05 .77063E+00 .81189E-01 .15374E+00 .59982E-01 .51738E+01 .76161E+08 .16006E+01 .21983E+01 .12128E+00 .66765E+00 .12272E+01 .62806E+01
 .85906E+01 .98877E+05 .37861E+05 .66948E+00 .38267E+00 .20225E+00 .33154E-01 .27166E+01 .50336E+08 .97585E+00 .78513E+00 .25718E+01 .29155E+01 .53308E+01 .45935E+01
 .82972E+01 .77459E+06 .35143E+05 .79808E+00 .85104E+00 .28074E+00 .15313E+00 .22570E+01 .59981E+08 .25351E+01 .59472E+01 .25624E+01 .91634E+00 .13520E+01 .57301E+01
 .13300E+02 .83425E+05 .88953E+05 .99759E+00 .88580E+00 .51382E-01 .10612E+00 .62056E+01 .20458E+08 .13864E+01 .45526E+01 .19989E+01 .31604E+01 .47390E+01 .43814E+01
 .10343E+02 .30747E+06 .44312E+05 .41422E-02 .51164E+00 .94129E-01 .72012E-01 .58777E+01 .79463E+08 .21339E+01 .57362E+01 .30010E+00 .59997E+01 .50847E+01 .38779E+01
 .96878E+01 .38306E+04 .47821E+04 .11511E+00 .27698E+00 .20870E+00 .90384E-01 .22055E+01 .13421E+09 .80194E+00 .12231E+01 .11182E+01 .57373E+01 .10050E+01 .32824E+01
 .14858E+02 .11960E+06 .53584E+05 .34123E+00 .74723E+00 .17408E+00 .13649E+00 .42431E+01 .38555E+08 .14180E+01 .19027E+00 .76352E+00 .32464E+01 .11825E+01 .12872E+01
 .58727E+01 .82737E+05 .77608E+05 .34378E+00 .51633E+00 .14240E+00 .29833E-01 .92875E+00 .78222E+08 .18870E+01 .31182E+01 .54147E+00 .31902E+01 .46934E+01 .58132E+01
 .60332E+01 .60606E+05 .85453E+05 .33207E+00 .51320E+00 .13697E+00 .37104E-01 .91622E+00 .12457E+09 .93257E+00 .58187E+01 .90168E+00 .35346E+01 .51866E+01 .70706E+00
 .30415E+01 .76597E+05 .18674E+05 .29064E+00 .81657E+00 .25474E+00 .15429E+00 .38751E+01 .32985E+08 .25736E+01 .43431E+01 .25732E+01 .16750E+01 .31787E+01 .53456E+01
 .73306E+01 .50057E+06 .13124E+04 .53267E+00 .11434E-01 .19185E+00 .13374E+00 .16556E+01 .13691E+09 .16790E+01 .69645E+00 .15343E+01 .44341E+01 .25348E+01 .53976E+00
 .72560E+01 .50431E+06 .11993E+04 .53125E+00 .18276E-01 .19679E+00 .12595E+00 .16453E+01 .58484E+08 .22827E+01 .41928E+01 .18447E+01 .15995E+01 .19266E+01 .26534E+01
 .45600E+01 .94674E+04 .55397E+04 .28439E+00 .80412E+00 .22316E+00 .18072E+00 .40850E+01 .10537E+09 .15329E+01 .18592E+01 .19053E+01 .96162E+00 .48047E+01 .35878E+00
 .20059E+01 .25343E+04 .14962E+04 .89453E+00 .27479E+00 .22064E-01 .13599E+00 .61381E+01 .60700E+08 .21699E+01 .58592E+01 .25359E+01 .38278E+01 .99720E+00 .62746E+01
 .70127E+01 .31396E+05 .16203E+04 .48796E+00 .58530E+00 .19598E-01 .15446E+00 .19717E+00 .34247E+07 .10349E+01 .19423E+01 .59253E+00 .25832E+01 .59151E+01 .38795E+01
 .99711E+01 .11326E+06 .59722E+05 .45789E+00 .37262E+00 .26168E+00 .11211E+00 .41526E+01 .68276E+08 .17379E+01 .65115E+00 .29197E+01 .21868E+01 .32429E+01 .90773E+00
 .99710E+01 .15335E+06 .59099E+05 .45303E+00 .35819E+00 .26376E+00 .12237E+00 .41473E+01 .28353E+08 .27696E+01 .27057E+01 .21407E+01 .14188E+01 .14317E+01 .59177E+01
 .78480E+01 .39032E+06 .61493E+05 .16202E+00 .67658E+00 .18107E+00 .16156E+00 .43281E+01 .10678E+09 .26661E+01 .43928E+01 .16283E+01 .56916E+01 .47166E+01 .47785E+00
 .18282E+01 .96871E+05 .74048E+05 .89011E+00 .21006E+00 .28416E+00 .15378E+00 .27404E+01 .15286E+09 .19380E+01 .72793E+00 .44297E+00 .16491E+01 .38303E+01 .29643E+01
 .15243E+02 .11105E+06 .47919E+05 .27035E+00 .80648E+00 .82588E-01 .13912E+00 .46156E+00 .37292E+08 .77287E+00 .20656E+00 .18422E+01 .29233E+01 .52020E+01 .11494E+01
 .11563E+02 .28223E+05 .95262E+04 .27811E+00 .61280E+00 .11636E+00 .18538E+00 .68644E+00 .99655E+08 .25910E+01 .57539E+01 .86496E+00 .12368E+01 .55708E+01 .24075E+00
 .38358E+01 .43239E+06 .10565E+05 .66284E+00 .43553E+00 .15321E+00 .74931E-01 .39146E+01 .15773E+09 .14788E+01 .26930E+01 .14576E+01 .54888E+01 .14655E+01 .26567E+01
 .11976E+02 .88770E+05 .65151E+05 .84979E+00 .44538E+00 .12050E+00 .11267E+00 .42762E+01 .84572E+08 .96332E+00 .41495E+01 .16202E+01 .62072E+01 .10073E+01 .14378E+01
 .13594E+02 .66897E+05 .21111E+05 .71771E+00 .41997E+00 .88768E-01 .11909E+00 .58274E+01 .20154E+08 .74010E+00 .18674E+01 .10226E+01 .23798E+01 .50633E+01 .61467E+01
 .13375E+02 .49634E+05 .31439E+05 .71350E+00 .41842E+00 .93452E-01 .11399E+00 .58263E+01 .11973E+09 .26540E+01 .10341E+01 .19140E+01 .40397E+01 .50573E+01 .37065E+01
 .47926E+01 .11731E+06 .85185E+05 .70592E+00 .52332E+00 .24832E+01 .23008E+01 .38024E+01 .11577E+09 .31199E+01 .85535E+00 .10655E+01 .29608E+01 .50624E+01 .27762E+00
 .67529E+01 .30994E+06 .90075E+05 .53274E+00 .49807E+00 .71858E-01 .15007E+00 .51617E+00 .12666E+09 .21908E+01 .28250E+01 .20187E+01 .49929E+01 .47116E+01 .59388E+01
 .63561E+01 .88099E+05 .10027E+06 .63155E+00 .76909E+00 .11600E+00 .17567E+00 .56401E+01 .92006E+08 .68907E+00 .53185E+00 .19395E+01 .62704E+01 .55394E+01 .60647E+01
 .17276E+02 .49105E+05 .56045E+05 .45854E+00 .26858E+00 .16251E+00 .16725E+00 .52035E+01 .16148E+08 .19685E+01 .49951E+01 .19561E+01 .58453E+01 .60594E+01 .35346E+01
 .15712E+02 .12528E+06 .11096E+05 .70900E-02 .35283E+00 .25833E+00 .12925E+00 .31867E+01 .52526E+08 .17392E+01 .35397E+00 .14666E+01 .40756E+01 .11909E+01 .31391E+01
 .14008E+02 .14045E+06 .12793E+06 .55031E+00 .51049E+00 .14350E+00 .17217E+00 .96522E+00 .14020E+09 .10641E+00 .46188E+01 .91477E+00 .39903E+01 .19537E+01 .26863E+01
 .69418E+01 .47233E+06 .97480E+05 .24750E+00 .88791E+00 .20627E+00 .17081E+00 .15174E+01 .97478E+08 .10331E+01 .74392E+00 .27226E+01 .47033E+01 .38747E+01 .21795E+01
 .68855E+01 .46582E+06 .35128E+06 .35292E+00 .36232E-01 .25110E+00 .11459E+00 .33672E+01 .66615E+08 .11927E+01 .61436E+01 .13131E+01 .47138E+00 .50193E+01 .23275E+01
 .50907E+01 .53658E+06 .90752E+05 .16497E+00 .99800E+00 .30383E+00 .14640E+00 .30843E+01 .79439E+08 .10603E+01 .15386E+01 .15975E+01 .38961E+01 .13838E+01 .12660E+01
 .18094E+02 .24803E+06 .41054E+05 .52267E+00 .49711E+00 .14818E+00 .15912E+00 .10828E+01 .57216E+08 .24931E+01 .57827E+01 .10737E+01 .61320E+01 .62489E+01 .31747E+01
 .96623E+01 .63386E+05 .53210E+05 .94289E-01 .57158E+00 .21311E+00 .11169E+00 .22270E+01 .98881E+07 .30025E+01 .61937E+01 .20351E+01 .50375E+01 .26514E+01 .62693E+01
 .70246E+01 .92229E+05 .12365E+05 .39234E+00 .12394E+00 .18904E+00 .46825E-01 .30375E+01 .54883E+08 .27290E+01 .84032E+00 .24867E+01 .56528E+01 .59853E+01 .36153E+01
 .17953E+02 .42049E+06 .33962E+05 .34924E+00 .93063E+00 .19414E+00 .11583E+00 .15381E+01 .14325E+09 .85050E+00 .17565E+01 .12051E+01 .62456E+00 .24401E+01 .32771E+01
 .19573E+01 .52936E+06 .13265E+06 .99800E+00 .34057E+00 .15016E+00 .13933E+00 .53471E+01 .66922E+08 .17748E+01 .30922E+00 .18139E+01 .37789E+01 .17653E+01 .38222E+01
 .10298E+02 .11768E+06 .79036E+05 .54521E+00 .61376E+00 .22809E+00 .91744E-01 .40515E+01 .24503E+08 .19632E+01 .47918E+01 .84469E+00 .24638E+01 .18508E+01 .39654E+01
 .73324E+01 .11080E+06 .25676E+05 .94102E+00 .96588E+00 .14853E+00 .13139E+00 .50342E+01 .12651E+09 .25345E+01 .92259E+00 .14748E+01 .34612E+01 .48402E+01 .16219E+01
 .27501E+01 .14072E+06 .99850E+05 .98952E+00 .99800E+00 .12779E+00 .14458E+00 .12653E+01 .49110E+08 .20731E+01 .46409E+01 .19037E+01 .52601E+01 .21015E+01 .27200E+01
 .76727E+01 .10786E+06 .10048E+05 .99766E+00 .30811E+00 .17823E+00 .97362E-01 .31096E+01 .11495E+09 .21608E+01 .39137E+01 .13121E+01 .53219E+01 .61983E+01 .37928E+00
 .94223E+00 .10004E+08 .14162E+06 .42043E+00 .99800E+00 .10947E+01 .23157E+01 .75639E+00 .12410E+09 .90615E+00 .26171E+01 .17000E+01 .34984E+00 .23671E+01 .28775E+01
 .16176E+02 .36660E+06 .38891E+05 .66042E+00 .84398E+00 .98887E-01 .63137E-01 .26299E+01 .85913E+08 .27044E+01 .79412E+00 .23147E+01 .69898E+00 .83321E+00 .26105E+01
 .84080E+01 .93843E+05 .12159E+05 .23570E+00 .99003E+00 .21238E+00 .88295E-01 .39121E+01 .10291E+09 .25583E+00 .49377E+01 .17282E+01 .28108E+00 .24430E+01 .17928E+01
 .99390E+01 .14053E+06 .40133E+05 .87632E+00 .57216E-02 .24669E+00 .14371E+00 .29261E+01 .79424E+08 .14058E+01 .38311E+01 .21697E+01 .26008E+01 .40095E+01 .39389E+01
 .15500E+02 .25719E+06 .10122E+04 .11508E+00 .49810E+00 .16279E+00 .10920E+00 .40566E+01 .11708E+08 .20164E+01 .53396E+01 .24814E+01 .51810E+01 .43539E+00 .11247E+01
 .73973E+01 .46233E+05 .51319E+05 .43891E+00 .63914E+00 .19781E+00 .10652E+00 .28828E+01 .99912E+08 .25987E+01 .20979E+01 .59955E+00 .51828E+01 .37879E+01 .86548E+00
 .13444E+02 .35430E+05 .10821E+04 .37085E+00 .11771E+00 .23323E+00 .11641E+00 .24812E+01 .58334E+08 .19645E+01 .96888E+00 .25170E+01 .77317E+00 .46791E+01 .28234E+01
 .12393E+02 .53552E+06 .60616E+05 .79131E+00 .88117E+00 .89077E-01 .77062E-01 .13502E+00 .11038E+09 .12422E+01 .70045E+00 .20854E+01 .40258E+00 .32654E+01 .20146E+01
 .11819E+02 .29818E+06 .51076E+06 .86720E-01 .92685E+00 .10782E+00 .18594E+00 .38659E-01 .77277E+08 .26826E+01 .24480E+01 .21903E+01 .57113E+01 .17269E+01 .61058E+00
 .96924E+01 .20987E+06 .15797E+05 .90249E+00 .38024E+00 .16813E+00 .60002E-01 .22657E+01 .66321E+08 .15989E+01 .59692E+01 .24293E+01 .61990E+00 .56623E+01 .53012E+01
 .16131E+01 .10715E+06 .21041E+04 .62935E+00 .79117E+00 .42577E-01 .11082E+00 .18780E+00 .57031E+08 .14595E+01 .32844E+00 .20831E+01 .19214E+01 .11761E+00 .21811E+01
 .10207E+02 .10357E+05 .76840E+04 .26891E-01 .48408E+00 .51221E-01 .16419E+00 .19694E+00 .14818E+09 .13343E+01 .52955E+01 .26150E+01 .57323E+01 .35565E+01 .33297E+01
 .57148E+01 .93070E+05 .88773E+04 .70905E+00 .95008E+00 .15937E+00 .14033E+00 .49173E+01 .10051E+09 .16633E+01 .52693E+01 .18509E+01 .45816E+01 .32513E+01 .57947E+01
 .57643E+01 .11071E+06 .12388E+05 .72001E+00 .95190E+00 .17346E+00 .13381E+00 .49117E+01 .14269E+09 .15538E+01 .31275E+01 .15235E+01 .11993E+01 .55277E+01 .93687E+00
 .91397E+01 .38617E+06 .11726E+05 .28437E+00 .47340E+00 .89251E-01 .44276E-01 .37272E-01 .15145E+09 .26489E+01 .35884E+01 .21717E+01 .26205E+01 .35067E+01 .61418E+01
 .26879E+01 .12139E+05 .93782E+04 .36334E+00 .99800E+00 .12893E+00 .12633E+00 .10902E+01 .13895E+09 .25681E+01 .54319E+00 .13215E+01 .70781E+00 .29474E+01 .19901E+01
 .15612E+01 .32650E+05 .13307E+04 .95899E+00 .16629E+00 .21834E+01 .16917E+01 .22084E+01 .14092E+09 .23181E+01 .19649E+01 .11050E+01 .17481E+01 .44183E+01 .49929E+01
 .60404E+01 .13479E+06 .37971E+05 .18146E+00 .46459E+00 .21741E-01 .14242E+00 .59940E+01 .73313E+08 .10402E+01 .46185E+01 .25366E+01 .27624E+01 .26006E+01 .21075E+01
 .58815E+01 .19057E+06 .21347E+05 .17371E+00 .45024E+00 .23637E-01 .14552E+00 .60200E+01 .12613E+09 .17249E+01 .15631E+00 .19249E+01 .21983E+01 .51093E+01 .11578E+01
 .92977E+01 .14283E+06 .10192E+05 .53524E+00 .64304E+00 .31250E+00 .16952E+00 .36479E+01 .12387E+09 .27286E+01 .29407E+01 .16761E+01 .13818E+01 .35841E+00 .38570E+00
 .90572E+01 .27170E+06 .11857E+05 .89638E+00 .98080E+00 .26762E-01 .17427E+00 .15976E-02 .12022E+09 .43157E+00 .39679E+01 .89096E+00 .32625E+01 .34052E+01 .51023E+01
 .49021E+01 .15504E+06 .48300E+04 .28120E+00 .42585E-01 .27501E+00 .16184E+00 .21176E+01 .54950E+07 .20202E+01 .32642E+01 .27353E+01 .42417E+01 .29652E+01 .17913E+01
 .74422E+01 .14222E+04 .12008E+04 .42605E+00 .77839E+00 .83108E-01 .11730E+00 .71122E+00 .44055E+08 .11668E+01 .38989E+01 .14330E+01 .35536E+01 .31702E+01 .54631E+00
 .28012E+01 .56500E+05 .13054E+04 .98887E+00 .49605E+00 .11717E+01 .17112E+01 .52316E+01 .59486E+08 .26570E+01 .25528E+01 .24895E+01 .28564E+01 .48961E+01 .62653E+00
 .12624E+02 .14095E+06 .14390E+04 .89757E+00 .30461E+00 .26056E+00 .16871E+00 .44135E+01 .49803E+08 .15188E+01 .85853E+00 .54975E+00 .68445E-01 .24396E+01 .96232E+00
 .19639E+01 .22452E+05 .90829E+04 .18203E+00 .79410E+00 .10142E+00 .37850E-01 .31078E+01 .11460E+09 .21463E+01 .39975E+01 .21764E+01 .11685E+01 .59204E+01 .53733E+01
 .12148E+02 .11160E+06 .19132E+04 .13949E+00 .58195E+00 .43860E-01 .25386E-01 .55641E+01 .89743E+08 .71879E+00 .21905E+01 .25548E+01 .43602E+01 .12015E+01 .25034E+01
 .12312E+02 .15176E+06 .22511E+04 .13861E+00 .55275E+00 .44379E-01 .31546E-01 .55787E+01 .12561E+09 .21071E+01 .49203E+01 .78011E+00 .39741E+01 .16702E+01 .48483E+01
 .21713E+01 .11505E+06 .22754E+05 .63458E+00 .30662E+00 .14325E+00 .16867E+00 .49046E+01 .15105E+09 .13016E+01 .25083E+01 .26847E+01 .49641E+01 .62748E+01 .15347E+01
 .11475E+02 .41140E+05 .33424E+05 .72141E+00 .23987E+00 .11323E+00 .16325E+00 .92349E+00 .71339E+06 .25756E+01 .62193E+01 .14550E+01 .76685E+00 .45927E+01 .20638E+01
 .12142E+02 .29551E+05 .43650E+05 .70655E+00 .23485E+00 .11115E+00 .16381E+00 .93984E+00 .16768E+08 .15000E+01 .39272E+01 .22736E+01 .26533E-01 .27479E+01 .51624E+01
 .70365E+01 .43261E+06 .13659E+06 .41542E+00 .85797E+00 .14393E+00 .90966E-01 .10821E+01 .99059E+08 .18936E+01 .15603E+01 .18884E+01 .26674E-01 .32514E+01 .60106E+01
 .44133E+01 .47795E+06 .28126E+05 .78978E+00 .21731E+00 .18290E+00 .60368E-01 .43322E+01 .73667E+08 .18130E+01 .49730E+01 .25975E+01 .50698E+01 .47353E+01 .24574E+01
 .19792E+01 .38603E+05 .12364E+04 .46782E+00 .69343E+00 .15371E+00 .13375E+00 .14308E+01 .42481E+08 .20716E+01 .44239E+01 .22683E+01 .58862E+01 .55117E+01 .21676E+01
 .13265E+02 .11507E+06 .79171E+05 .57688E+00 .28447E+00 .20781E+00 .77827E-01 .31629E+01 .15315E+09 .19853E+01 .14793E+01 .20768E+01 .38896E+01 .33264E+00 .58625E+01
 .88596E+01 .12879E+06 .38628E+05 .82242E+00 .45728E+00 .22046E+00 .73624E-01 .41409E+01 .14210E+09 .99495E+00 .33370E+01 .24733E+01 .52674E+01 .42038E+01 .31581E+00
 .56615E+01 .22933E+06 .34311E+04 .16467E+00 .99800E+00 .76920E-01 .75587E-01 .40959E+01 .28457E+08 .20128E+01 .59140E+01 .12672E+01 .30097E+01 .36708E+01 .91270E+00
 .18560E+02 .13087E+06 .33637E+05 .86444E+00 .37449E+00 .30812E-01 .11510E+00 .62282E+01 .14247E+09 .23365E+01 .57570E+01 .17484E+01 .32769E+01 .48886E+01 .62779E+01
 .14781E+02 .42882E+06 .16081E+06 .95876E+00 .43146E+00 .67361E-01 .15009E+00 .54467E+00 .89238E+07 .18842E+01 .72067E+00 .25074E+00 .47828E+01 .61419E+01 .33449E+01
 .65299E+01 .35214E+05 .47328E+04 .87357E+00 .85264E+00 .11988E+00 .67314E-01 .48991E+01 .67779E+08 .68932E+00 .20175E+01 .21179E+01 .26494E+01 .25224E+01 .52827E+00
 .61981E+01 .94230E+05 .28010E+05 .27629E-01 .48619E+00 .21751E+00 .17409E+00 .33121E+01 .94450E+08 .33367E+00 .42577E+01 .16349E+01 .29497E+01 .43524E+01 .61003E+01
 .27279E+01 .80690E+06 .12408E+06 .99094E+00 .11356E+00 .28326E+00 .81846E-01 .31611E+01 .10065E+09 .73635E+00 .13324E+01 .19537E+01 .58657E+01 .37147E+01 .35618E+00
 .45750E+01 .51373E+05 .28017E+04 .91414E-01 .85154E+00 .18321E+00 .57627E-01 .33216E+01 .92092E+07 .20327E+01 .59473E+01 .16272E+01 .45820E+01 .36677E+01 .37099E+01
 .39727E+01 .27186E+06 .67871E+04 .34517E+00 .16294E+00 .16026E+00 .11897E+00 .48740E+01 .58726E+08 .16007E+01 .43282E+01 .16799E+01 .51299E+01 .71623E+00 .28329E+01
 .13588E+02 .47707E+05 .22063E+05 .66064E+00 .54062E-01 .15196E+00 .15431E+00 .11874E+01 .80439E+08 .75346E+00 .62514E+01 .13965E+01 .46505E+01 .19624E+01 .59190E+01
 .13235E+02 .41051E+05 .19698E+05 .65214E+00 .44383E-01 .14038E+00 .13128E+00 .12009E+01 .79637E+08 .23030E+01 .20571E+01 .10718E+01 .40226E+01 .12907E+01 .24818E+01
 .51597E+01 .97452E+05 .23483E+05 .29970E-01 .74738E+00 .48470E-01 .11984E+00 .24891E+00 .14719E+08 .16284E+01 .60341E+01 .13163E+01 .13779E+00 .59184E+01 .50603E+01
 .50125E+01 .97722E+05 .58546E+05 .35945E+00 .61544E+00 .40826E-01 .50003E-01 .70180E+00 .58704E+08 .85292E+00 .25108E+01 .21595E+01 .60330E+01 .17609E+01 .19648E+01
 .92745E+01 .17205E+05 .81273E+04 .83558E+00 .94556E-02 .16838E+00 .11104E+00 .21772E+01 .13844E+09 .14938E+01 .11226E+01 .88274E+00 .56489E+01 .48533E+01 .18060E+01
 .95599E+01 .17426E+05 .93668E+04 .84087E+00 .11775E-02 .18563E+00 .10962E+00 .21830E+01 .77115E+08 .83035E+00 .11883E+01 .24665E+01 .27987E+01 .31853E+01 .30772E+01
 .92714E+01 .13397E+05 .23721E+04 .90151E+00 .10570E+00 .12730E+00 .14768E+00 .92536E+00 .12096E+09 .17823E+01 .39219E+01 .29147E+01 .58428E+01 .40339E+01 .20864E+01
 .84340E+01 .38577E+06 .34784E+04 .43282E+00 .92891E+00 .14820E+00 .10877E+00 .48498E+01 .12786E+09 .25660E+01 .48367E+01 .29062E+01 .48070E+01 .49153E+01 .54495E-02
 .57333E+01 .14652E+06 .24496E+05 .80320E+00 .93450E+00 .18596E+00 .17115E+00 .46458E+01 .67299E+08 .14940E+01 .24908E+01 .20790E+01 .41768E+01 .47511E+01 .30138E+01
 .39456E+01 .61775E+06 .11574E+04 .53020E+00 .20933E+00 .19994E+00 .13370E+00 .32673E+01 .12509E+09 .22711E+01 .11019E+01 .32657E+00 .40307E+01 .15887E+01 .40232E+01
 .13135E+02 .22538E+06 .41043E+04 .40908E+00 .23803E-01 .13335E+00 .14225E+00 .96070E+00 .11912E+08 .25244E+01 .47187E+01 .17204E+01 .49019E+00 .13732E+01 .11428E+01
 .12271E+02 .33764E+06 .15702E+06 .26833E+00 .23464E+00 .30795E-01 .17249E+00 .60686E+01 .54890E+08 .13299E+01 .59179E+01 .23549E+01 .53022E+01 .34916E+01 .43009E+01
 .50965E+01 .28225E+06 .69674E+05 .83883E+00 .63821E+00 .10775E+00 .17134E+00 .56840E+01 .69574E+08 .13191E+01 .54159E+01 .23638E+00 .47637E+01 .25785E+01 .34705E+01
 .11438E+02 .38885E+06 .38603E+06 .68196E+00 .38117E-01 .19784E+00 .15677E+00 .22290E+01 .13394E+09 .19714E+01 .13296E+01 .22807E+01 .25588E+01 .48284E+01 .54995E+01
 .93807E+01 .26158E+06 .46346E+05 .54492E+00 .38359E-01 .15173E+00 .17950E+00 .51147E+01 .54375E+08 .19466E+01 .55389E+01 .63707E+00 .50933E+01 .13115E+01 .63632E+00
 .15822E+02 .45752E+04 .12157E+04 .81599E+00 .90423E+00 .18762E+00 .12171E+00 .45774E+01 .10184E+09 .88362E+00 .50988E+01 .74331E+00 .22719E+01 .19633E+01 .28968E+00
 .89110E+01 .11548E+06 .90251E+05 .87615E+00 .10206E+00 .12367E+00 .14490E+00 .52879E+01 .64488E+08 .57668E+00 .18580E+01 .77629E+00 .55719E+01 .34677E+01 .19995E+01
 .55836E+01 .11531E+06 .10353E+06 .28169E+00 .99800E+00 .26616E+00 .14280E+00 .33252E+01 .70978E+08 .92383E+00 .19815E+01 .66154E+00 .19652E+01 .55173E+01 .10630E+01
 .87598E+01 .15044E+06 .30826E+05 .16882E+00 .66054E+00 .14525E+00 .27799E-01 .76490E+00 .97499E+08 .26751E+01 .43319E+01 .19735E+01 .42421E+01 .44344E+01 .76989E+00
 .76349E+01 .84183E+05 .40420E+05 .82525E+00 .99248E+00 .17110E+00 .17235E+00 .12210E+01 .15081E+09 .97571E+00 .22028E+01 .11932E+01 .19124E+01 .54657E+00 .38230E+01
 .13874E+02 .26990E+06 .13302E+06 .72982E+00 .32147E+00 .21173E+00 .13660E+00 .15276E+01 .62024E+08 .97252E+00 .15800E+00 .54680E+00 .22871E+01 .52003E+01 .25395E+01
 .16463E+02 .84509E+05 .10004E+05 .38847E+00 .71867E+00 .17794E+00 .11951E+00 .40414E+01 .14795E+09 .57302E+00 .58966E+01 .79915E+00 .42075E+01 .48177E+00 .94917E-01
 .67646E+01 .64256E+05 .78668E+05 .47661E+00 .53701E+00 .14280E+00 .10142E+00 .13638E+01 .85929E+08 .24550E+01 .12784E+01 .18574E+01 .42568E+01 .54450E+01 .75750E+00
 .46637E+01 .14704E+06 .48546E+05 .56855E+00 .16222E-02 .23334E+00 .13335E+00 .40785E+01 .14575E+09 .84860E+00 .61404E+01 .13671E+01 .11366E+01 .29419E+00 .34021E+01
 .83489E+01 .86744E+06 .23711E+06 .90707E+00 .23847E+00 .29124E+00 .14727E+00 .29869E+01 .35682E+06 .15756E+01 .31275E+01 .15553E+01 .10850E+01 .88765E+00 .44769E+01
 .18496E+02 .79889E+05 .52464E+05 .38990E+00 .97028E-01 .26436E+00 .12525E+00 .27527E+01 .14037E+09 .15300E+01 .61589E+00 .98055E+00 .59573E+01 .27486E+01 .33445E+01
 .82082E+01 .10993E+06 .23336E+05 .67748E+00 .47561E+00 .28468E+00 .17582E+00 .27603E+01 .22056E+08 .17293E+01 .80171E+00 .86973E+00 .58040E+01 .60633E+01 .11690E+01
 .64910E+01 .45475E+05 .24750E+05 .44934E+00 .24140E+00 .17528E+00 .11940E+00 .19800E+01 .47679E+08 .15371E+01 .22414E+01 .16767E+01 .51584E+01 .28618E+01 .44035E+01
 .14298E+02 .21511E+06 .34644E+05 .79434E+00 .68273E+00 .78579E-01 .11611E+00 .57507E+01 .10927E+09 .49372E+00 .50886E+01 .17796E+01 .30832E+01 .30109E+01 .28405E+01
 .13865E+02 .36813E+06 .35331E+06 .12177E+00 .79931E+00 .28409E+00 .12899E+00 .25387E+01 .40850E+08 .12931E+01 .47753E+01 .26091E+01 .42789E+01 .76546E+00 .10898E+01
 .65482E+01 .20653E+06 .48526E+05 .36422E+00 .36243E+00 .20624E+00 .85100E-01 .46106E+01 .23364E+08 .10098E+01 .15725E+01 .16889E+01 .60726E+01 .11568E+01 .62539E+01
 .12159E+02 .72853E+06 .99386E+05 .77001E+00 .67541E+00 .12957E+00 .64003E-01 .69083E+00 .19643E+08 .23449E+01 .61923E+01 .10315E+01 .34187E+01 .60909E+00 .29795E+01
 .42526E+01 .10729E+06 .48980E+04 .89250E+00 .71384E+00 .15052E+00 .29397E-01 .34691E+01 .28393E+08 .20209E+01 .28888E+01 .28458E+01 .15428E+01 .34294E+00 .36227E+01
 .57890E+01 .20433E+06 .95694E+05 .15013E+00 .21951E+00 .21610E+00 .62526E-01 .20493E+01 .44272E+08 .21537E+01 .50501E+01 .10777E+01 .60465E+01 .19674E+01 .83535E+00
 .55911E+01 .18338E+06 .89068E+05 .15718E+00 .20775E+00 .23704E+00 .63427E-01 .20465E+01 .16334E+08 .24436E+01 .43838E+01 .11810E+01 .19518E+01 .22714E+01 .40942E+01
 .11775E+02 .44008E+04 .12554E+04 .17181E+00 .50271E+00 .14693E+00 .42774E-01 .23614E+01 .10665E+08 .41789E+00 .20746E+00 .49097E+00 .50940E+01 .32602E+01 .62636E+01
 .46920E+01 .29527E+06 .66873E+05 .46424E+00 .80736E+00 .17050E+00 .79447E-01 .15311E+01 .57799E+08 .27829E+01 .32906E+01 .44623E+00 .48315E+01 .18026E+01 .59690E+01
 .43963E+01 .41227E+06 .72785E+05 .90573E+00 .21664E+00 .78206E-01 .14952E+00 .58555E+01 .46230E+08 .28729E+00 .29867E+00 .25825E+01 .53578E+01 .57423E+01 .13327E+01
 .99360E+01 .71260E+05 .51912E+04 .54507E+00 .56755E+00 .16470E+00 .14219E+00 .27183E+01 .54848E+08 .72673E+00 .20693E+01 .18105E+01 .59979E+00 .27678E+00 .34611E+01
 .13866E+02 .24041E+05 .10564E+04 .27731E-01 .47097E+00 .14458E+00 .10885E+00 .19484E+01 .89421E+08 .19551E+01 .94343E+00 .29147E+01 .57320E+01 .66820E+00 .22129E+01
 .13591E+02 .12670E+05 .10765E+04 .14760E-01 .46997E+00 .13913E+00 .11303E+00 .19487E+01 .51700E+08 .19680E+01 .48330E+01 .82355E+00 .43524E+01 .60974E+01 .27073E+01
 .15010E+02 .44097E+05 .19514E+05 .28500E+00 .24193E+00 .19068E+00 .13979E+00 .49591E+01 .11714E+09 .22389E+01 .10427E+01 .10085E+01 .31419E+01 .46453E+00 .27917E+00
 .11356E+02 .10801E+06 .11418E+05 .61678E+00 .33766E+00 .94275E-01 .38211E-01 .55961E+01 .25603E+08 .51260E+00 .33690E+01 .20903E+01 .11645E+01 .80385E+00 .62196E+01
 .70207E+01 .21149E+06 .13517E+05 .92310E+00 .10276E+00 .17854E+00 .16039E+00 .15842E+01 .55485E+08 .24806E+01 .36725E+00 .14539E+01 .57638E+01 .15548E+01 .59429E+01
 .26511E+01 .69150E+05 .32313E+05 .57736E+00 .99800E+00 .15314E+00 .94859E-01 .34467E+01 .49851E+08 .15802E+01 .16049E+01 .17821E+01 .48992E+01 .56866E+01 .30965E+01
 .56503E+01 .37164E+05 .82058E+03 .78569E+00 .21477E-01 .18450E+00 .70186E-01 .47452E+01 .36180E+08 .69985E+00 .21180E+01 .15864E+01 .58797E+01 .36542E+01 .29064E+01
 .27920E+01 .81757E+05 .21404E+04 .43521E+00 .75553E+00 .24308E+00 .11812E+00 .20109E+01 .14736E+09 .44904E+00 .20213E+01 .22317E+01 .14885E+01 .50339E+01 .71442E+00
 .18313E+01 .12296E+06 .63923E+05 .40377E+00 .28647E+00 .82933E-01 .17252E+00 .38851E+00 .93268E+08 .96591E+00 .26054E+01 .13431E+01 .22641E+01 .19613E+01 .24232E+01
 .81273E+01 .28680E+06 .17963E+06 .31427E-01 .98012E+00 .88717E-01 .11247E+00 .59018E+01 .52698E+08 .53311E+00 .47044E+01 .23316E+01 .11618E+00 .61557E+01 .56248E+01
 .34866E+01 .53268E+06 .11010E+05 .66101E+00 .88694E+00 .59706E-01 .64159E-01 .57625E+01 .63880E+08 .95211E+00 .57268E+01 .21242E+01 .45024E+00 .37088E+01 .32559E+01
 .97726E+01 .27434E+06 .12629E+06 .96209E+00 .25073E+00 .12734E+00 .69218E-01 .14412E+01 .10378E+09 .27264E+01 .56455E+01 .21298E+01 .36333E+01 .21663E+01 .57821E+01
 .96453E+01 .30728E+06 .62826E+05 .75879E+00 .79941E+00 .10381E+00 .14220E+00 .53563E+01 .67633E+08 .94989E+00 .35846E+01 .99720E+00 .61672E+01 .17272E+01 .28919E+01
 .95791E+01 .46217E+06 .68326E+05 .97183E+00 .86403E+00 .12516E+00 .29201E-01 .52268E+01 .39354E+08 .28324E+01 .48181E+01 .23333E+01 .26787E+01 .44368E+01 .57864E+01
 .83039E+01 .27574E+06 .31737E+06 .46308E+00 .17037E-01 .60365E-01 .15442E+00 .59000E+01 .91880E+08 .29407E+01 .44486E+01 .69090E+00 .31105E+01 .27855E+01 .38514E+01
 .67558E+01 .41085E+06 .23881E+05 .15557E+00 .97442E+00 .12796E+00 .15385E+00 .51919E+01 .96062E+08 .22479E+01 .35712E+01 .23210E+01 .25635E+01 .28771E+01 .28011E+01
 .21241E+01 .23051E+05 .27542E+05 .83129E+00 .55976E+00 .17208E+00 .17916E+00 .50924E+01 .10700E+08 .29374E+01 .53045E+01 .17120E+01 .66328E+00 .83607E-01 .48122E+01
 .14584E+02 .26998E+05 .15956E+05 .74914E-01 .96712E+00 .92004E-01 .14437E+00 .46131E+00 .86534E+08 .67177E+00 .26463E+01 .16628E+01 .10841E+01 .27140E+01 .38827E+01
 .67909E+01 .76024E+05 .38571E+05 .89407E+00 .54995E+00 .90009E-01 .58815E-01 .51491E+01 .22712E+08 .23252E+01 .57251E+01 .24059E+01 .30715E+01 .38018E+01 .55106E+01
 .86603E+01 .16404E+06 .11026E+06 .61214E+00 .89381E+00 .12667E+00 .70043E-01 .53806E+01 .91414E+08 .24858E+01 .54895E+01 .24134E+01 .37132E+01 .48198E+00 .54367E+01
 .12616E+01 .26824E+07 .45822E+05 .99800E+00 .99800E+00 .12739E+01 .28033E+01 .48202E+01 .14265E+09 .21501E+00 .19554E+01 .13722E+01 .32811E+01 .23640E+00 .11012E+01
 .83871E+01 .37990E+05 .21888E+05 .44397E+00 .99800E+00 .20064E+00 .10654E+00 .16018E+01 .63960E+08 .28789E+01 .58934E+01 .21106E+01 .21260E+01 .11484E+01 .35312E+01
 .12444E+02 .51664E+05 .23609E+05 .61392E+00 .57676E-01 .17052E+00 .10841E+00 .43386E+01 .68633E+08 .21015E+01 .27863E+01 .43994E+00 .43755E+00 .11342E+01 .26539E+01
 .12581E+02 .47452E+05 .35601E+05 .96892E+00 .48599E+00 .17867E+00 .10832E+00 .33157E+01 .65663E+07 .18405E+01 .11982E+01 .76534E+00 .26678E+01 .30558E+01 .50058E+01
 .15533E+01 .39548E+06 .58071E+05 .85419E+00 .99800E+00 .22319E+00 .11943E+00 .25569E+01 .55395E+08 .11228E+01 .70852E+00 .24001E+01 .48712E+01 .38542E+01 .19092E-01
 .16423E+02 .23711E+05 .13157E+04 .85743E-01 .74787E+00 .84086E-01 .14538E+00 .57733E+01 .25762E+08 .22098E+01 .11104E+00 .74592E+00 .21967E+01 .34047E+01 .15296E+01
 .40232E+01 .15086E+05 .77021E+04 .86717E+00 .42491E+00 .23367E+00 .10020E+00 .21879E+01 .50938E+08 .17313E+01 .40509E+00 .14367E+01 .47305E+01 .11015E+01 .32322E+00
 .74144E+01 .66412E+06 .12844E+04 .49484E+00 .32293E+00 .19906E+00 .17337E+00 .45449E+01 .10836E+09 .21562E+01 .26435E+00 .15892E+01 .37983E+01 .18318E+01 .20022E+01
 .85807E+01 .20447E+06 .15116E+06 .14051E+00 .93787E+00 .16724E+00 .10636E+00 .22237E+01 .15653E+09 .19194E+01 .66649E+00 .12225E+01 .22936E+01 .12361E+01 .55834E+01
 .14427E+02 .43280E+06 .22623E+06 .85428E-01 .41220E+00 .15018E+00 .18662E+00 .98547E+00 .13618E+09 .16479E+01 .32554E+01 .16114E+01 .17888E+01 .24567E+01 .10302E+01
 .74920E+01 .16771E+06 .55614E+04 .55029E+00 .25477E+00 .11447E+00 .75633E-01 .37959E+01 .14387E+09 .14392E+01 .59805E+01 .65519E+00 .49099E+01 .12692E+01 .54843E+01
 .21169E+01 .85369E+05 .81946E+04 .26632E+00 .99800E+00 .17124E+00 .15658E+00 .15062E+01 .34129E+08 .23488E+01 .56318E+01 .12786E+01 .59485E+01 .21681E+01 .45731E+01
 .13881E+02 .13413E+06 .24844E+05 .35473E+00 .57500E-01 .12332E+00 .30623E-02 .47492E+01 .13000E+09 .14464E+01 .21216E+01 .16533E+01 .58561E+00 .24087E+01 .27436E+01
 .11143E+02 .44138E+05 .29059E+05 .64629E+00 .56580E+00 .10675E+00 .13664E+00 .10052E+01 .11351E+09 .17928E+01 .35296E+01 .28521E+01 .50030E+01 .27468E+01 .40853E+01
 .75749E+01 .34743E+06 .16731E+06 .19840E+00 .56219E+00 .21165E+00 .17014E+00 .21654E+01 .13596E+09 .14224E+01 .43143E+01 .26677E+01 .47635E+01 .31620E+01 .62524E+01
 .12674E+02 .47669E+06 .29333E+05 .49443E-01 .54096E+00 .35593E-01 .13205E+00 .60966E+01 .52093E+08 .26932E+01 .12407E+01 .75377E+00 .52186E+01 .55052E+01 .40860E+01
 .86681E+01 .47326E+05 .26030E+04 .55045E+00 .95794E+00 .22305E+00 .15650E+00 .15812E+01 .10765E+09 .12375E+01 .46296E+01 .12131E+01 .24088E+01 .52543E+01 .13413E+01
 .11848E+01 .43491E+06 .10671E+06 .98759E+00 .51819E+00 .99876E-01 .15947E+00 .62765E+01 .10853E+09 .15082E+01 .35316E+01 .89449E+00 .19058E+01 .55066E+01 .58867E+01
 .94495E+01 .36087E+06 .27517E+06 .85581E-01 .40778E+00 .15273E+00 .11776E+00 .27814E+01 .12487E+08 .18205E+01 .45080E+00 .21016E+01 .28958E-01 .34079E+01 .19657E+01
 .14367E+02 .23436E+06 .29039E+06 .70682E+00 .61672E+00 .17001E+00 .90409E-01 .49705E+01 .11318E+08 .18674E+01 .15983E+00 .24019E+01 .38432E+01 .55054E+01 .89311E+00
 .49880E+01 .26115E+06 .18849E+06 .88204E+00 .99800E+00 .69894E-01 .92388E-01 .61847E+01 .15167E+09 .15405E+01 .13230E+01 .39870E+00 .36466E+01 .42954E+00 .32769E+01
 .11883E+01 .37042E+08 .33894E+07 .27570E+00 .97181E+00 .16308E+01 .23628E+01 .26986E+01 .13108E+08 .13196E+01 .45923E+01 .18136E+01 .69679E+00 .59883E+01 .42336E+01
 .13365E+02 .68522E+05 .34798E+05 .20097E+00 .71823E+00 .20572E-01 .17984E+00 .30327E-01 .13937E+09 .22881E+01 .39586E+01 .20419E+01 .13430E+01 .12765E+01 .20406E+01
 .53599E+01 .89536E+05 .24428E+05 .84430E+00 .43734E+00 .26687E+00 .14261E+00 .39625E+01 .15521E+09 .16442E+01 .50371E+00 .15804E+01 .56568E+01 .62421E+01 .55172E+01
 .85357E+01 .84641E+05 .29404E+05 .69823E+00 .56586E+00 .27362E+00 .20299E+00 .44470E+01 .13187E+09 .21614E+01 .28183E+01 .19250E+01 .35780E+01 .59499E+01 .56203E+01
 .73669E+01 .22528E+06 .62544E+04 .19791E+00 .25186E+00 .30229E+00 .16743E+00 .21200E+01 .58680E+08 .10750E+01 .52775E+00 .25054E+01 .36793E+01 .49226E+01 .46626E+01
 .15614E+02 .16414E+05 .11027E+05 .50882E-01 .94145E+00 .92151E-01 .15520E+00 .64144E+00 .56954E+08 .29280E+01 .15617E+01 .51752E+00 .44500E+01 .27648E+01 .54234E+01
 .12205E+02 .24780E+06 .17503E+06 .18788E+00 .80182E+00 .15541E+00 .89237E-01 .51536E+01 .10683E+09 .24485E+01 .45515E+01 .24666E+01 .49904E+00 .11427E+01 .23659E+01
 .10798E+02 .14697E+06 .26693E+05 .12715E+00 .25036E+00 .19899E+00 .16004E+00 .42127E+01 .50768E+08 .57449E+00 .35716E+01 .24766E+01 .18790E+01 .30350E+01 .28625E+01
 .17946E+02 .20967E+06 .14728E+04 .17559E+00 .48373E+00 .26362E+00 .17056E+00 .19208E+01 .63908E+08 .13299E+01 .23141E+01 .14644E+01 .11828E+00 .45090E+01 .51642E+01
 .10381E+02 .34928E+06 .93609E+05 .36763E+00 .42664E+00 .17587E+00 .75297E-01 .26077E+01 .26291E+08 .10050E+01 .13190E+00 .12232E+01 .74605E+00 .10270E+01 .61664E+00
 .75348E+01 .40978E+06 .22612E+06 .19917E+00 .94102E+00 .10647E+00 .25840E-01 .16670E+01 .13691E+09 .22442E+01 .55656E+01 .26584E+01 .25667E+01 .44522E+01 .53613E+01
 .16910E+02 .13894E+06 .47727E+05 .80503E-01 .91176E+00 .82970E-02 .99219E-01 .61120E+01 .90400E+08 .13475E+01 .43316E+01 .13153E+01 .18962E+01 .10833E+01 .22285E+01
 .15802E+02 .14666E+06 .78305E+05 .86133E+00 .79553E+00 .25230E+00 .15107E+00 .41473E+01 .55718E+08 .21840E+01 .17393E+01 .10725E+01 .26297E+01 .18996E+01 .48433E+01
 .47758E+01 .58426E+06 .18232E+06 .51738E-01 .76295E+00 .17075E+00 .17251E+00 .12102E+01 .82297E+08 .23152E+01 .42042E+01 .12750E+01 .12144E+01 .49551E+01 .46796E+01
 .10566E+02 .15337E+06 .55177E+05 .73724E+00 .71576E+00 .10017E+00 .11537E+00 .25949E+00 .21538E+08 .86849E+00 .32034E+01 .10351E+01 .46580E+01 .11856E+01 .83256E+00
 .65385E+01 .21893E+05 .81533E+04 .21783E+00 .69486E+00 .26129E+00 .13439E+00 .29786E+01 .14197E+09 .20134E+01 .47615E+01 .96761E+00 .27595E+01 .59599E+01 .59525E+01
 .10040E+02 .24115E+06 .29974E+05 .87480E+00 .37952E-01 .99346E-01 .46458E-01 .13752E+01 .19999E+08 .57921E+00 .46957E+01 .12339E+01 .27160E+01 .53510E+01 .58258E+01
 .25439E+01 .52715E+07 .50667E+06 .82042E+00 .99800E+00 .12269E+00 .50490E-01 .55663E+01 .14616E+09 .25309E+01 .61143E+01 .73631E+00 .12333E+01 .62271E+01 .25965E+01
 .64151E+01 .75618E+06 .80903E+06 .99800E+00 .99800E+00 .16742E+00 .64206E-01 .16100E+01 .41199E+08 .50925E+00 .59957E+01 .20981E+01 .41467E+01 .17120E+01 .34501E+01
 .70322E+01 .48822E+05 .18300E+04 .74231E+00 .80421E+00 .10966E+00 .14583E+00 .51667E+01 .14278E+09 .16217E+01 .59688E+01 .88153E+00 .29307E+01 .60324E+01 .30420E+01
 .79600E+01 .33561E+04 .12109E+04 .20238E+00 .78512E+00 .25470E+00 .16056E+00 .45352E+01 .12158E+09 .14899E+01 .19480E+01 .17583E+01 .39902E+01 .71459E+00 .23118E+01
 .43845E+01 .12301E+06 .10105E+05 .58610E+00 .12718E+00 .19977E+00 .13738E+00 .43182E+01 .71496E+08 .21758E+01 .48288E+01 .56268E+00 .23270E+00 .49296E+01 .49515E+01
 .11633E+02 .39678E+05 .51961E+04 .46112E+00 .97597E+00 .16406E+00 .17717E+00 .51338E+01 .34800E+07 .19591E+01 .29601E+01 .16814E+01 .44036E+01 .23980E+01 .43634E+01
 .19996E+01 .18968E+06 .12257E+05 .60911E+00 .99800E+00 .23264E+00 .16394E+00 .44679E+01 .79114E+08 .16796E+01 .36507E+01 .13937E+01 .38155E+01 .47162E+01 .24858E+01
 .11045E+02 .36447E+05 .13221E+04 .65238E+00 .37057E+00 .20178E+00 .17395E+00 .45322E+01 .43257E+08 .19507E+01 .15411E+01 .15242E+01 .25830E+01 .16679E+01 .43899E+01
 .63777E+01 .10530E+05 .91102E+04 .57750E+00 .17431E+00 .22720E+00 .84298E-01 .29982E+01 .14946E+09 .17944E+01 .41639E+01 .15954E+01 .57943E+01 .62657E+01 .17785E+01
 .36515E+01 .31891E+05 .47125E+04 .30846E+00 .31192E-01 .25773E+00 .13876E+00 .26268E+01 .77067E+08 .18724E+01 .44329E+01 .22993E+01 .32074E+01 .14789E+01 .27905E+01
 .48291E+01 .15215E+06 .77310E+04 .26015E+00 .96914E-01 .18417E+00 .49268E-01 .21805E+01 .47721E+08 .16971E+01 .46630E+01 .84622E+00 .52738E+01 .47720E+01 .12146E+01
 .42202E+01 .42927E+05 .29095E+05 .40366E-01 .49282E+00 .13939E+00 .11979E+00 .90682E+00 .20556E+08 .18067E+01 .49404E+01 .24612E+01 .36177E+01 .32204E+01 .13097E+01
 .40121E+01 .41892E+05 .41732E+05 .11840E-01 .49210E+00 .15363E+00 .12340E+00 .92514E+00 .39326E+08 .20174E+01 .13754E+01 .86614E+00 .37184E+01 .21277E+01 .44062E+01
 .10101E+02 .41234E+05 .59568E+04 .59337E+00 .37109E+00 .21237E+00 .15914E+00 .30351E+01 .49232E+08 .15330E+01 .25112E+01 .18973E+01 .18121E+01 .65514E+00 .15038E+01
 .88124E+01 .75293E+05 .21753E+04 .47258E+00 .11050E+00 .10591E+00 .11074E+00 .50512E+01 .12293E+09 .93583E+00 .26026E+00 .92701E+00 .49121E+01 .21790E+01 .17360E+01
 .17317E+01 .79099E+05 .44201E+05 .98660E+00 .33467E+00 .14996E+00 .12895E+00 .13048E+01 .11245E+09 .13465E+01 .52903E+00 .20595E+01 .30448E+01 .47030E+01 .36459E+01
 .41229E+01 .36669E+05 .24152E+05 .11129E+00 .33194E-01 .21497E+00 .16031E+00 .12982E+01 .75865E+08 .17964E+01 .25938E+01 .12764E+01 .31451E+01 .23027E+01 .62748E+01
 .26813E+01 .18584E+06 .63057E+04 .86122E+00 .99800E+00 .20780E+00 .88370E-01 .34555E+01 .79582E+08 .18037E+01 .24458E+01 .25123E+01 .62105E+01 .22433E+01 .29068E+01
 .12483E+02 .20158E+06 .31469E+05 .25645E-01 .10287E+00 .68333E-01 .71869E-01 .12053E+01 .32906E+08 .89928E+00 .35784E+01 .19567E+01 .21407E+01 .58258E+01 .12718E+01
 .12943E+02 .20375E+06 .39926E+05 .25401E-01 .10735E+00 .72975E-01 .80381E-01 .12048E+01 .11192E+09 .15186E+01 .62108E+01 .41376E+00 .34044E+00 .18584E+01 .34052E+00
 .10194E+02 .84282E+05 .15731E+05 .40369E+00 .62597E+00 .52132E-01 .71621E-01 .14593E+00 .11808E+09 .25486E+01 .54584E+01 .18793E+01 .52396E+01 .56504E+01 .48400E+01
 .36508E+01 .12191E+05 .29673E+04 .32370E+00 .99800E+00 .18176E+00 .59366E-01 .45015E+01 .38101E+07 .32816E+00 .33022E+01 .20189E+01 .29655E+01 .89126E+00 .47712E+01
 .11952E+02 .16619E+06 .23357E+04 .14829E+00 .79159E+00 .42837E-01 .15779E+00 .38222E+00 .17851E+08 .27237E+01 .95886E+00 .17697E+01 .59974E+01 .61727E+01 .41025E+01
 .25688E+01 .20491E+05 .11956E+05 .90850E+00 .96946E+00 .34503E-01 .11590E+00 .61515E+01 .20749E+08 .10993E+01 .48742E+01 .29113E+01 .44830E+01 .10173E+01 .67411E+00
 .48674E+01 .99254E+05 .48516E+04 .34603E+00 .95696E+00 .14749E-01 .15580E+00 .18522E+00 .24791E+08 .15933E+01 .58132E+01 .25206E+01 .59142E+01 .56418E+01 .42313E+01
 .37324E+01 .45392E+05 .11649E+05 .30768E+00 .98010E+00 .27718E+00 .15156E+00 .37019E+01 .10631E+09 .18172E+01 .61244E+01 .23163E+01 .17994E+01 .61861E+01 .39836E+01
 .70609E+01 .38129E+06 .37968E+05 .65971E+00 .59090E+00 .54804E-01 .11369E+00 .43896E+00 .13760E+09 .12249E+01 .86233E-01 .22487E+01 .11682E+01 .13932E+01 .51611E+01
 .12470E+02 .77023E+05 .20392E+05 .27530E+00 .57063E+00 .21862E+00 .17771E+00 .48617E+01 .96432E+08 .28754E+01 .21903E+01 .11234E+01 .49978E+01 .97715E-01 .57292E+01
 .44763E+01 .36500E+05 .13289E+05 .51821E+00 .80198E+00 .15476E+00 .16292E+00 .11795E+01 .85466E+08 .19581E+01 .14543E+00 .88592E+00 .21088E+00 .16382E+01 .45232E+01
 .32620E+01 .68261E+05 .39118E+05 .99800E+00 .99800E+00 .49125E-01 .16027E+00 .38137E+00 .13677E+07 .40020E+00 .22747E+01 .19286E+01 .46986E+01 .86614E+00 .34488E+01
 .13895E+02 .20485E+05 .21853E+05 .22515E+00 .46269E+00 .18145E+00 .86980E-01 .15506E+01 .90111E+08 .20795E+01 .22476E+01 .27196E+00 .26072E+01 .26913E+01 .49924E+01
 .10592E+02 .15015E+06 .60109E+05 .65618E+00 .74179E+00 .12285E+00 .90699E-01 .17622E+01 .12755E+09 .69623E+00 .78185E+00 .18070E+01 .38255E+01 .59377E+01 .32894E+01
 .71802E+01 .47573E+05 .47170E+05 .91753E-01 .99800E+00 .12461E+00 .95032E-01 .53324E+01 .89531E+08 .80350E+00 .20881E+01 .79821E+00 .42242E+01 .58997E+01 .69358E-01
 .19476E+02 .45896E+06 .73415E+05 .16324E+00 .53320E+00 .19258E+00 .83178E-01 .45417E+01 .12533E+09 .27407E+01 .59706E+01 .19155E+01 .40558E+01 .25149E+01 .29804E+01
 .29375E+01 .10934E+06 .79903E+04 .99800E+00 .77701E-01 .14520E+00 .47432E-01 .16749E+01 .15728E+09 .12559E+01 .29402E+01 .16174E+01 .62003E+00 .42292E+01 .59188E+01
 .12427E+02 .16883E+06 .22168E+04 .75628E+00 .96054E+00 .21906E+00 .15718E+00 .45738E+01 .80091E+08 .16322E+01 .67081E+00 .69442E+00 .59760E+01 .83104E+00 .61176E+01
 .11221E+02 .98229E+05 .93444E+04 .15657E+00 .10187E+00 .23442E+00 .15491E+00 .18991E+01 .69367E+08 .58234E+00 .30840E+01 .10615E+01 .10417E+00 .31762E+01 .45869E+01
 .42127E+01 .82347E+05 .45003E+05 .93522E+00 .38253E+00 .33658E-01 .79422E-01 .57791E+01 .83835E+06 .20954E+01 .57875E+01 .58748E+00 .22815E+01 .50428E+01 .23217E+01
 .40973E+01 .48657E+06 .30961E+06 .92908E+00 .66092E+00 .65315E-01 .12100E+00 .18644E+00 .33064E+08 .99448E+00 .38733E+01 .23011E+01 .29956E+01 .62599E+00 .51720E+01
 .15424E+02 .28474E+05 .44384E+04 .48874E+00 .33033E+00 .43477E-01 .72292E-01 .14084E-01 .13523E+08 .20688E+01 .17354E+01 .19100E+01 .35329E+01 .46271E+01 .38793E+01
 .84014E+01 .90139E+05 .41585E+05 .35707E+00 .64796E-01 .16323E+00 .87484E-01 .15838E+01 .28731E+08 .32618E+00 .40649E+01 .28403E+01 .45152E+01 .37749E+00 .47050E+01
 .39406E+01 .50261E+05 .16503E+05 .99800E+00 .22250E+00 .72492E-01 .14679E+00 .58968E+01 .14478E+09 .18978E+01 .55892E+01 .21598E+01 .37749E+01 .41854E+01 .39136E+01
 .16670E+02 .49363E+06 .44339E+05 .11819E+00 .77423E+00 .82929E-01 .44422E-01 .51451E+00 .15464E+09 .19260E+01 .47456E+01 .14564E+01 .51409E+00 .27125E+01 .62262E+01
 .15718E+02 .50478E+05 .55845E+04 .72141E+00 .26675E+00 .19896E+00 .14345E+00 .44500E+01 .71914E+08 .12432E+01 .34983E+01 .21994E+01 .57126E+01 .34077E+00 .10604E+01
 .49589E+01 .32165E+06 .55726E+05 .53006E+00 .10226E+00 .10815E+00 .10803E+00 .21289E+00 .35730E+08 .14026E+01 .48115E+01 .32696E+00 .22735E+01 .55903E+01 .41977E+01
 .10853E+02 .59555E+06 .15217E+06 .47819E+00 .12143E+00 .15605E+00 .15884E+00 .10144E+01 .55590E+08 .11350E+01 .27289E+01 .32774E+00 .25499E+01 .45755E+00 .37473E+00
 .96476E+01 .49425E+06 .18825E+06 .25304E+00 .36944E+00 .25852E+00 .17755E+00 .45040E+01 .29228E+08 .50653E+00 .38905E+01 .16844E+01 .54929E+01 .37597E+00 .48811E+01
 .33084E+01 .43844E+04 .10120E+04 .99800E+00 .60124E+00 .27215E+00 .14093E+00 .43877E+01 .85572E+07 .85042E+00 .15740E+01 .16021E+01 .40942E+01 .23675E+01 .97911E+00
 .84927E+01 .83299E+05 .52767E+05 .69521E+00 .13334E+00 .12151E+00 .78913E-01 .48914E+01 .10065E+09 .10813E+01 .15775E+01 .84611E+00 .54539E+01 .38995E+01 .59341E+01
 .18074E+02 .55802E+04 .32451E+04 .63091E+00 .53896E+00 .64427E-01 .95334E-01 .79985E+00 .11784E+09 .20224E+01 .57150E+01 .15405E+01 .39310E+01 .59585E+01 .26292E+01
 .96460E+01 .57589E+06 .41927E+04 .84710E+00 .98653E+00 .20133E+00 .10040E+00 .18197E+01 .15572E+09 .15006E+01 .11372E+01 .65056E+00 .22253E+01 .95174E+00 .12224E+00
 .81077E+01 .15112E+05 .14555E+05 .56953E+00 .83557E+00 .10284E+00 .11282E+00 .10664E+01 .14608E+09 .11726E+01 .12961E+01 .18519E+01 .62312E+01 .51969E+01 .48586E+01
 .11726E+02 .20779E+06 .21398E+06 .17350E+00 .70613E+00 .24095E+00 .73232E-01 .26370E+01 .93829E+08 .12780E+01 .24613E+01 .17440E+01 .83302E+00 .43950E+01 .25076E+01
 .12475E+02 .28151E+05 .36544E+04 .60797E+00 .65816E+00 .65490E-01 .13788E+00 .39496E+00 .29440E+08 .12331E+01 .13134E+01 .24528E+01 .60394E+01 .11381E+01 .37732E+01
 .10973E+02 .22988E+06 .21913E+06 .57015E+00 .72066E+00 .11945E+00 .13133E+00 .77471E+00 .28554E+08 .89352E+00 .70560E+00 .12800E+01 .15192E+00 .62653E+01 .50555E+01
 .12178E+02 .28970E+05 .11212E+04 .45810E-01 .25668E+00 .18098E+00 .15525E+00 .16092E+01 .11844E+09 .22708E+01 .78718E+00 .13458E+01 .12216E+01 .35478E+01 .38837E+01
 .93876E+01 .39695E+06 .79396E+05 .86738E-01 .82154E+00 .15644E+00 .13283E+00 .13830E+01 .94498E+08 .13622E+01 .10186E+01 .53768E+00 .52139E+01 .18303E+01 .12973E+01
 .43866E+01 .29577E+06 .29645E+05 .21325E+00 .15924E+00 .10778E+00 .64833E-01 .56103E+01 .77263E+08 .18873E+01 .57131E+01 .62500E+00 .27991E+01 .41743E+01 .14561E+01
 .40868E+01 .33715E+06 .41006E+06 .91078E+00 .99800E+00 .51157E-01 .77758E-01 .11784E+01 .11972E+09 .20247E+01 .40012E+01 .13789E+01 .60432E+01 .12448E+01 .19358E+01
 .16157E+02 .63029E+05 .62374E+05 .67412E+00 .40778E+00 .53138E-01 .19255E+00 .24747E+00 .67490E+08 .27804E+01 .35753E+00 .20101E+01 .62452E+01 .49893E+01 .48074E+01
 .28537E+01 .26036E+07 .17159E+05 .96007E+00 .66207E+00 .12645E+00 .10932E+00 .12637E+01 .87096E+08 .15889E+01 .14088E+01 .19478E+01 .50823E+01 .18856E+01 .28900E+01
 .29134E+01 .19430E+06 .12378E+06 .51173E+00 .69575E+00 .24490E+00 .79307E-01 .31845E+01 .15162E+09 .19128E+01 .21472E+01 .73495E+00 .44572E+01 .22077E+01 .49338E+01
 .10513E+02 .28754E+06 .14609E+06 .80629E+00 .59162E+00 .56805E-01 .66004E-01 .53238E+01 .17360E+08 .75895E+00 .26990E+01 .21995E+01 .29678E+01 .59046E+01 .28469E+01
 .11791E+02 .11407E+06 .42909E+05 .43778E-01 .71749E+00 .15962E+00 .28986E-01 .53375E+01 .68186E+08 .13860E+01 .12214E+01 .20033E+01 .58140E+01 .44928E+01 .34277E+01
 .56924E+01 .35980E+06 .41085E+05 .26937E+00 .21163E+00 .18038E+00 .10752E+00 .40369E+01 .49230E+08 .25836E+01 .46297E+01 .64905E+00 .61106E+01 .39008E+01 .14191E+01
 .14249E+02 .32091E+05 .17219E+05 .18179E+00 .89758E+00 .73879E-01 .79137E-01 .55351E+01 .11823E+08 .17304E+01 .22281E+01 .19853E+01 .79565E+00 .37828E+01 .28407E+01
 .13968E+02 .20998E+06 .66079E+05 .24977E-01 .84704E+00 .20139E+00 .12963E+00 .38442E+01 .15579E+09 .11214E+01 .58709E+01 .31658E+00 .29390E+01 .13926E+01 .14327E+01
 .10850E+02 .26977E+05 .77348E+04 .62839E+00 .92154E+00 .24488E+00 .17287E+00 .16452E+01 .10455E+09 .27325E+01 .46882E+01 .13578E+01 .32500E+01 .60906E+01 .55027E+01
 .36981E+01 .10074E+07 .10426E+06 .99800E+00 .27968E+00 .13129E+00 .12246E+00 .47204E+01 .14573E+08 .17581E+01 .14596E+01 .25296E+01 .43350E+01 .41507E+01 .16277E+01
 .14659E+02 .46722E+05 .39051E+04 .28762E+00 .92159E+00 .20014E+00 .66169E-01 .23122E+01 .15033E+09 .14808E+01 .15913E+01 .25389E+01 .58120E+01 .36148E+01 .81515E+00
 .14097E+02 .12157E+06 .94747E+05 .70496E-01 .47904E+00 .72068E-01 .16062E+00 .47945E+00 .15224E+09 .49192E+00 .50668E+01 .70380E+00 .29703E+01 .58335E+01 .44532E+01
 .14386E+02 .16572E+06 .13481E+06 .93025E+00 .38191E-01 .13638E+00 .14010E+00 .95929E+00 .11540E+09 .15274E+01 .56547E+01 .16628E+01 .14424E+01 .41565E+01 .45882E+01
 .14354E+01 .47106E+05 .19121E+05 .96437E-01 .77630E+00 .81031E-01 .16300E+00 .44654E+00 .11813E+09 .16742E+01 .39469E+01 .24739E+01 .35430E+01 .24674E+01 .14091E+01
 .13783E+01 .50221E+05 .18548E+05 .11393E+00 .77274E+00 .82354E-01 .15754E+00 .43517E+00 .13021E+09 .13212E+01 .31018E+01 .33466E+00 .41189E+00 .17597E+01 .35783E+01
 .84276E+01 .48683E+05 .14445E+05 .72449E+00 .43711E+00 .13354E+00 .15601E+00 .53747E+01 .12913E+09 .16896E+01 .33659E+01 .55874E+00 .15484E+01 .12983E+01 .43650E+01
 .11906E+02 .14314E+05 .20634E+05 .26536E+00 .20429E+00 .17124E+00 .17331E+00 .49622E+01 .54803E+08 .12169E+01 .61260E+01 .17879E+01 .92022E+00 .48637E+01 .19484E+01
 .39994E+01 .32655E+05 .37685E+05 .16997E+00 .20464E+00 .47232E+00 .17368E+01 .47344E+00 .11356E+09 .15500E+01 .61027E+01 .10343E+01 .54835E+01 .50146E+01 .45759E+01
 .21569E+01 .10121E+05 .97432E+04 .65682E+00 .82029E+00 .70488E-01 .60107E-01 .91437E+00 .13298E+09 .23138E+01 .15891E+01 .23603E+01 .81813E+00 .11438E+01 .25791E+01
 .24333E+01 .30997E+05 .10535E+05 .13782E+00 .39212E+00 .67445E-01 .13695E+00 .64222E+00 .50538E+08 .79889E+00 .21180E+01 .23106E+01 .14587E+00 .24927E+00 .33069E+01
 .38844E+01 .22221E+06 .31912E+05 .59784E+00 .91589E+00 .40753E-01 .17504E+00 .59987E+01 .13828E+09 .15209E+01 .68686E+00 .11313E+01 .42163E+01 .43515E+01 .39029E+00
 .27234E+01 .12558E+06 .30038E+05 .67937E+00 .28284E+00 .22030E+00 .13570E+00 .42534E+01 .12317E+09 .10778E+01 .22775E+01 .12348E+01 .31066E+01 .47276E+01 .47242E+01
 .49668E+01 .22471E+06 .17869E+05 .72746E+00 .53708E+00 .10852E+00 .52295E-01 .32293E+01 .21549E+08 .18147E+01 .63911E+00 .22180E+01 .25170E+01 .42044E+01 .95475E+00
 .66939E+01 .12839E+06 .10265E+06 .69234E+00 .21676E+00 .49546E-01 .13989E+00 .59065E+01 .13063E+09 .11329E+01 .12870E+01 .15574E+01 .32344E+01 .30720E+01 .69949E-01
 .13918E+02 .32274E+06 .11668E+06 .65081E+00 .46855E+00 .21458E+00 .84672E-01 .36249E+01 .29426E+08 .20088E+01 .30913E+00 .17901E+01 .51463E+01 .54092E+01 .50955E+01
 .11632E+02 .95339E+05 .69311E+05 .52551E+00 .20896E+00 .69861E-01 .16459E+00 .47740E+00 .88888E+07 .40114E+00 .29182E+01 .55582E+00 .45036E+01 .51476E+01 .54954E+01
 .40605E+01 .41414E+05 .45777E+04 .55084E+00 .92346E+00 .70089E+00 .20356E+01 .57325E+01 .65296E+08 .30615E+00 .42430E+01 .15365E+01 .10533E+01 .34796E+00 .32275E+01
 .66008E+01 .81744E+04 .62154E+04 .30408E+00 .39037E+00 .10052E+00 .10135E+00 .78792E+00 .11478E+09 .20675E+01 .28838E+01 .14986E+01 .13063E+01 .21887E+01 .35795E+01
 .42503E+01 .28293E+06 .25504E+05 .39935E+00 .80478E+00 .18547E+00 .90708E-01 .28459E+01 .86253E+08 .23430E+01 .39239E+01 .16489E+01 .29518E+00 .30257E+01 .32510E+01
 .81711E+01 .26252E+06 .54992E+05 .60986E+00 .36603E+00 .64134E-01 .13065E+00 .59559E+01 .11159E+09 .47206E+00 .24241E-01 .24469E+01 .27723E+01 .39988E+01 .25012E+01
 .10689E+02 .39534E+05 .29737E+04 .41218E+00 .98124E+00 .91813E-01 .48040E-01 .49482E+01 .14913E+09 .28863E+01 .39610E+01 .25544E+01 .48209E+01 .10598E+00 .49340E+01
 .30161E+01 .94784E+06 .40997E+05 .67440E+00 .52054E+00 .19708E+00 .13412E+00 .48057E+01 .64374E+08 .17961E+01 .21279E+01 .10712E+01 .62232E+01 .13559E+01 .61063E+01
 .11321E+02 .27369E+06 .17804E+06 .43295E-01 .97014E+00 .15027E+00 .90721E-01 .21369E+01 .82919E+07 .53014E+00 .18706E+00 .30065E+01 .31608E+00 .22494E+01 .52843E+01
 .52623E+01 .15277E+06 .23947E+04 .90909E+00 .66960E+00 .15565E+00 .65194E-01 .13473E+01 .47746E+08 .98667E+00 .24814E+01 .22520E+01 .56001E+01 .51489E+01 .34892E+00
 .23593E+01 .10280E+06 .84998E+05 .98755E+00 .95938E+00 .22104E+00 .13873E+00 .35070E+01 .20357E+08 .21313E+01 .29587E+01 .12096E+01 .48818E-01 .21382E+01 .10551E+01
 .21334E+01 .14510E+06 .55142E+05 .47719E+00 .98690E+00 .20477E+00 .16178E+00 .45692E+01 .78636E+08 .16957E+01 .43293E+01 .22442E+00 .17437E+01 .23429E+01 .33085E+01
 .10535E+02 .64607E+06 .12462E+05 .94049E+00 .14090E+00 .75524E-01 .17256E+00 .40914E+00 .47636E+08 .21554E+01 .58547E+01 .35456E+00 .35623E+01 .30567E+01 .35518E+00
 .64071E+01 .47136E+06 .52365E+05 .95000E+00 .65862E+00 .27247E+00 .15967E+00 .41352E+01 .12275E+09 .20548E+01 .37269E+01 .90737E+00 .35388E+01 .52214E+01 .55622E+01
 .55511E+01 .77838E+05 .12969E+06 .36747E+00 .31019E+00 .21180E+00 .90294E-01 .15495E+01 .13601E+09 .25619E+01 .39319E+01 .14761E+01 .42598E+01 .52828E+01 .67537E+00
 .14293E+02 .37238E+06 .20855E+05 .25145E+00 .62461E+00 .14586E+00 .17455E+00 .54043E+01 .18944E+08 .26097E+01 .51138E+01 .68468E+00 .89055E+00 .71977E+00 .21130E+01
 .13734E+02 .95640E+05 .80450E+05 .35763E+00 .45755E+00 .43136E-01 .38999E-01 .25165E+00 .11810E+09 .72769E+00 .35069E+01 .16407E+01 .34533E+01 .58781E+01 .12982E+01
 .12081E+02 .90711E+06 .19840E+05 .88908E+00 .15297E+00 .10354E+00 .87167E-01 .21287E+01 .13821E+09 .16105E+01 .46075E+01 .91033E+00 .20556E+01 .33027E+01 .51257E+01
 .44518E+01 .55950E+04 .13375E+04 .78009E+00 .17765E+00 .66722E-01 .58775E-01 .19434E+00 .14649E+09 .13483E+01 .47690E+01 .14450E+01 .47602E+01 .49887E+01 .12859E+01
 .38343E+01 .82870E+05 .26282E+05 .71128E+00 .81905E+00 .21773E+01 .11835E+01 .21424E+01 .50958E+08 .12773E+01 .13121E+00 .27144E+01 .18897E+01 .14404E+01 .52055E+01
 .92023E+01 .29209E+06 .22468E+04 .71710E+00 .92297E+00 .17456E+00 .78695E-01 .42611E+01 .36490E+08 .64372E+00 .26233E+01 .13144E+01 .60941E+01 .68005E+00 .43262E+01
 .88301E+01 .20721E+06 .66423E+05 .51297E+00 .39960E+00 .16320E+00 .13103E+00 .51441E+01 .67115E+08 .19147E+01 .96497E+00 .21493E+01 .20088E+01 .32894E+01 .53650E+01
 .19253E+02 .67264E+05 .31495E+05 .55602E+00 .70029E+00 .12977E+00 .13782E+00 .52183E+01 .75335E+08 .89627E+00 .49985E+01 .10794E+01 .29289E+01 .29341E+01 .22364E+01
 .16167E+02 .10384E+06 .42320E+05 .17348E+00 .70507E+00 .26101E+00 .12840E+00 .25063E+01 .12989E+09 .27497E+01 .62347E+01 .52489E+00 .40046E+01 .15504E+01 .45810E+01
 .15330E+02 .25920E+06 .93069E+04 .80943E+00 .16136E+00 .97394E-01 .13917E+00 .57094E+01 .66436E+08 .34747E+00 .35541E+01 .27875E+01 .26316E+01 .58183E+01 .48624E+01
 .13268E+02 .16551E+06 .16500E+05 .59251E+00 .84052E+00 .82532E-01 .91294E-01 .58257E+00 .15436E+09 .52677E+00 .43979E+01 .14479E+01 .38936E+01 .10912E+00 .10729E+01
 .12403E+02 .19186E+06 .46097E+05 .25711E+00 .97837E+00 .24098E+00 .48555E-01 .35122E+01 .39095E+08 .20216E+01 .40525E+01 .10319E+01 .44037E+01 .59356E+00 .44809E+00
 .39480E+01 .22995E+06 .27018E+06 .98544E+00 .83797E+00 .11112E+00 .84100E-01 .14432E+01 .10656E+09 .18000E+01 .52297E+01 .20017E+01 .50435E+01 .31803E+01 .57052E+00
 .14187E+02 .22144E+06 .10436E+06 .85957E+00 .82897E+00 .20611E+00 .18191E+00 .48954E+01 .89206E+08 .24214E+01 .13371E+01 .20245E+01 .45524E+01 .36318E+01 .24432E+01
 .81543E+01 .31161E+06 .17017E+06 .81561E+00 .17831E+00 .12559E+00 .81247E-01 .35065E+01 .81261E+08 .23835E+01 .30508E+00 .11477E+01 .35887E+01 .52182E+01 .62099E+01
 .38462E+01 .93546E+05 .18049E+05 .86163E+00 .32938E+00 .50535E-01 .89378E-01 .57926E+01 .74719E+08 .19696E+01 .37941E+00 .22506E+01 .55442E+01 .10191E+01 .27963E+01
 .17184E+02 .10697E+06 .29969E+05 .58727E+00 .64550E+00 .90050E-01 .18030E+00 .41377E+00 .15126E+09 .23099E+01 .56649E+01 .15969E+01 .23604E+01 .62043E+00 .95329E+00
 .33834E+01 .16072E+06 .33513E+04 .61477E+00 .14000E+00 .24606E+00 .97229E-01 .23462E+01 .82498E+08 .21347E+01 .19973E+01 .12438E+01 .48786E+01 .52960E+01 .32734E+01
 .24662E+01 .22588E+06 .16659E+05 .33984E-01 .28037E+00 .31469E+00 .16637E+00 .34945E+01 .15527E+09 .22991E+01 .37844E+01 .20688E+01 .67558E+00 .34708E+01 .52869E+01
 .15025E+02 .16644E+06 .53099E+05 .65917E+00 .13041E+00 .11603E+00 .14809E+00 .53671E+01 .12338E+08 .20608E+01 .20137E+01 .24990E+01 .18593E+01 .12691E+00 .12102E+01
 .92003E+01 .58206E+05 .17151E+05 .49782E+00 .51923E+00 .98036E-01 .69551E-01 .87498E+00 .10364E+09 .15639E+01 .18158E+01 .56897E+00 .24570E+01 .43854E+01 .68620E+00
 .16357E+02 .13315E+05 .29006E+04 .51657E-01 .78438E+00 .12720E+00 .85539E-01 .40853E+01 .16692E+08 .10839E+01 .32505E+01 .21234E+01 .59144E+01 .20859E+01 .15379E+01
 .10931E+02 .15081E+05 .76936E+04 .14717E+00 .73168E+00 .17698E+00 .16346E+00 .18888E+01 .15602E+09 .87699E+00 .36960E+00 .18556E+01 .50056E+01 .45834E+01 .59354E+01
 .76208E+01 .13904E+06 .44831E+05 .76521E+00 .26716E+00 .21623E+00 .72934E-01 .34128E+01 .10930E+09 .19883E+00 .50670E+01 .10460E+01 .48869E+01 .49680E+01 .59070E+01
 .98164E+00 .16918E+05 .56487E+04 .93773E-01 .22256E+00 .20103E+00 .83779E-01 .35295E+01 .12439E+09 .11327E+01 .34639E+01 .11487E+01 .33391E+01 .61143E+01 .21380E+01
 .12688E+02 .17149E+06 .27812E+05 .91871E+00 .40238E+00 .15762E+00 .10642E+00 .42960E+01 .28145E+08 .12177E+01 .79293E+00 .55582E+00 .78382E+00 .24873E+01 .48658E+01
 .57304E+01 .41189E+05 .21829E+05 .77504E+00 .34351E+00 .12587E+00 .92829E-01 .47892E+01 .52469E+08 .10489E+01 .52718E+01 .14896E+01 .28565E+00 .13968E+01 .23563E+01
 .16336E+01 .12410E+06 .46693E+05 .99800E+00 .66191E+00 .21631E+00 .13163E+00 .42070E+01 .12534E+09 .17753E+00 .33339E+00 .58284E+00 .53093E+00 .34544E+01 .33638E+01
 .61691E+01 .49192E+05 .11008E+04 .37396E+00 .63648E+00 .14942E+00 .12595E+00 .49931E+01 .71856E+07 .21739E+01 .34203E+01 .15404E+01 .57067E+01 .91333E+00 .65597E+00
 .18431E+01 .71494E+05 .20730E+05 .24624E+00 .99800E+00 .13714E+01 .62483E+00 .12300E+01 .13358E+09 .10690E+01 .58630E+01 .16216E+01 .14522E+01 .29842E+01 .36913E+01
 .14149E+02 .99908E+05 .96389E+05 .86512E+00 .19285E+00 .15591E+00 .18132E+00 .53399E+01 .15471E+08 .24457E+01 .20978E+01 .25935E+01 .13300E+01 .40311E+01 .13200E+01
 .12115E+02 .15710E+06 .10162E+06 .42818E+00 .86020E+00 .51351E-01 .11669E+00 .60952E+01 .39259E+07 .80223E+00 .30679E-01 .25674E+01 .43397E+01 .31461E+01 .38501E+01
 .56913E+01 .43760E+05 .66445E+05 .53930E+00 .44866E+00 .10720E+00 .13471E+00 .50987E+01 .82566E+07 .41488E+00 .64322E+00 .23694E+01 .12455E+01 .11786E+01 .17840E+01
 .52083E+01 .22858E+05 .20856E+05 .56808E+00 .27880E+00 .15642E+00 .11152E-01 .35550E+01 .61032E+08 .30304E+01 .40482E+01 .18181E+01 .13831E+01 .59804E+01 .87057E+00
 .17387E+02 .38942E+06 .27639E+05 .56480E+00 .47867E+00 .98460E-02 .14982E+00 .62723E+01 .14745E+09 .21467E+01 .46566E+01 .15053E+01 .33832E+01 .20242E+01 .50672E+01
 .69849E+01 .91021E+05 .41847E+05 .57197E+00 .35166E+00 .21822E+00 .16129E+00 .43515E+01 .12315E+08 .20490E+01 .41140E+01 .13111E+01 .36218E+01 .17972E+00 .33449E+01
 .49219E+01 .15098E+05 .60984E+04 .29065E+00 .83689E+00 .23061E+00 .14218E+00 .21441E+01 .46182E+08 .75687E+00 .31855E+01 .16949E+01 .49495E+01 .52168E+01 .29681E+01
 .17565E+02 .50238E+05 .47118E+05 .12323E+00 .98136E+00 .24922E+00 .15611E+00 .46939E+01 .85205E+07 .26839E+01 .50357E+01 .16076E+01 .47758E+01 .29540E+01 .22687E+01
 .66524E+01 .15148E+06 .42146E+05 .71777E+00 .81823E+00 .20179E+00 .64996E-01 .19488E+01 .37224E+08 .10624E+01 .30954E+01 .18982E+01 .59156E+01 .77074E+00 .22801E+01
 .16187E+02 .57127E+05 .14666E+05 .51630E+00 .69997E+00 .79794E-01 .83072E-01 .95716E+00 .17935E+08 .13441E+01 .66944E+00 .17935E+01 .18023E+01 .31644E+01 .60778E+00
 .12174E+02 .19288E+06 .88417E+05 .11300E+00 .98971E+00 .14411E+00 .18457E+00 .11442E+01 .10727E+09 .15709E+01 .52792E+00 .21234E+01 .22422E+01 .28090E+01 .53031E+01
 .52157E+01 .36664E+05 .23460E+05 .10229E+00 .97187E+00 .30646E+00 .16702E+00 .35971E+01 .79723E+08 .14563E+01 .13896E+00 .18734E+01 .36711E+01 .55054E+01 .40629E+01
 .20400E+01 .21768E+06 .14666E+05 .99800E+00 .70085E+00 .28853E+00 .15856E+00 .23771E+01 .16523E+08 .24975E+01 .80266E+00 .24356E+01 .55684E+00 .51393E+01 .54249E+01
 .82560E+01 .15190E+05 .32252E+04 .29065E+00 .19279E+00 .22428E+00 .14450E+00 .31551E+01 .11850E+09 .77597E+00 .60582E+01 .19999E+01 .38845E+01 .18893E+01 .46945E+01
 .87920E+01 .12121E+07 .33779E+05 .54922E+00 .31976E+00 .17030E+00 .17676E+00 .11582E+01 .69395E+08 .23024E+01 .26885E+01 .25659E+01 .17733E+00 .59398E+01 .60588E+00
 .85582E+01 .34851E+05 .10533E+04 .71380E+00 .39039E+00 .11876E+00 .16534E+00 .67572E+00 .11016E+09 .76506E+00 .28207E+01 .13409E+01 .47629E+01 .32502E+01 .12358E+01
 .54103E+01 .23363E+06 .22887E+05 .14868E+00 .26858E+00 .25925E+00 .14151E+00 .20838E+01 .11176E+09 .27762E+01 .34855E+01 .20358E+01 .58293E+01 .49069E+01 .20354E+01
 .63832E+01 .14215E+05 .17822E+04 .93343E-01 .61679E+00 .26372E-01 .13237E+00 .62176E+01 .13375E+09 .27591E+01 .13086E+01 .64936E+00 .38612E+01 .16050E+01 .47750E+01
 .68718E+01 .55567E+04 .67691E+04 .97837E+00 .54209E-01 .13717E+00 .81202E-01 .26682E+01 .10536E+09 .23661E+01 .37224E+01 .15843E+01 .24848E+01 .47717E+01 .21153E+01
 .62866E+01 .53958E+06 .21594E+06 .53963E+00 .59174E+00 .28478E+00 .15424E+00 .34975E+01 .43624E+08 .20096E+01 .55268E+01 .27521E+01 .24377E+01 .34051E+01 .12088E+01
 .10765E+01 .14581E+06 .14229E+06 .99800E+00 .99800E+00 .30544E+01 .26625E+01 .31807E+01 .25933E+07 .19607E+01 .20388E+01 .16178E+01 .19828E+01 .25152E+01 .40395E+01
 .33503E+01 .52702E+05 .18325E+04 .99800E+00 .10057E+00 .14373E+01 .82951E+00 .48037E+01 .17305E+08 .88469E+00 .43889E+01 .17871E+01 .59561E+01 .70271E+00 .12794E+01
 .10873E+02 .25695E+05 .30172E+04 .75443E+00 .99179E+00 .73940E-01 .13184E+00 .61556E+01 .83402E+08 .20153E+01 .37468E+01 .59818E-01 .58879E+01 .32846E+01 .14646E+01
 .88999E+01 .37520E+06 .55700E+05 .28249E+00 .61918E+00 .20248E+00 .15566E+00 .13875E+01 .14328E+08 .90341E-01 .21249E+01 .14876E+01 .34869E+00 .46248E+01 .19286E+01
 .16792E+02 .93239E+05 .51818E+05 .27268E+00 .82960E+00 .17767E+00 .98468E-01 .14129E+01 .60057E+08 .20561E+01 .38287E+01 .85602E+00 .28647E+00 .42421E+01 .44224E+01
 .10393E+02 .52502E+05 .43399E+04 .47268E+00 .51943E+00 .22274E+00 .98792E-01 .41831E+01 .13034E+09 .21751E+01 .38624E+01 .14150E+01 .37070E+01 .26092E+00 .32324E+00
 .43669E+01 .73996E+04 .91582E+03 .77524E+00 .66735E+00 .15351E+00 .11755E+00 .15650E+01 .93881E+08 .54371E+00 .27504E+01 .19425E+01 .53540E+01 .62596E+01 .47926E+01
 .58799E+01 .87156E+05 .68921E+05 .94796E+00 .11862E+00 .23724E+00 .14850E+00 .45077E+01 .38629E+08 .27045E+01 .52887E+01 .21881E+01 .49595E+01 .16573E+00 .12811E+01
 .12663E+02 .70574E+05 .65636E+04 .22301E+00 .33492E+00 .91827E-01 .77755E-01 .51237E+01 .85170E+08 .18539E+01 .80835E+00 .44128E+00 .49365E+01 .60397E+01 .52278E+01
 .85142E+01 .23993E+06 .59925E+05 .59301E+00 .78326E+00 .11795E+00 .13754E+00 .10184E+01 .10498E+09 .23642E+01 .30612E+01 .23694E+01 .17128E+01 .54540E+01 .25663E+01
 .41064E+01 .27846E+06 .16881E+06 .48283E+00 .56587E+00 .11625E+00 .14664E+00 .53110E+01 .71136E+08 .19191E+01 .49426E+01 .24251E+01 .47034E+01 .38941E+01 .61282E+01
 .13900E+02 .11002E+06 .76875E+05 .36565E+00 .25916E+00 .18682E+00 .85516E-01 .18398E+01 .51017E+08 .20413E+01 .41141E+01 .27240E+01 .59272E+01 .32868E+01 .51522E+01
 .11018E+02 .46125E+05 .53596E+04 .64303E+00 .99716E+00 .17011E+00 .91378E-01 .19565E+01 .12527E+09 .52191E+00 .10094E+00 .11399E+01 .87628E-01 .10153E+00 .48765E+01
 .14106E+02 .65402E+05 .20194E+05 .84625E+00 .60705E+00 .20312E+00 .62796E-01 .40451E+01 .96343E+08 .27478E+01 .11741E+01 .23030E+01 .60016E+01 .25900E+01 .10218E+01
 .86206E+01 .35202E+05 .38088E+04 .84358E-01 .75935E+00 .16627E+00 .11721E+00 .47640E+01 .12493E+09 .19629E+01 .53637E+01 .13798E+01 .24814E+01 .59809E+00 .61484E+01
 .60796E+01 .58628E+06 .23951E+06 .99800E+00 .94935E+00 .22793E+00 .16269E+00 .18020E+01 .15371E+09 .59198E+00 .39862E-02 .19700E+01 .41296E+00 .41879E+01 .57895E+01
 .93643E+01 .27224E+06 .14814E+05 .89030E+00 .46592E+00 .21411E+00 .15919E+00 .15541E+01 .13603E+09 .28647E+01 .28946E+01 .11825E+01 .51555E+01 .18396E+01 .12860E+01
 .75213E+01 .27981E+05 .86204E+03 .57333E+00 .43236E+00 .79713E-01 .78831E-01 .60783E+01 .12353E+09 .21568E+01 .17690E+01 .17125E+01 .12354E+01 .11129E+01 .21234E+00
 .21348E+01 .18240E+07 .78068E+06 .98163E+00 .98877E+00 .28559E+01 .41383E+00 .28976E+01 .15708E+08 .14523E+01 .58013E+01 .17346E+01 .70886E+00 .32414E+01 .53324E+01
 .86086E+01 .28475E+06 .17480E+06 .76192E+00 .94628E+00 .22244E+00 .79769E-01 .42420E+01 .14221E+09 .20757E+01 .44576E+01 .18620E+01 .22822E+01 .71817E+00 .15683E+01
 .73696E+01 .35957E+06 .60374E+05 .50110E+00 .41533E+00 .58902E-01 .86671E-01 .52913E+01 .53321E+08 .22849E+01 .40062E+01 .22118E+01 .34165E+01 .61664E+00 .24130E+01
 .10305E+02 .15104E+06 .12923E+06 .36028E+00 .54128E+00 .23188E+00 .15596E+00 .27741E+01 .56704E+08 .13305E+01 .32497E+01 .14674E+01 .22084E+01 .27289E+00 .57338E+00
 .16476E+02 .98041E+05 .68926E+05 .48265E+00 .58115E+00 .13289E+00 .67952E-01 .49018E+01 .12666E+09 .20246E+01 .21656E+01 .89516E+00 .55721E+01 .27135E+01 .47701E+01
 .13736E+02 .82208E+05 .70678E+05 .92861E+00 .73926E+00 .11684E+00 .15927E+00 .52450E+01 .14297E+09 .16001E+01 .41159E+01 .16497E+01 .32423E+00 .23698E+01 .52629E+00
 .17244E+02 .42538E+06 .20522E+05 .53749E+00 .85495E+00 .18017E+00 .15455E+00 .46090E+01 .60995E+08 .72083E+00 .30557E+01 .20546E+01 .38418E+01 .15045E+01 .31471E+00
 .13909E+02 .10042E+06 .13013E+05 .81922E+00 .84500E-01 .36956E-01 .64905E-01 .79156E+00 .14669E+09 .28445E+01 .10769E+01 .67052E+00 .18368E+01 .33537E+01 .15727E+01
 .13920E+02 .82354E+05 .13496E+05 .80515E+00 .73566E-01 .41646E-01 .68124E-01 .80622E+00 .38753E+08 .34365E+00 .56234E+01 .22710E+01 .54255E+01 .21174E+01 .40741E+01
 .11743E+02 .41442E+05 .25084E+04 .10161E+00 .45833E+00 .75301E-01 .11740E+00 .45207E+00 .93309E+08 .24396E+01 .37802E+01 .57837E+00 .17573E+00 .35427E+01 .37155E+01
 .39745E+01 .25109E+05 .40959E+04 .66680E+00 .99800E+00 .21279E+00 .15905E+00 .47025E+01 .11979E+07 .26024E+01 .59609E+01 .29675E+01 .28139E+01 .13935E+00 .61781E+00
 .14999E+02 .69336E+06 .31807E+05 .79847E+00 .94417E+00 .16483E+00 .10913E+00 .50845E+01 .37308E+08 .16620E+00 .42768E+01 .18701E+01 .20552E+01 .16934E+01 .50774E+01
 .34357E+01 .82999E+05 .22747E+05 .27749E+00 .43962E+00 .76422E-01 .96082E-01 .59952E+01 .66460E+08 .16286E+01 .17357E+01 .19746E+01 .12432E+01 .33676E+01 .53304E+01
 .13298E+02 .43322E+05 .17946E+05 .18129E+00 .39350E+00 .21779E-01 .13436E+00 .60516E+01 .10115E+09 .11490E+01 .54685E+01 .21921E+01 .52721E+01 .53178E+00 .61875E+01
 .76131E+01 .56975E+05 .51531E+05 .51490E+00 .99590E+00 .16104E+00 .54682E-01 .10031E+01 .14996E+09 .19139E+01 .15311E+01 .18625E+01 .15380E+01 .29745E+01 .59209E+01
 .99725E+01 .54523E+05 .20667E+05 .86318E+00 .33651E+00 .12139E+00 .45685E-01 .52907E+01 .30176E+08 .19348E+01 .66921E+00 .83587E+00 .15253E+01 .37253E+01 .59969E+01
 .12226E+02 .10531E+06 .67372E+05 .95089E+00 .52678E-02 .20502E+00 .11331E+00 .47068E+01 .95853E+08 .27731E+01 .54894E+01 .21851E+01 .21983E+01 .68425E+00 .32370E+01
 .13869E+02 .62711E+05 .29707E+05 .97366E+00 .12690E+00 .15991E+00 .68945E-01 .21604E+01 .55171E+08 .17873E+01 .42410E+01 .84287E+00 .61038E+01 .21364E+01 .21943E+01
 .31049E+01 .14691E+05 .65009E+04 .57286E+00 .67210E+00 .22310E+01 .53336E+00 .18009E+01 .87918E+08 .69169E+00 .10781E+00 .13898E+01 .29159E+01 .23049E+01 .43565E+01
 .88709E+00 .48032E+06 .15604E+05 .99800E+00 .51557E-01 .25039E+00 .91042E-01 .28171E+01 .14465E+09 .21080E+01 .49605E+01 .18986E+01 .45804E+01 .15019E+01 .30539E+01
 .70524E+01 .11364E+06 .12801E+06 .81465E+00 .82941E+00 .18352E+00 .15026E+00 .31906E+01 .14074E+09 .26323E+01 .22518E+01 .18435E+01 .49750E+01 .70964E+00 .41901E+01
 .32484E+01 .40784E+05 .12858E+05 .17215E-01 .99800E+00 .30666E+00 .15615E+00 .39064E+01 .81019E+08 .17098E+01 .35101E+01 .20357E+01 .23772E+01 .15461E+01 .55314E+01
 .15406E+02 .30156E+05 .26065E+04 .18665E+00 .46837E+00 .70785E-01 .15325E+00 .63513E-01 .41980E+08 .14903E+01 .41845E+01 .79808E+00 .17959E+01 .54487E+01 .13557E+01
 .77016E+01 .29335E+06 .12105E+05 .51322E+00 .66753E-01 .23062E+00 .10390E+00 .41155E+01 .10343E+09 .11757E+01 .33782E+01 .19498E+01 .36850E+01 .47036E+01 .58142E+01
 .22111E+01 .12293E+06 .90027E+04 .26271E+00 .99800E+00 .50380E-02 .11021E+00 .12182E-02 .93020E+08 .57355E+00 .11157E+01 .17199E+01 .18780E+01 .12934E+01 .36178E+01
 .19381E+01 .56880E+06 .76003E+05 .99800E+00 .41724E+00 .91054E-01 .57097E-01 .67947E+00 .91821E+08 .22029E+01 .24106E+01 .17441E+01 .48366E-01 .21495E+01 .22813E+01
 .44859E+01 .54395E+05 .31487E+05 .34791E+00 .99800E+00 .13391E+00 .45333E-01 .41925E+01 .44951E+08 .12587E+01 .40554E+01 .17490E+01 .24587E+01 .32025E+01 .44630E+01
 .12150E+02 .49356E+05 .21675E+05 .84119E+00 .39390E+00 .12438E+00 .99858E-01 .16301E+01 .87048E+08 .21475E+01 .11285E+00 .14190E+01 .20881E+01 .17045E+01 .24948E+01
 .94942E+01 .27721E+05 .14604E+05 .50368E+00 .58364E+00 .17622E+00 .18655E+00 .51224E+01 .62097E+08 .17583E+01 .16506E+01 .24343E+01 .10556E+01 .40844E+01 .25615E+01
 .46430E+01 .60736E+05 .29922E+05 .50460E+00 .58336E+00 .18893E+00 .75978E-01 .43311E+01 .10015E+09 .79686E+00 .29593E+01 .28489E+01 .37272E+01 .61856E+01 .31182E+01
 .10589E+02 .29831E+06 .45937E+04 .40062E+00 .59469E+00 .16624E+00 .17486E+00 .48494E+01 .15338E+09 .20807E+01 .25074E+00 .10985E+01 .87993E+00 .14870E+01 .35973E+01
 .47952E+01 .91827E+05 .79348E+05 .23792E+00 .49072E+00 .13403E+00 .11817E+00 .25518E+01 .10083E+09 .83805E+00 .10076E+01 .13783E+01 .35426E+01 .12946E+01 .35372E+01
 .97196E+01 .43290E+06 .53465E+05 .71816E+00 .50254E+00 .28243E+00 .12930E+00 .33432E+01 .11253E+09 .12690E+01 .24018E+01 .27136E+00 .12705E+01 .60620E+01 .34236E+01
 .12103E+02 .16300E+06 .15711E+04 .35184E+00 .26868E+00 .76098E-01 .63891E-01 .32935E+00 .14195E+09 .19462E+01 .35269E+01 .19289E+01 .21295E+01 .19490E+01 .50648E+01
 .84950E+01 .80135E+06 .27372E+05 .98478E+00 .29003E+00 .21823E+00 .52703E-01 .28309E+01 .12545E+07 .25889E+01 .58607E+01 .49080E+00 .45132E+01 .37131E+01 .98688E+00
 .45609E+01 .27920E+05 .50077E+04 .99800E+00 .18466E-01 .21180E-01 .37131E-01 .61068E+01 .13518E+09 .97447E+00 .44632E+00 .13270E+01 .13211E+01 .19134E+01 .82623E+00
 .75705E+01 .89479E+05 .83936E+05 .97091E+00 .86704E+00 .11582E+00 .13962E+00 .93520E+00 .79969E+08 .17167E+01 .49640E+01 .16177E+01 .45772E+01 .13571E+01 .30803E+01
 .15897E+02 .61233E+06 .95338E+05 .99008E+00 .93622E+00 .16904E+00 .10061E+00 .24003E+01 .13583E+09 .25796E+01 .27659E+01 .13831E+01 .18030E+01 .31089E+01 .61191E+01
 .99297E+01 .12339E+06 .17443E+06 .42734E+00 .52925E+00 .17389E+00 .11089E+00 .40838E+01 .24371E+08 .66068E+00 .51894E+01 .29422E+01 .42465E+00 .20213E+01 .45835E+01
 .11207E+02 .87534E+04 .63552E+03 .80650E+00 .84800E+00 .22215E+00 .13851E+00 .20490E+01 .11980E+08 .23770E+01 .24943E+01 .23883E+01 .20686E+01 .17972E+01 .83653E+00
 .15600E+02 .58680E+06 .15474E+05 .20944E+00 .77460E+00 .26839E+00 .15362E+00 .22598E+01 .74532E+08 .97277E+00 .91683E+00 .27027E+01 .17881E+01 .58140E+01 .57709E+01
 .42049E+01 .98514E+05 .62204E+05 .92106E+00 .99800E+00 .10944E+00 .14164E+00 .89357E+00 .14372E+09 .12233E+01 .29616E+00 .46173E+00 .35392E+01 .35583E-01 .24476E+01
 .13646E+02 .76588E+05 .11063E+05 .15257E+00 .40169E-01 .15228E+00 .13374E+00 .10304E+01 .91996E+08 .42628E+00 .51184E+01 .26494E+01 .38385E+01 .22681E+00 .88540E+00
 .14608E+02 .38094E+05 .59985E+04 .93012E+00 .32799E+00 .13885E+00 .12584E+00 .47609E+01 .90558E+08 .24121E+01 .34802E+01 .15619E+01 .36887E+01 .53149E+00 .33390E+01
 .84741E+01 .71187E+06 .52570E+06 .33893E+00 .22770E+00 .17733E+00 .13806E+00 .47317E+01 .12463E+09 .16547E+01 .23983E+01 .78365E+00 .40365E+01 .12161E+01 .40710E+01
 .58793E+01 .45432E+06 .28884E+05 .62372E+00 .52294E+00 .32520E+00 .15074E+00 .37454E+01 .20176E+08 .15694E+01 .55166E+01 .75489E+00 .50159E+01 .38071E+01 .23718E+01
 .49095E+01 .72413E+06 .53743E+05 .81048E+00 .75644E+00 .30600E+00 .16055E+00 .38166E+01 .15410E+09 .20390E+01 .30156E+01 .18754E+01 .47114E+01 .19969E+01 .48407E+01
 .18625E+02 .26416E+06 .36874E+05 .62497E+00 .92608E+00 .36606E-01 .13683E+00 .62333E+01 .55648E+08 .24273E+01 .55748E+01 .27004E+00 .18055E+01 .32107E+01 .27398E+01
 .16599E+02 .80132E+05 .69940E+04 .85239E+00 .40122E+00 .43293E-01 .16593E+00 .13111E+00 .44781E+08 .11358E+01 .48257E+01 .19084E+01 .86528E+00 .49941E+01 .49390E+01
 .14240E+02 .59213E+05 .39809E+05 .86452E+00 .89257E+00 .14392E+00 .12793E+00 .10669E+01 .52487E+08 .80280E+00 .44140E+01 .23064E+01 .33881E+01 .10465E+01 .13813E+01
 .47912E+01 .19650E+06 .17322E+06 .74425E+00 .23786E+00 .28818E+00 .14153E+00 .25629E+01 .71184E+07 .13522E+01 .43022E+01 .19792E+01 .32647E+01 .16123E+00 .48457E+01
 .86476E+01 .31167E+06 .19306E+06 .85761E+00 .29159E+00 .10153E+00 .15007E+00 .55648E+01 .27311E+08 .11504E+01 .42267E+01 .88517E+00 .60611E+01 .40529E+01 .40556E+01
 .13684E+02 .24495E+05 .43467E+04 .74386E+00 .77257E+00 .96057E-01 .14584E+00 .73039E+00 .15536E+09 .16788E+01 .35031E+01 .80610E+00 .51192E+00 .42019E+01 .52811E+01
 .13733E+02 .19679E+06 .73407E+05 .77151E+00 .76590E-01 .17410E+00 .14742E+00 .48529E+01 .70350E+08 .67642E+00 .43848E+01 .15723E+01 .49268E+01 .92381E+00 .36302E+01
